{"adult": false, "backdrop_path": "/shDuZI0fKEfkIDwwvE77ebUZiyQ.jpg", "belongs_to_collection": null, "budget": 0, "genres": [{"id": 35, "name": "Comedy"}, {"id": 10402, "name": "Music"}, {"id": 10749, "name": "Romance"}], "homepage": null, "id": 96252, "imdb_id": "tt0040271", "original_language": "en", "original_title": "A Date with Judy", "overview": "Developed from a radio program which began in 1941, hyperactive teenager Judy challenges and is challeged by her overly proper parents, pest of a brother Randolph and boyfriend Oogie.", "popularity": 3.51, "poster_path": "/hFli2nrTY6X6XE0AkRfh4nngLIM.jpg", "production_companies": [{"id": 21, "logo_path": "/mjofSXiHpG5t6KYmU4l4FrUhT7m.png", "name": "Metro-Goldwyn-Mayer", "origin_country": "US"}], "production_countries": [{"iso_3166_1": "US", "name": "United States of America"}], "release_date": "1948-07-29", "revenue": 0, "runtime": 113, "spoken_languages": [{"iso_639_1": "en", "name": "English"}], "status": "Released", "tagline": "The best date you ever had!", "title": "A Date with Judy", "video": false, "vote_average": 6.3, "vote_count": 6, "keywords": {"keywords": [{"id": 10920, "name": "radio program"}, {"id": 13130, "name": "teenager"}]}, "similar": {"page": 1, "results": [{"id": 272693, "video": false, "vote_count": 3247, "vote_average": 6.8, "title": "The DUFF", "release_date": "2015-02-20", "original_language": "en", "original_title": "The DUFF", "genre_ids": [35, 10749], "backdrop_path": "/awGZf5T1hflis9Z2KvRMhp798xU.jpg", "adult": false, "overview": "Bianca's universe turns upside down when she learns that her high school refers to her as a \u2018DUFF' (Designated Ugly Fat Friend). Hoping to erase that label, she enlists the help of a charming jock and her favorite teacher. Together they'll face the school's mean girl and remind everyone that we are all someone's DUFF\u2026 and that's totally fine.", "poster_path": "/dBBgPTCN5Zze4POXWVVpwf3wkra.jpg", "popularity": 14.151}, {"id": 449176, "video": false, "vote_count": 3690, "vote_average": 8.1, "title": "Love, Simon", "release_date": "2018-02-16", "original_language": "en", "original_title": "Love, Simon", "genre_ids": [35, 18, 10749], "backdrop_path": "/rqMEeajyzSF4PpJtdCB816Iz8Vr.jpg", "adult": false, "overview": "Everyone deserves a great love story. But for seventeen-year old Simon Spier it's a little more complicated: he's yet to tell his family or friends he's gay and he doesn't know the identity of the anonymous classmate he's fallen for online.", "poster_path": "/5YUYg5q7QfC4IoNwNUtiwdiYKPr.jpg", "popularity": 24.849}, {"adult": false, "backdrop_path": "/jrSo8OTeWZ0Ego7uOYS20syIZ5N.jpg", "genre_ids": [35, 18], "id": 308369, "original_language": "en", "original_title": "Me and Earl and the Dying Girl", "overview": "Greg is coasting through senior year of high school as anonymously as possible, avoiding social interactions like the plague while secretly making spirited, bizarre films with Earl, his only friend. But both his anonymity and friendship threaten to unravel when his mother forces him to befriend a classmate with leukemia.", "poster_path": "/4Zrvc5rddDSHD3JmfkzvAx82wuT.jpg", "release_date": "2015-06-12", "title": "Me and Earl and the Dying Girl", "video": false, "vote_average": 7.6, "vote_count": 1696, "popularity": 10.454}, {"id": 2105, "video": false, "vote_count": 4789, "vote_average": 6.5, "title": "American Pie", "release_date": "1999-07-09", "original_language": "en", "original_title": "American Pie", "genre_ids": [35, 10749], "backdrop_path": "/udTWgfwAzUxdztoyKSReoSrjBU7.jpg", "adult": false, "overview": "At a high-school party, four friends find that losing their collective virginity isn't as easy as they had thought. But they still believe that they need to do so before college. To motivate themselves, they enter a pact to all \"score.\" by their senior prom.", "poster_path": "/k40WFAXMRekWEqsjURO3jiWob67.jpg", "popularity": 27.064}, {"id": 11887, "video": false, "vote_count": 2347, "vote_average": 6.5, "title": "High School Musical 3: Senior Year", "release_date": "2008-10-11", "original_language": "en", "original_title": "High School Musical 3: Senior Year", "genre_ids": [35, 18, 10402, 10749, 10751], "backdrop_path": "/daSGxGZL2nNjGZKkAF5ain3lmOx.jpg", "adult": false, "overview": "It's almost graduation day for high school seniors Troy, Gabriella, Sharpay, Chad, Ryan and Taylor \u2015 and the thought of heading off in separate directions after leaving East High has these Wildcats thinking they need to do something they'll remember forever. Together with the rest of the Wildcats, they stage a spring musical reflecting their hopes and fears about the future and their unforgettable experiences growing up together. But with graduation approaching and college plans in question, what will become of the dreams, romances, and friendships of East High's senior Wildcats?", "poster_path": "/ewZpH2QIfPQ0VIn9lPf7MHbLbl4.jpg", "popularity": 19.967}, {"adult": false, "backdrop_path": "/ncERp0UvXuImUeJcf27kEANcf1r.jpg", "genre_ids": [35, 10751, 10749], "id": 9880, "original_language": "en", "original_title": "The Princess Diaries", "overview": "A socially awkward but very bright 15-year-old girl being raised by a single mom discovers that she is the princess of a small European country because of the recent death of her long-absent father, who, unknown to her, was the crown prince of Genovia. She must make a choice between continuing the life of a San Francisco teen or stepping up to the throne.", "poster_path": "/sxpvHk286sXLJWcFrBMNIsXbYsd.jpg", "release_date": "2001-08-03", "title": "The Princess Diaries", "video": false, "vote_average": 6.8, "vote_count": 2861, "popularity": 32.167}, {"adult": false, "backdrop_path": "/8zPQ57lSiuRmHjmkRGopGdG4QD5.jpg", "genre_ids": [35, 18, 10749], "id": 157386, "original_language": "en", "original_title": "The Spectacular Now", "overview": "Sutter, a popular party animal unexpectedly meets the introverted Aimee after waking up on a stranger's lawn. As Sutter deals with the problems in his life and Aimee plans for her future beyond school, an unexpected romance blossoms between them.", "poster_path": "/iklgvkUqlruQrz8DlUsJzaa9HZh.jpg", "release_date": "2013-08-02", "title": "The Spectacular Now", "video": false, "vote_average": 6.6, "vote_count": 1968, "popularity": 14.131}, {"adult": false, "backdrop_path": "/wu4tawMznxUvqP21lUH6RKrv3LQ.jpg", "genre_ids": [35], "id": 37735, "original_language": "en", "original_title": "Easy A", "overview": "Olive, an average high school student, sees her below-the-radar existence turn around overnight once she decides to use the school's gossip grapevine to advance her social standing. Now her classmates are turning against her and the school board is becoming concerned, including her favorite teacher and the distracted guidance counselor. With the support of her hilariously idiosyncratic parents and a little help from a long-time crush, Olive attempts to take on her notorious new identity and crush the rumor mill once and for all.", "poster_path": "/1pgPO3OfSm2inpODMqg2RNmLW90.jpg", "release_date": "2010-09-16", "title": "Easy A", "video": false, "vote_average": 6.8, "vote_count": 4633, "popularity": 13.401}, {"id": 13342, "video": false, "vote_count": 638, "vote_average": 6.9, "title": "Fast Times at Ridgemont High", "release_date": "1982-08-13", "original_language": "en", "original_title": "Fast Times at Ridgemont High", "genre_ids": [35, 18], "backdrop_path": "/l23IoHAfjTdNMZLeDetr75H6sb7.jpg", "adult": false, "overview": "Follows a group of high school students growing up in southern California, based on the real-life adventures chronicled by Cameron Crowe. Stacy Hamilton and Mark Ratner are looking for a love interest, and are helped along by their older classmates, Linda Barrett and Mike Damone, respectively. The center of the film is held by Jeff Spicoli, a perpetually stoned surfer dude who faces off with the resolute Mr. Hand, who is convinced that everyone is on dope.", "poster_path": "/lvEenO2CikD4Zo3rFK1flAU99Pr.jpg", "popularity": 14.454}, {"adult": false, "backdrop_path": "/nt2e2QL5Nktok8udDar6627f1Ws.jpg", "genre_ids": [35], "id": 10625, "original_language": "en", "original_title": "Mean Girls", "overview": "Cady Heron is a hit with The Plastics, the A-list girl clique at her new school, until she makes the mistake of falling for Aaron Samuels, the ex-boyfriend of alpha Plastic Regina George.", "poster_path": "/lDlGPZS0UJYKxVlpyff3BMyPc2H.jpg", "release_date": "2004-04-30", "title": "Mean Girls", "video": false, "vote_average": 7.1, "vote_count": 5324, "popularity": 19.072}, {"adult": false, "backdrop_path": "/iFLAEKnLQZNeYztE7Vy5NbL4Tw1.jpg", "genre_ids": [35], "id": 57214, "original_language": "en", "original_title": "Project X", "overview": "Three high school seniors throw a party to make a name for themselves. As the night progresses, things spiral out of control as word of the party spreads.", "poster_path": "/cWXkRLmzKfYutvWeJXaednoGKdF.jpg", "release_date": "2012-03-01", "title": "Project X", "video": false, "vote_average": 6.4, "vote_count": 3260, "popularity": 14.346}, {"adult": false, "backdrop_path": "/u3kOcfdPhZXdYM1axAkU5sPYZS9.jpg", "genre_ids": [35, 18], "id": 43923, "original_language": "en", "original_title": "It's Kind of a Funny Story", "overview": "A clinically depressed teenager gets a new start after he checks himself into an adult psychiatric ward.", "poster_path": "/wADblWdHMk2SIaZRBazTGOTBf4w.jpg", "release_date": "2010-10-08", "title": "It's Kind of a Funny Story", "video": false, "vote_average": 7.0, "vote_count": 1492, "popularity": 14.302}, {"id": 9571, "video": false, "vote_count": 1108, "vote_average": 7.5, "title": "Dazed and Confused", "release_date": "1993-09-24", "original_language": "en", "original_title": "Dazed and Confused", "genre_ids": [35, 18], "backdrop_path": "/jBz16NsAeKjpHNznl1EHlcr704P.jpg", "adult": false, "overview": "The adventures of a group of Texas teens on their last day of school in 1976, centering on student Randall Floyd, who moves easily among stoners, jocks and geeks. Floyd is a star athlete, but he also likes smoking weed, which presents a conundrum when his football coach demands he sign a \"no drugs\" pledge.", "poster_path": "/ksw0G7zSM98rKZWNwl5EuEgpXpt.jpg", "popularity": 13.271}, {"id": 505600, "video": false, "vote_count": 835, "vote_average": 7.2, "title": "Booksmart", "release_date": "2019-05-24", "original_language": "en", "original_title": "Booksmart", "genre_ids": [35], "backdrop_path": "/wcAqndL2MkIjPrCrYeuE794weNE.jpg", "adult": false, "overview": "Two academic teenage superstars realize, on the eve of their high school graduation, that they should have worked less and played more. Determined to never fall short of their peers, the girls set out on a mission to cram four years of fun into one night.", "poster_path": "/micaVOa1UZsdzs4fKGA67ZMGOzc.jpg", "popularity": 21.49}, {"id": 325189, "video": false, "vote_count": 338, "vote_average": 6.5, "title": "Teen Beach 2", "release_date": "2015-06-26", "original_language": "en", "original_title": "Teen Beach 2", "genre_ids": [35, 14, 10751, 10770], "backdrop_path": "/x3cQd5rruj6jySg7dIHuNXT8REX.jpg", "adult": false, "overview": "When characters from the movie musical \u201cWet Side Story\u201d get stuck in the real world, teens Brady and Mack must find a way to return them home.", "poster_path": "/4A5Ecrvs6P8Yipjn4Xl2WYgu7Gm.jpg", "popularity": 24.726}, {"id": 37725, "video": false, "vote_count": 648, "vote_average": 6.5, "title": "It's a Boy Girl Thing", "release_date": "2006-12-26", "original_language": "en", "original_title": "It's a Boy Girl Thing", "genre_ids": [35, 14, 10749], "backdrop_path": "/vcUu3EOu5oz5hCGmJ94DFlIqhPY.jpg", "adult": false, "overview": "A visit to a natural history museum proves catastrophic for two high school rivals, an overachiever and a jock, when an ancient Aztec statue casts a spell that causes them to switch bodies and see exactly what it's like to walk in the other's shoes.", "poster_path": "/lFZQlr68VRzrroXtTnNy9qbUNK6.jpg", "popularity": 16.023}, {"adult": false, "backdrop_path": "/qFdqdBiqTsfXYvKDeCfxTucxQzU.jpg", "genre_ids": [18, 35, 10749], "id": 80271, "original_language": "en", "original_title": "LOL", "overview": "In a world connected by YouTube, iTunes, and Facebook, Lola and her friends navigate the peer pressures of high school romance and friendship while dodging their sometimes overbearing and confused parents. When Lola's mom, Anne, \"accidentally\" reads her teenage daughter's racy journal, she realizes just how wide their communication gap has grown.", "poster_path": "/vlG6iHT1RuT9xLj17SmNNUd8jJZ.jpg", "release_date": "2012-02-10", "title": "LOL", "video": false, "vote_average": 6.1, "vote_count": 1977, "popularity": 12.693}, {"id": 177888, "video": false, "vote_count": 518, "vote_average": 6.5, "title": "Teen Beach Movie", "release_date": "2013-07-19", "original_language": "en", "original_title": "Teen Beach Movie", "genre_ids": [35, 10402, 10751, 10770], "backdrop_path": "/5vEqd9c3r0L5C1aoazHvAp7WVNA.jpg", "adult": false, "overview": "Cowabunga! Catch a perfect wave of fun in the sun, splashed with excitement, surprises and budding romance. Life's a beach for surfers Brady (Ross Lynch) and McKenzie (Maia Mitchell) \u2013 until a rogue wave magically transports them inside the classic '60s beach party flick, \"Wet Side Story,\" where a full-blown rivalry between bikers and surfers threatens to erupt. There, amidst a sea of surfing, singing and dancing, Brady and Mack accidentally change the storyline, and the film\u2019s dreamy hero and heroine fall for them instead of for each other! Can our heroes get the plot back on track, or will they be trapped there forever? Overflowing with hilarious comedy and high-energy musical numbers, \"Teen Beach Movie\" makes it an endless summer all year long!", "poster_path": "/6t8Hl0e35jJAewN9in2QxdLgrRX.jpg", "popularity": 12.229}, {"adult": false, "backdrop_path": "/f2Vyj75EU1Cbdh0homXignBcdYG.jpg", "genre_ids": [35, 10749], "id": 10314, "original_language": "en", "original_title": "She's All That", "overview": "High school hotshot Zach Siler is the envy of his peers. But his popularity declines sharply when his cheerleader girlfriend, Taylor, leaves him for sleazy reality-television star Brock Hudson. Desperate to revive his fading reputation, Siler agrees to a seemingly impossible challenge. He has six weeks to gain the trust of nerdy outcast Laney Boggs -- and help her to become the school's next prom queen.", "poster_path": "/2kWpjQ3O6DZywdIoPlvXCk3T91P.jpg", "release_date": "1999-01-29", "title": "She's All That", "video": false, "vote_average": 6.1, "vote_count": 1092, "popularity": 12.557}, {"adult": false, "backdrop_path": "/2oG0ggdMliMDjenw00eSwZFypUp.jpg", "genre_ids": [35, 18], "id": 376660, "original_language": "en", "original_title": "The Edge of Seventeen", "overview": "Two high school girls are best friends until one dates the other's older brother, who is totally his sister's nemesis.", "poster_path": "/gxK80WUwkQePpXpzRdpob0i7DD5.jpg", "release_date": "2016-11-18", "title": "The Edge of Seventeen", "video": false, "vote_average": 7.2, "vote_count": 2515, "popularity": 12.687}], "total_pages": 132, "total_results": 2626}, "recommendations": {"page": 1, "results": [{"adult": false, "backdrop_path": "/wjNg165cITWoGVcQK2sToKdyeN.jpg", "genre_ids": [35], "id": 155752, "original_language": "en", "original_title": "Andy Hardy Comes Home", "overview": "Andy Hardy, now a grown man with a wife and children, returns to his hometown on a business trip and finds himself getting mixed up in local politics.", "poster_path": "/7O3pzGxfc7xG3aVDG4mGJgF4awp.jpg", "release_date": "1958-12-22", "title": "Andy Hardy Comes Home", "video": false, "vote_average": 4.6, "vote_count": 6, "popularity": 3.498}], "total_pages": 1, "total_results": 1}, "credits": {"cast": [{"cast_id": 1, "character": "Melvin R. Foster", "credit_id": "52fe49aa9251416c750cf4a3", "gender": 2, "id": 29260, "name": "Wallace Beery", "order": 0, "profile_path": "/zJJe0w3dXlaU2xhhJFRIukCmPLw.jpg"}, {"cast_id": 2, "character": "Judy Foster", "credit_id": "52fe49aa9251416c750cf4a7", "gender": 1, "id": 82405, "name": "Jane Powell", "order": 1, "profile_path": "/zU4GkEqdn8Qlv14V7rrx3clNjnF.jpg"}, {"cast_id": 3, "character": "Carol Pringle", "credit_id": "52fe49aa9251416c750cf4ab", "gender": 1, "id": 3635, "name": "Elizabeth Taylor", "order": 2, "profile_path": "/rPbfZlBX18OIj7H1Bahq7YcJL0v.jpg"}, {"cast_id": 4, "character": "Rosita Cochellas", "credit_id": "52fe49aa9251416c750cf4af", "gender": 1, "id": 137907, "name": "Carmen Miranda", "order": 3, "profile_path": "/rj7wUytzBP6Kn1VrYtAXqjPJlxy.jpg"}, {"cast_id": 5, "character": "Himself", "credit_id": "52fe49aa9251416c750cf4b3", "gender": 2, "id": 579763, "name": "Xavier Cugat", "order": 4, "profile_path": "/pZqbwaJrOK44EMrEpwKc6Dd5G9z.jpg"}, {"cast_id": 6, "character": "Stephen Andrews", "credit_id": "52fe49aa9251416c750cf4b7", "gender": 2, "id": 2493, "name": "Robert Stack", "order": 5, "profile_path": "/f1MchlCMVc4LDWEALsodZHPkbIu.jpg"}, {"cast_id": 8, "character": "Ogden 'Oogie' Pringle", "credit_id": "52fe49aa9251416c750cf4c1", "gender": 2, "id": 125847, "name": "Scotty Beckett", "order": 6, "profile_path": "/1cKFfAtdB7FO101jl5ICPeTylwB.jpg"}, {"cast_id": 9, "character": "Mrs. Foster", "credit_id": "52fe49aa9251416c750cf4c5", "gender": 1, "id": 95271, "name": "Selena Royle", "order": 7, "profile_path": "/SqFituJ8FRagYqvEX5tVFzbOXV.jpg"}, {"cast_id": 10, "character": "Lucien T. Pringle", "credit_id": "52fe49aa9251416c750cf4c9", "gender": 2, "id": 13994, "name": "Leon Ames", "order": 8, "profile_path": "/gzYY95O5AVKXxXlfV3XfHtBzQxA.jpg"}, {"cast_id": 14, "character": "Jameson", "credit_id": "5be70625c3a368174a0123cd", "gender": 2, "id": 94112, "name": "Clinton Sundberg", "order": 9, "profile_path": "/ird4IaorvWN07a4CBQmy6Xl7oL.jpg"}, {"cast_id": 15, "character": "Gramps", "credit_id": "5be70632c3a368173a013f5d", "gender": 2, "id": 32218, "name": "George Cleveland", "order": 10, "profile_path": "/pbfP5mephNymAfn3uqADdMTqny5.jpg"}, {"cast_id": 16, "character": "'Pop' Sam Scully", "credit_id": "5be706410e0a263c0201358e", "gender": 2, "id": 34497, "name": "Lloyd Corrigan", "order": 11, "profile_path": "/uuC8nYacobRfv8DVJQYeoA4A6Sx.jpg"}, {"cast_id": 17, "character": "Randolph Foster", "credit_id": "5be70650c3a3681746011a3d", "gender": 2, "id": 1000985, "name": "Jerry Hunter", "order": 12, "profile_path": null}, {"cast_id": 18, "character": "Mitzi Hoffman", "credit_id": "5be7065fc3a368174a012400", "gender": 0, "id": 2172747, "name": "Jean McLaren", "order": 13, "profile_path": null}], "crew": [{"credit_id": "5da1203db84f940015977a79", "department": "Costume & Make-Up", "gender": 1, "id": 3647, "job": "Costume Designer", "name": "Helen Rose", "profile_path": null}, {"credit_id": "5da12028afe2240013e78edf", "department": "Costume & Make-Up", "gender": 2, "id": 14681, "job": "Hairstylist", "name": "Sydney Guilaroff", "profile_path": "/dG7l0ZrYmHN6QLtSikPudw846Zi.jpg"}, {"credit_id": "5da11fbd1967570017a660b6", "department": "Editing", "gender": 2, "id": 7510, "job": "Editor", "name": "Harold F. Kress", "profile_path": null}, {"credit_id": "5da11fa4e860170012ab7559", "department": "Art", "gender": 2, "id": 9062, "job": "Art Direction", "name": "Cedric Gibbons", "profile_path": "/w8tc9iVH87Iu1KKFDZ9B99NhnBc.jpg"}, {"credit_id": "5da11fffe860170012ab76b5", "department": "Art", "gender": 2, "id": 9063, "job": "Set Decoration", "name": "Edwin B. Willis", "profile_path": "/b4hSs5KLFXxSrvvA923VjdmywMl.jpg"}, {"credit_id": "5da11f911967570017a66058", "department": "Camera", "gender": 2, "id": 10005, "job": "Director of Photography", "name": "Robert Surtees", "profile_path": "/6CuhH7m0KvjbR088xyaJurddfZH.jpg"}, {"credit_id": "5da11fec1967570017a660ef", "department": "Sound", "gender": 2, "id": 13284, "job": "Music Director", "name": "Stanley Donen", "profile_path": "/8r91mtKkWdYri739IilAvTVzr1E.jpg"}, {"credit_id": "5da1201db84f9400159779d5", "department": "Crew", "gender": 2, "id": 13292, "job": "Special Effects", "name": "Warren Newcombe", "profile_path": null}, {"credit_id": "5da11f7ae860170012ab74b4", "department": "Sound", "gender": 2, "id": 13983, "job": "Music Director", "name": "George Stoll", "profile_path": "/pWhrzMhBXhWEK9rr92E8OPDUghg.jpg"}, {"credit_id": "5da1204dafe2240013e78f66", "department": "Costume & Make-Up", "gender": 2, "id": 13986, "job": "Makeup Artist", "name": "Jack Dawn", "profile_path": "/bmu4SKZXfWIqwKfipN9XhM1EDGF.jpg"}, {"credit_id": "5da1200e1967570013a66395", "department": "Sound", "gender": 2, "id": 27969, "job": "Recording Supervision", "name": "Douglas Shearer", "profile_path": "/3kH8o524WTYSGBLcCx9v9ERP9sj.jpg"}, {"credit_id": "52fe49aa9251416c750cf4d5", "department": "Writing", "gender": 1, "id": 31069, "job": "Screenplay", "name": "Dorothy Kingsley", "profile_path": null}, {"credit_id": "52fe49aa9251416c750cf4bd", "department": "Directing", "gender": 2, "id": 70862, "job": "Director", "name": "Richard Thorpe", "profile_path": "/szbaqa5qggPXjaLbNGb2JMgsoi3.jpg"}, {"credit_id": "5a486f6b925141031700bbb6", "department": "Production", "gender": 2, "id": 94115, "job": "Producer", "name": "Joe Pasternak", "profile_path": "/gAAbsb5OoV0NVlQ13ScOwq7sXz0.jpg"}, {"credit_id": "52fe49aa9251416c750cf4cf", "department": "Writing", "gender": 1, "id": 159506, "job": "Screenplay", "name": "Dorothy Cooper", "profile_path": null}, {"credit_id": "5da11fb01967570013a6623e", "department": "Art", "gender": 0, "id": 1020669, "job": "Art Direction", "name": "Paul Groesse", "profile_path": null}, {"credit_id": "5be7067792514143f2013508", "department": "Writing", "gender": 0, "id": 1202350, "job": "Characters", "name": "Aleen Leslie", "profile_path": null}, {"credit_id": "5c8bb476925141058ec2535f", "department": "Camera", "gender": 0, "id": 2210329, "job": "Camera Operator", "name": "A. Lindsley Lane", "profile_path": null}]}}