{"adult": false, "backdrop_path": "/lNKxuSYhiI2xYJuQqa9FMh4Msq8.jpg", "belongs_to_collection": {"id": 571401, "name": "El Chanfle Collection", "poster_path": "/kCcBeVOMIv63KAo8yJzWq4ZIie3.jpg", "backdrop_path": "/vh3wRGHD6I4PP9K9Uz9slGGNFGG.jpg"}, "budget": 0, "genres": [{"id": 35, "name": "Comedy"}, {"id": 10751, "name": "Family"}], "homepage": null, "id": 96424, "imdb_id": "tt0222962", "original_language": "es", "original_title": "El Chanfle", "overview": "This movie is about a soccer team worker \"Chanfle\", who's in charge of having everything up to date for the team, soccer balls, uniforms, soccer shoes, you name it! Well he's been married for 10 years to a beautiful young girl but hasn't got the privilege of being a father! They are really poor and in the attempt to sell a gun that belonged to a diseased uncle, he's mistaken for a burglar by a drunk guy. From that moment on, he's contanstly harrassed by the drunk guy, who chases him everytime he can...", "popularity": 1.424, "poster_path": "/mCC0XY7IQprtp6EZR2MJusTfXsW.jpg", "production_companies": [{"id": 8165, "logo_path": null, "name": "Televicine S.A. de C.V.", "origin_country": "MX"}], "production_countries": [{"iso_3166_1": "MX", "name": "Mexico"}], "release_date": "1979-01-18", "revenue": 0, "runtime": 106, "spoken_languages": [{"iso_639_1": "es", "name": "Espa\u00f1ol"}], "status": "Released", "tagline": "", "title": "El Chanfle", "video": false, "vote_average": 7.0, "vote_count": 11, "keywords": {"keywords": [{"id": 534, "name": "mexico"}, {"id": 5477, "name": "mistake"}, {"id": 13042, "name": "football (soccer)"}]}, "similar": {"page": 1, "results": [{"id": 312221, "video": false, "vote_count": 4401, "vote_average": 7.4, "title": "Creed", "release_date": "2015-11-25", "original_language": "en", "original_title": "Creed", "genre_ids": [18], "backdrop_path": "/fs2yhdSCzMVlNECrN84WuCkgXov.jpg", "adult": false, "overview": "The former World Heavyweight Champion Rocky Balboa serves as a trainer and mentor to Adonis Johnson, the son of his late friend and former rival Apollo Creed.", "poster_path": "/hKzhV274pkZBSpXfCjUyzbyYKLl.jpg", "popularity": 17.844}, {"id": 273481, "video": false, "vote_count": 4912, "vote_average": 7.3, "title": "Sicario", "release_date": "2015-09-17", "original_language": "en", "original_title": "Sicario", "genre_ids": [28, 80, 53], "backdrop_path": "/zAHozevwbbsB2epEVpCkzqVccWW.jpg", "adult": false, "overview": "An idealistic FBI agent is enlisted by a government task force to aid in the escalating war against drugs at the border area between the U.S. and Mexico.", "poster_path": "/p2SdfGmQRaw8xhFbexlHL7srMM8.jpg", "popularity": 30.863}, {"id": 8923, "video": false, "vote_count": 1359, "vote_average": 7.2, "title": "Green Street Hooligans", "release_date": "2005-09-09", "original_language": "en", "original_title": "Green Street Hooligans", "genre_ids": [80, 18], "backdrop_path": "/oasVTD3UpTEjhTAVx9ZCy1k19Qv.jpg", "adult": false, "overview": "After being wrongfully expelled from Harvard University, American Matt Buckner flees to his sister's home in England. Once there, he is befriended by her charming and dangerous brother-in-law, Pete Dunham, and introduced to the underworld of British football hooliganism. Matt learns to stand his ground through a friendship that develops against the backdrop of this secret and often violent world. 'Green Street Hooligans' is a story of loyalty, trust and the sometimes brutal consequences of living close to the edge.", "poster_path": "/z3LC4kI8azbeuHRGgDdWo6VBCdX.jpg", "popularity": 20.194}, {"adult": false, "backdrop_path": "/mYKP6qcDUimVMAHQWLOuDHjO19S.jpg", "genre_ids": [35], "id": 445629, "original_language": "en", "original_title": "Fighting with My Family", "overview": "Born into a tight-knit wrestling family, Paige and her brother Zak are ecstatic when they get the once-in-a-lifetime opportunity to try out for the WWE. But when only Paige earns a spot in the competitive training program, she must leave her loved ones behind and face this new cutthroat world alone. Paige's journey pushes her to dig deep and ultimately prove to the world that what makes her different is the very thing that can make her a star.", "poster_path": "/cVhe15rJLRjolunSWLBN6xQLyGU.jpg", "release_date": "2019-02-14", "title": "Fighting with My Family", "video": false, "vote_average": 6.7, "vote_count": 643, "popularity": 18.498}, {"id": 138832, "video": false, "vote_count": 5758, "vote_average": 6.8, "title": "We're the Millers", "release_date": "2013-08-07", "original_language": "en", "original_title": "We're the Millers", "genre_ids": [35, 80], "backdrop_path": "/hoSddFLIyr6FUylOwCxoahbvnXd.jpg", "adult": false, "overview": "A veteran pot dealer creates a fake family as part of his plan to move a huge shipment of weed into the U.S. from Mexico.", "poster_path": "/digXuLXmk88Ar23LYUQTLcz5npA.jpg", "popularity": 22.212}, {"id": 522924, "video": false, "vote_count": 151, "vote_average": 8.1, "title": "The Art of Racing in the Rain", "release_date": "2019-08-08", "original_language": "en", "original_title": "The Art of Racing in the Rain", "genre_ids": [35, 18, 10749], "backdrop_path": "/6esNUoXh4xQvucB7o7e3TCfjI65.jpg", "adult": false, "overview": "A family dog\u2014with a near-human soul and a philosopher's mind\u2014evaluates his life through the lessons learned by his human owner, a race-car driver.", "poster_path": "/mi5VN4ww0JZgRFJIaPxxTGKjUg7.jpg", "popularity": 15.11}, {"id": 703, "video": false, "vote_count": 2272, "vote_average": 7.8, "title": "Annie Hall", "release_date": "1977-04-19", "original_language": "en", "original_title": "Annie Hall", "genre_ids": [35, 18, 10749], "backdrop_path": "/8iNt5LGxpX9XeNWJgjx17xfTT7u.jpg", "adult": false, "overview": "New York comedian Alvy Singer falls in love with the ditsy Annie Hall.", "poster_path": "/bK9bLXwxWuXX5mbq75PZqjvAtfG.jpg", "popularity": 14.556}, {"id": 354912, "video": false, "vote_count": 10129, "vote_average": 8.2, "title": "Coco", "release_date": "2017-10-27", "original_language": "en", "original_title": "Coco", "genre_ids": [12, 16, 35, 14, 10751], "backdrop_path": "/askg3SMvhqEl4OL52YuvdtY40Yb.jpg", "adult": false, "overview": "Despite his family\u2019s baffling generations-old ban on music, Miguel dreams of becoming an accomplished musician like his idol, Ernesto de la Cruz. Desperate to prove his talent, Miguel finds himself in the stunning and colorful Land of the Dead following a mysterious chain of events. Along the way, he meets charming trickster Hector, and together, they set off on an extraordinary journey to unlock the real story behind Miguel's family history.", "poster_path": "/eKi8dIrr8voobbaGzDpe8w0PVbC.jpg", "popularity": 37.991}, {"adult": false, "backdrop_path": "/n1Gh3MJAVvXmkgSDf3SOLlPCjag.jpg", "genre_ids": [35, 18, 10749], "id": 9390, "original_language": "en", "original_title": "Jerry Maguire", "overview": "Jerry Maguire used to be a typical sports agent: willing to do just about anything he could to get the biggest possible contracts for his clients, plus a nice commission for himself. Then, one day, he suddenly has second thoughts about what he's really doing. When he voices these doubts, he ends up losing his job and all of his clients, save Rod Tidwell, an egomaniacal football player.", "poster_path": "/99YTEdKOKDRClsscOpJfdkbaTrQ.jpg", "release_date": "1996-12-13", "title": "Jerry Maguire", "video": false, "vote_average": 6.9, "vote_count": 1796, "popularity": 20.431}, {"id": 387592, "video": false, "vote_count": 393, "vote_average": 6.0, "title": "Early Man", "release_date": "2018-01-26", "original_language": "en", "original_title": "Early Man", "genre_ids": [12, 16, 35, 10751], "backdrop_path": "/9m71RMP45mg599xtKPyjicyHn1a.jpg", "adult": false, "overview": "Dug, along with his sidekick Hognob, unite a cavemen tribe to save their hidden valley from being spoiled and, all together as a team, to face the menace of a mysterious and mighty enemy, on the turf of an ancient and sacred sport.", "poster_path": "/5iW2rntwLZoGlFCYYy8TjHyblbw.jpg", "popularity": 14.887}, {"adult": false, "backdrop_path": "/eD8PxfDsmWyUcj2LzQ9Ha2O7UvB.jpg", "genre_ids": [99], "id": 614423, "original_language": "en", "original_title": "Collingwood: From The Inside Out", "overview": "An  intimate look at Collingwood Football Club as it rebuilds itself and aims for glory over the course of the 2018 season.", "poster_path": "/dsJMvBJ7M2HvGkJdhW4nKNHEgDs.jpg", "release_date": "2019-08-15", "title": "Collingwood: From The Inside Out", "video": false, "vote_average": 1.0, "vote_count": 1, "popularity": 1.883}, {"adult": false, "backdrop_path": "/qVjKZMB0IdOc2JlwiiGsuKTvTJs.jpg", "genre_ids": [18], "id": 22881, "original_language": "en", "original_title": "The Blind Side", "overview": "The story of Michael Oher, a homeless and traumatized boy who became an All American football player and first round NFL draft pick with the help of a caring woman and her family", "poster_path": "/wEGFSgPebLk6g1ngKsJ6a46PYLV.jpg", "release_date": "2009-11-20", "title": "The Blind Side", "video": false, "vote_average": 7.5, "vote_count": 3212, "popularity": 42.202}, {"id": 630633, "video": false, "vote_count": 0, "vote_average": 0.0, "title": "Varane : Destin de Champion", "release_date": "2019-09-23", "original_language": "fr", "original_title": "Varane : Destin de Champion", "genre_ids": [99], "backdrop_path": null, "adult": false, "overview": "", "poster_path": "/ecUI8DO8lfk5FUca0IF2SNgsgtn.jpg", "popularity": 1.548}, {"id": 107, "video": false, "vote_count": 5247, "vote_average": 7.8, "title": "Snatch", "release_date": "2000-09-01", "original_language": "en", "original_title": "Snatch", "genre_ids": [80, 53], "backdrop_path": "/cNLZ7YGRikb4IsLblrzu86ndZPw.jpg", "adult": false, "overview": "The second film from British director Guy Ritchie. Snatch tells an obscure story similar to his first fast-paced crazy character-colliding filled film \u201cLock, Stock and Two Smoking Barrels.\u201d There are two overlapping stories here \u2013 one is the search for a stolen diamond, and the other about a boxing promoter who\u2019s having trouble with a psychotic gangster.", "poster_path": "/on9JlbGEccLsYkjeEph2Whm1DIp.jpg", "popularity": 25.36}, {"id": 391757, "video": false, "vote_count": 185, "vote_average": 6.5, "title": "Never Back Down: No Surrender", "release_date": "2016-06-07", "original_language": "en", "original_title": "Never Back Down: No Surrender", "genre_ids": [28, 18], "backdrop_path": "/pzjnObK3uiHcKwiir9OPPWzbW8f.jpg", "adult": false, "overview": "Picking up after the events of Never Back Down 2, former MMA champion Case Walker is on the comeback trail to become champion once again.", "poster_path": "/dYNS4o4Q4DDLiKRAAvZ9KcrhHuy.jpg", "popularity": 15.446}, {"id": 44833, "video": false, "vote_count": 3512, "vote_average": 5.6, "title": "Battleship", "release_date": "2012-04-11", "original_language": "en", "original_title": "Battleship", "genre_ids": [28, 12, 878, 53], "backdrop_path": "/rLhO767vwqRfUBmJOqvEmt5myIF.jpg", "adult": false, "overview": "When mankind beams a radio signal into space, a reply comes from \u2018Planet G\u2019, in the form of several alien crafts that splash down in the waters off Hawaii. Lieutenant Alex Hopper is a weapons officer assigned to the USS John Paul Jones, part of an international naval coalition which becomes the world's last hope for survival as they engage the hostile alien force of unimaginable strength. While taking on the invaders, Hopper must also try to live up to the potential that his brother, and his fianc\u00e9e's father, Admiral Shane, expect of him.", "poster_path": "/7hN6WtMepoMZyeHZU2DM21cEj3z.jpg", "popularity": 24.873}, {"id": 307081, "video": false, "vote_count": 3703, "vote_average": 7.4, "title": "Southpaw", "release_date": "2015-03-24", "original_language": "en", "original_title": "Southpaw", "genre_ids": [28, 18], "backdrop_path": "/tTt1cdEEkKMJ1R4VBTe5vbE3bWO.jpg", "adult": false, "overview": "Billy \"The Great\" Hope, the reigning junior middleweight boxing champion, has an impressive career, a loving wife and daughter, and a lavish lifestyle. However, when tragedy strikes, Billy hits rock bottom, losing his family, his house and his manager. He soon finds an unlikely savior in Tick Willis, a former fighter who trains the city's toughest amateur boxers. With his future on the line, Hope fights to reclaim the trust of those he loves the most.", "poster_path": "/50d0XQQETSyg3bwBXhC7K33pKgc.jpg", "popularity": 28.235}, {"id": 1375, "video": false, "vote_count": 1670, "vote_average": 5.6, "title": "Rocky V", "release_date": "1990-10-18", "original_language": "en", "original_title": "Rocky V", "genre_ids": [18], "backdrop_path": "/dr5pdEDOdCvelCQqP32UZubiSgE.jpg", "adult": false, "overview": "A lifetime of taking shots has ended Rocky\u2019s career, and a crooked accountant has left him broke. Inspired by the memory of his trainer, however, Rocky finds glory in training and takes on an up-and-coming boxer.", "poster_path": "/5P2RiuLt31mWyb6duww8qlAhs6G.jpg", "popularity": 22.518}, {"adult": false, "backdrop_path": "/w41zFKYTsq4wf5QnQJWMXuzWl2F.jpg", "genre_ids": [18, 28], "id": 96721, "original_language": "en", "original_title": "Rush", "overview": "A biographical drama centered on the rivalry between Formula 1 drivers James Hunt and Niki Lauda during the 1976 Formula One motor-racing season.", "poster_path": "/cjEepHZOZAwmK6nAj5jis6HV75E.jpg", "release_date": "2013-09-02", "title": "Rush", "video": false, "vote_average": 7.7, "vote_count": 4276, "popularity": 17.673}, {"id": 70006, "video": false, "vote_count": 288, "vote_average": 6.1, "title": "Never Back Down 2: The Beatdown", "release_date": "2011-09-13", "original_language": "en", "original_title": "Never Back Down 2: The Beatdown", "genre_ids": [28, 18], "backdrop_path": "/lSFqtjxMfAHa58TBDDBELKeq2DH.jpg", "adult": false, "overview": "Four fighters different backgrounds come together to train under an ex MMA rising star and then ultimately have to fight each other and the traitor in heir midst.", "poster_path": "/qeISu4rUk9l9sQTMs86fAoxSx8p.jpg", "popularity": 15.641}], "total_pages": 185, "total_results": 3698}, "recommendations": {"page": 1, "results": [{"adult": false, "backdrop_path": "/xj4swDWHuwOkz6XF1GS24m6Ue45.jpg", "genre_ids": [10749, 35], "id": 484880, "original_language": "es", "original_title": "La playa del amor", "overview": "To forget his girlfriend a young man is taken to a beach by his brother and a friend.", "poster_path": "/wbSH96VeIy3KA3uVjKwIJcfdwa9.jpg", "release_date": "1980-02-21", "title": "The Beach of Love", "video": false, "vote_average": 7.3, "vote_count": 3, "popularity": 1.721}, {"adult": false, "backdrop_path": "/axP3R4DjBLokREUI2AvSejf9IAZ.jpg", "genre_ids": [28], "id": 127299, "original_language": "es", "original_title": "Comodines", "overview": "Two men from completely different backgrounds confront a gang of swindlers. Norberto Lorenzi and Guillermo Parodi are the two \"jokers\" who meet and relate with the usual initial distrust. Lorenzo is impelled by the necessity to clear the name of P\u00e9rez, his best friend. Parodi, on the other hand, has been called to disperse a ring of \"narcos\"...", "poster_path": "/xy7r1aQMNiwt9TX8SPM7jsa0mK4.jpg", "release_date": "1997-06-19", "title": "Cops", "video": false, "vote_average": 6.8, "vote_count": 5, "popularity": 1.362}, {"id": 475817, "video": false, "vote_count": 3, "vote_average": 7.3, "title": "La Discoteca del Amor", "release_date": "1980-08-07", "original_language": "es", "original_title": "La Discoteca del Amor", "genre_ids": [28, 10402], "backdrop_path": null, "adult": false, "overview": "Music execs find out their songs are being pirated, so a detective and his assistant are hired to catch the culprits.", "poster_path": "/r6E7UkDyJDRhONOTxp2T3COAUwV.jpg", "popularity": 1.11}, {"adult": false, "backdrop_path": "/ebroF6n84VNCZXDNaK9jb2Bv50q.jpg", "genre_ids": [35], "id": 127289, "original_language": "es", "original_title": "Cohen vs. Rosi", "overview": "Two rival families of different origin join the force by the love of two young. The journalist Ariel Cohen falls in love for Carla Rosi, while investigating his father, Giancarlo, a wealthy shady business that is congressional candidate with presidential aspirations.", "poster_path": "/3xLCDsJ9aE5WYA72wvADtV55vfR.jpg", "release_date": "1998-05-28", "title": "Cohen vs. Rosi", "video": false, "vote_average": 5.8, "vote_count": 5, "popularity": 2.059}, {"adult": false, "backdrop_path": "/qqOGulQOgQBhCMbbFj7KwAij1Yc.jpg", "genre_ids": [10751, 35], "id": 149973, "original_language": "es", "original_title": "El Chanfle 2", "overview": "is the continuation of the Mexican film El Chanfle (1979) Chespirito, which aired in theaters in 1982. At that time the cast of the neighborhood (with some absences: the Carlos Villagran, who decided not to continue working with Roberto Gomez Bola\u00f1os by a personal decision, he left in 1979. Ramon Valdez next year decides to accompany him, also leaving to work with Chespirito. returned with him in 1981, but a health problem that was detected in the early 80's, was prevented from participating in this film), it left room for the story of a lowly stagehand football team that achieves his dream beside his wife Tere, of having a child. In this film, the situation is a little different.", "poster_path": "/3cEMhtOdryNRwevE5Njlx43tquk.jpg", "release_date": "1982-11-20", "title": "El Chanfle 2", "video": false, "vote_average": 8.2, "vote_count": 7, "popularity": 1.67}, {"adult": false, "backdrop_path": "/hUyMr2vqAZSp5BMD1b017f2tZYZ.jpg", "genre_ids": [35], "id": 82776, "original_language": "es", "original_title": "El ministro y yo", "overview": "Mateo Melgarejo (played by Mario Moreno \"Cantinflas\") is a notary public and scribe for the illiterate people of Santo Domingo, a neighborhood north of Mexico City's Z\u00f3calo. A squatter friend asks for his help in negotiating with the land census bureau to regularize a land title. After a great deal of frustration with the government bureaucracy, he writes a letter to the cabinet minister, earning an audience with him. The minister hires Melgarejo to reform the bureau, and the appointee proceeds to lecture the officials on their duties in a democratic society. At the end, he gives up the post, returning to Santo Domingo to help its poor residents.", "poster_path": "/9QsJBk1GwdVaEk9JOQyui5StEOP.jpg", "release_date": "1977-01-01", "title": "El ministro y yo", "video": false, "vote_average": 4.8, "vote_count": 4, "popularity": 1.107}, {"adult": false, "backdrop_path": "/gfyZRbSGF3t0ZB46V9514TGQLTm.jpg", "genre_ids": [], "id": 181955, "original_language": "en", "original_title": "Charrito", "overview": "Charrito is the villain actor in a movie, which is filmed in a town, that only produces headaches to the director, for being extremely distracted", "poster_path": "/TmJ81tyeENwbuYpkOHixsMa4Mz.jpg", "release_date": "1984-03-22", "title": "Charrito", "video": false, "vote_average": 6.3, "vote_count": 5, "popularity": 1.36}, {"adult": false, "backdrop_path": "/zAioXoqvQa8zWPa1XeHJWi1Tggr.jpg", "genre_ids": [80, 18, 9648, 53], "id": 90171, "original_language": "es", "original_title": "Cenizas del Paraiso", "overview": "A judge falls from the roof of the Federal Courthouse. A woman is murdered. Between them and the three sons of the judge there is a connection that will be investigated by a woman judge who is determined to discover the truth.", "poster_path": "/6gKwjVTyxxSZbxZYnvT0sRyGH9s.jpg", "release_date": "1997-08-07", "title": "Ashes of Paradise", "video": false, "vote_average": 6.9, "vote_count": 8, "popularity": 1.995}, {"adult": false, "backdrop_path": "/8J7hU7HGULk3XQude5t0CBeqtn.jpg", "genre_ids": [18], "id": 123223, "original_language": "es", "original_title": "Darse cuenta", "overview": "The relationship between a doctor and a depressed young patient in a public hospital.", "poster_path": "/y25ooYHHOblSZW3hMUVXqyy6fe4.jpg", "release_date": "1984-08-30", "title": "Darse cuenta", "video": false, "vote_average": 7.9, "vote_count": 7, "popularity": 0.674}, {"adult": false, "backdrop_path": "/1dBiRs5eWRYIFzhOG23Pxl1Hxa8.jpg", "genre_ids": [10751, 14, 35], "id": 245364, "original_language": "es", "original_title": "Pobre, pero honrada!", "overview": "Beloved Mexican screen star La India Maria portrays a poor but honorable woman who causes a stir around town when she decides to become a witch doctor in this classic comedy from director Fernando Cortes. When the real medical practitioner in town discovers that there's a new shaman around, the comic trouble that follows is sure to keep viewers in stitches. ~ Jason Buchanan, Rovi", "poster_path": "/q2h20UCAmoLcQsOi26COPoL1JJX.jpg", "release_date": "1973-11-01", "title": "Pobre, pero honrada!", "video": false, "vote_average": 5.2, "vote_count": 3, "popularity": 1.41}, {"adult": false, "backdrop_path": "/nzrHHIWDvzU32uK5zw1xzQ5SJFy.jpg", "genre_ids": [], "id": 80393, "original_language": "es", "original_title": "Perdido por perdido", "overview": "Vidal (Dar\u00edn) is about to be bankrupt, so he sets up a fake car robbery with a small-time mobster to collect insurance and split the money. But his perfect plan becomes entangled by his increasingly dangerous ties to the mob and the meddling of a rogue insurance investigator (Pinti), who eventually strikes a deal with Vidal and decides to team up with him and his wife (Papaleo) to bring down the mob and expose the corruption that links a high-ranking executive to the mafia.", "poster_path": "/udCcQTv9W3PMMvg2TlpFJQZA6Su.jpg", "release_date": "1993-07-29", "title": "Perdido por perdido", "video": false, "vote_average": 7.2, "vote_count": 6, "popularity": 1.228}, {"adult": false, "backdrop_path": "/selMEgyWgqD7l53ltAGoKE30IK2.jpg", "genre_ids": [18, 28], "id": 143532, "original_language": "es", "original_title": "El desquite", "overview": "When the new don discovers that sadistic mobsters were responsible for the death of his young son, he wreaks a deadly revenge.", "poster_path": "/vlIosmDUo3c24YXjRmDwe0jLrBt.jpg", "release_date": "1983-08-04", "title": "El desquite", "video": false, "vote_average": 6.9, "vote_count": 5, "popularity": 1.647}, {"adult": false, "backdrop_path": "/7lLY2wNcvTdpuRd45MaYvBnc6rz.jpg", "genre_ids": [35], "id": 118192, "original_language": "es", "original_title": "Cien veces no debo", "overview": "A comedy about a young girl who gets pregnant on a traditional Argentinean family.", "poster_path": "/q5ePkn1IR48MTicu0ZiiCSh6sPB.jpg", "release_date": "1990-05-03", "title": "I don't owe a 100 times", "video": false, "vote_average": 6.5, "vote_count": 6, "popularity": 0.6}, {"id": 72340, "video": false, "vote_count": 6, "vote_average": 7.1, "title": "Partners", "release_date": "1982-04-30", "original_language": "en", "original_title": "Partners", "genre_ids": [35, 80], "backdrop_path": "/nX3xTu9m0WrbzKNJfbizkXgiVB5.jpg", "adult": false, "overview": "Benson is a police detective. After a series of murders in the Gay community he is ordered to go undercover with a gay police clerk named Kerwin as his partner. In order to be noticed they have to be flamboyant enough to attract attention which Benson finds rather disturbing. Can an uptight heterosexual and a mousey homosexual form a meaningful relationship?", "poster_path": "/gHVThPfNan8kBdQdw6aSC9cbZu2.jpg", "popularity": 2.554}, {"adult": false, "backdrop_path": "/qGIvKwZujiwEoKvXVD3HQuIkIAv.jpg", "genre_ids": [9648, 80, 18], "id": 127702, "original_language": "es", "original_title": "La se\u00f1al", "overview": "During the last days of Eva Peron, a pair of low-ranking detectives are thrust into a case of corruption involving the Mafia.", "poster_path": "/oyq6xF7N1kNLFvUpwnfVFRVpzDI.jpg", "release_date": "2007-09-13", "title": "La se\u00f1al", "video": false, "vote_average": 6.3, "vote_count": 8, "popularity": 1.5}, {"adult": false, "backdrop_path": "/ylf33QGFlZnlagqvY1I6AgiehIg.jpg", "genre_ids": [35, 18], "id": 43541, "original_language": "es", "original_title": "Dos hermanos", "overview": "They are both alone. They need each other but, at the same time, they despise each other. Siblings Marcos and Susana are unable to heal the old wounds festering within them after the death of their mother. When Susana sells their mother's flat, she deprives her brother of the home where he had cared for their mother his whole life. Marcos's need to start living again surfaces when his sister forces him to leave Buenos Aires for Uruguay.", "poster_path": "/eQeGJO6S13khmK8qJGfiNpFky41.jpg", "release_date": "2010-04-01", "title": "Dos hermanos", "video": false, "vote_average": 6.8, "vote_count": 9, "popularity": 1.536}, {"adult": false, "backdrop_path": "/wtl1EqalH8X2xKQoYFhkisQZqy3.jpg", "genre_ids": [9648, 878, 18], "id": 48797, "original_language": "es", "original_title": "Hombre mirando al sudeste", "overview": "A new patient mysteriously appears in a psychiatric ward. He claims to come from another planet to study humans and their behavior. The alien is gentle but criticizes humans for their harsh treatment of each other. The assigned psychiatrist is himself unhappy, and affected by the patient's insight. But he is ordered to treat the patient according to institutional procedure.", "poster_path": "/pbtAUOwGB8qZth2alfPry49iwdU.jpg", "release_date": "1986-09-09", "title": "Man Facing Southeast", "video": false, "vote_average": 7.7, "vote_count": 28, "popularity": 2.922}, {"id": 42085, "video": false, "vote_count": 10, "vote_average": 6.8, "title": "Camila", "release_date": "1984-05-17", "original_language": "es", "original_title": "Camila", "genre_ids": [18, 10749], "backdrop_path": "/3grrvigS6067Nix9nwyh7vghCaW.jpg", "adult": false, "overview": "In Buenos Aires of the 1840s, a young Jesuit and a wealthy socialite fall in love and begin a torrid affair. They escape from the city, and, in disguise, set up house in a village, assuming they are safe and beyond the cares of anyone. However, both the church and Camila's family are enraged, vowing to hunt down the lovers for a capital crime. Based on a true story.", "poster_path": "/ibSmdjvNXWQgZKLPeJNReRLTJrF.jpg", "popularity": 1.075}], "total_pages": 1, "total_results": 18}, "credits": {"cast": [{"cast_id": 0, "character": "El Chanfle", "credit_id": "551c81929251416a23000e29", "gender": 2, "id": 585982, "name": "Roberto G\u00f3mez Bola\u00f1os", "order": 1, "profile_path": "/nCOB8EzTsRgz5P2Vq9VsfIMRu29.jpg"}, {"cast_id": 1, "character": "", "credit_id": "551c819bc3a3684a28000dba", "gender": 1, "id": 1212381, "name": "Florinda Meza Garc\u00eda", "order": 2, "profile_path": "/sNBf0KUFjb32VPYjgA3pgl2zB41.jpg"}, {"cast_id": 2, "character": "", "credit_id": "551c81a3c3a3684a32000cb4", "gender": 2, "id": 31324, "name": "Rub\u00e9n Aguirre", "order": 3, "profile_path": "/gQpCz9clFg4Oovkuzxx5tfSq8qx.jpg"}, {"cast_id": 3, "character": "", "credit_id": "551c81b0c3a36837e8000761", "gender": 1, "id": 1055889, "name": "Mar\u00eda Antonieta de las Nieves", "order": 4, "profile_path": "/vhvZRBhnCHNoWLG4bd2GnJWqXdB.jpg"}, {"cast_id": 4, "character": "", "credit_id": "551c81b6925141691b000539", "gender": 1, "id": 940990, "name": "Angelines Fern\u00e1ndez", "order": 5, "profile_path": "/7nq1E4eV8CzvhLbVDISvQ3EAR4J.jpg"}, {"cast_id": 6, "character": "", "credit_id": "551c81c59251416a23000e2f", "gender": 2, "id": 1212383, "name": "Carlos Villagr\u00e1n", "order": 7, "profile_path": "/nDJez66CmIRVinVLgs18I0PiO8B.jpg"}, {"cast_id": 8, "character": "", "credit_id": "58b0da2d9251415b1d001bd5", "gender": 2, "id": 1764955, "name": "Ra\u00fal 'Chato' Padilla", "order": 8, "profile_path": null}], "crew": [{"credit_id": "551c81f79251416a23000e33", "department": "Directing", "gender": 0, "id": 1448524, "job": "Director", "name": "Enrique Segoviano", "profile_path": "/rHP4diR0aNQTIToNglON5N0laUu.jpg"}]}}