{"adult": false, "backdrop_path": null, "belongs_to_collection": null, "budget": 0, "genres": [{"id": 18, "name": "Drama"}, {"id": 80, "name": "Crime"}], "homepage": null, "id": 96529, "imdb_id": "tt0086369", "original_language": "nl", "original_title": "De stilte rond Christine M.", "overview": "A court psychiatrist ponders three Dutchwomen, all strangers, on trial for killing a male shopkeeper.", "popularity": 1.947, "poster_path": "/mdc8mV9td64iNMCTJJNHDXFmPP5.jpg", "production_companies": [{"id": 15187, "logo_path": null, "name": "Sigma Film Productions", "origin_country": ""}], "production_countries": [{"iso_3166_1": "NL", "name": "Netherlands"}], "release_date": "1982-02-18", "revenue": 0, "runtime": 92, "spoken_languages": [{"iso_639_1": "nl", "name": "Nederlands"}], "status": "Released", "tagline": "", "title": "A Question of Silence", "video": false, "vote_average": 6.1, "vote_count": 11, "keywords": {"keywords": [{"id": 187056, "name": "woman director"}]}, "similar": {"page": 1, "results": [{"adult": false, "backdrop_path": "/cADbqsIoiDW7X3Myg9nz8eAuno5.jpg", "genre_ids": [18, 10749], "id": 10818, "original_language": "fr", "original_title": "Naissance des pieuvres", "overview": "Set during a sultry summer in a French suburb, Marie is desperate to join the local pool's synchronized swimming team, but is her interest solely for the sake of sport or for a chance to get close to Floriane, the bad girl of the team? Sciamma, and the two leads, capture the uncertainty of teenage sexuality with a sympathetic eye in this delicate drama of the angst of coming-of-age.", "poster_path": "/4jajELYrR4Xmv3CVoKnukRnALa2.jpg", "release_date": "2007-05-17", "title": "Water Lilies", "video": false, "vote_average": 6.1, "vote_count": 119, "popularity": 10.744}, {"adult": false, "backdrop_path": "/gZeJziVigmRqbkEZwKAtSqlLQ6s.jpg", "genre_ids": [18, 10749], "id": 370663, "original_language": "en", "original_title": "Below Her Mouth", "overview": "An unexpected affair quickly escalates into a heart-stopping reality for two women whose passionate connection changes their lives forever.", "poster_path": "/nTGbq37hYLuNy7YgMg0gVLma0NS.jpg", "release_date": "2016-09-10", "title": "Below Her Mouth", "video": false, "vote_average": 6.2, "vote_count": 456, "popularity": 22.676}, {"adult": false, "backdrop_path": "/dvQDRfv3qvfHNnVAR57ouVsuErf.jpg", "genre_ids": [10749, 18], "id": 28031, "original_language": "en", "original_title": "If These Walls Could Talk 2", "overview": "The stories of three lesbian couples -- who live in the same house at different periods of time -- who are at a crossroads in their lives. In 1961, Edith loses her lover, Abby, to a stroke. Linda and Amy struggle with feminist issues in 1972. And, in 2000, Kal and Fran try to have a baby with the help of sperm donor.", "poster_path": "/xs7ODbmYQXCDhvXNvz5tF17T59H.jpg", "release_date": "2000-03-05", "title": "If These Walls Could Talk 2", "video": false, "vote_average": 7.1, "vote_count": 55, "popularity": 8.062}, {"adult": false, "backdrop_path": "/knczzNAjBXzSYkeWxoT1u9VNmjR.jpg", "genre_ids": [10749, 18], "id": 258480, "original_language": "en", "original_title": "Carol", "overview": "In 1950s New York, a department-store clerk who dreams of a better life falls for an older, married woman.", "poster_path": "/AbKa7ANxmui0Jmhh7gV7OSELKIL.jpg", "release_date": "2015-11-20", "title": "Carol", "video": false, "vote_average": 7.4, "vote_count": 2182, "popularity": 14.185}, {"adult": false, "backdrop_path": "/fZ8oFcREAr6wgWcXISGql0xyxjB.jpg", "genre_ids": [35, 18], "id": 39781, "original_language": "en", "original_title": "The Kids Are All Right", "overview": "Two women, Nic and Jules, brought a son and daughter into the world through artificial insemination. When one of their children reaches age, both kids go behind their mothers' backs to meet with the donor. Life becomes so much more interesting when the father, two mothers and children start to become attached to each other.", "poster_path": "/fPDeK4MmoGfi2X0oWZev7LrbMqM.jpg", "release_date": "2010-07-09", "title": "The Kids Are All Right", "video": false, "vote_average": 6.6, "vote_count": 923, "popularity": 12.703}, {"adult": false, "backdrop_path": "/rf6G51j0SZL0tP57I8gnqHTRFEr.jpg", "genre_ids": [35, 18, 10749], "id": 273153, "original_language": "fr", "original_title": "La belle saison", "overview": "In 1971, Carole and Delphine meet and fall in love in Paris. When Carole follows Delphine back to her family farm in Limousin, the two find lesbianism and feminism are not as easy in the countryside.", "poster_path": "/evvAkNMO5VJiy5qIo1Hu7fUfvVI.jpg", "release_date": "2015-08-19", "title": "Summertime", "video": false, "vote_average": 6.6, "vote_count": 162, "popularity": 15.434}, {"adult": false, "backdrop_path": "/s12HEmmkJfI2mjltI61hGm5kubD.jpg", "genre_ids": [35, 18, 10749], "id": 20770, "original_language": "en", "original_title": "But I'm a Cheerleader", "overview": "Megan is an all-American girl. A cheerleader. She has a boyfriend. But Megan doesn't like kissing her boyfriend very much. And she's pretty touchy with her cheerleader friends. Her conservative parents worry that she must be a lesbian and send her off to \"sexual redirection\" school, where she must, with other lesbians and gays learn how to be straight.", "poster_path": "/eDGH7CHSdkrYcuUJV1e0WS9DlQL.jpg", "release_date": "1999-12-09", "title": "But I'm a Cheerleader", "video": false, "vote_average": 6.8, "vote_count": 246, "popularity": 10.067}, {"id": 9813, "video": false, "vote_count": 128, "vote_average": 6.1, "title": "The Quiet", "release_date": "2005-09-12", "original_language": "en", "original_title": "The Quiet", "genre_ids": [18, 53], "backdrop_path": "/6eyWAZA4CEidZW1xXnQ4vlYBXTP.jpg", "adult": false, "overview": "After her widowed father dies, deaf teenager Dot moves in with her godparents, Olivia and Paul Deer. The Deers' daughter, Nina, is openly hostile to Dot, but that does not prevent her from telling her secrets to her silent stepsister, including the fact that she wants to kill her lecherous father.", "poster_path": "/GEqIE9YlmygHVUfS64LW2cwAAM.jpg", "popularity": 13.948}, {"adult": false, "backdrop_path": "/tzqeuHWMFihFbiLGHdalPgAcSf6.jpg", "genre_ids": [18, 10749], "id": 18620, "original_language": "en", "original_title": "Go Fish", "overview": "Max is a trendy, pretty, young lesbian, who is having trouble finding love. A friend sets her up with Ely, whom Max likes, but Ely is frumpy, homely, and older. Nor do they have much in common. Can Max learn to look past the packaging?", "poster_path": "/qrEFYrwykaGsY8NULYuYLLI7zrM.jpg", "release_date": "1994-06-10", "title": "Go Fish", "video": false, "vote_average": 5.0, "vote_count": 11, "popularity": 2.626}, {"adult": false, "backdrop_path": "/6tern9vOEwwmkDYC1vRCuO64z0C.jpg", "genre_ids": [10749, 18], "id": 475888, "original_language": "en", "original_title": "Tell It to the Bees", "overview": "Dr. Jean Markham returns to the town she left as a teenager to take over her late father's medical practice. When a school-yard scuffle lands Charlie in her surgery, she invites him to visit the hives in her garden and tell his secrets to the bees, as she once did. The new friendship between the boy and the bee keeper brings his mother Lydia into Jean's world.", "poster_path": "/Rj6zpHhMU1zFW3v28U4PSRSRgP.jpg", "release_date": "2019-05-03", "title": "Tell It to the Bees", "video": false, "vote_average": 6.4, "vote_count": 53, "popularity": 15.113}, {"adult": false, "backdrop_path": "/baYbbMtKRDoDWYJeVWkbygAvAj8.jpg", "genre_ids": [18, 10749], "id": 31216, "original_language": "en", "original_title": "I Can't Think Straight", "overview": "I CAN'T THINK STRAIGHT is a 2007 romance movie about a London-based Jordanian of Palestinian descent, Tala, who is preparing for an elaborate wedding. A turn of events causes her to have an affair and subsequently fall in love with another woman, Leyla, a British Indian.", "poster_path": "/1kapga6rkM5wNuQBYw7sdE42CrA.jpg", "release_date": "2008-06-01", "title": "I Can't Think Straight", "video": false, "vote_average": 7.6, "vote_count": 109, "popularity": 8.749}, {"adult": false, "backdrop_path": "/lI5h8KaoeObu4NMTwzeRuUHzRwD.jpg", "genre_ids": [18, 9648, 53], "id": 401898, "original_language": "no", "original_title": "Thelma", "overview": "A college student starts to experience extreme seizures. She soon learns that the violent episodes are a symptom of inexplicable abilities.", "poster_path": "/yzSfG8TLAqw7nMQh2lxirQkQpgs.jpg", "release_date": "2017-09-15", "title": "Thelma", "video": false, "vote_average": 7.1, "vote_count": 418, "popularity": 12.235}, {"adult": false, "backdrop_path": "/tIFRPjIXQ3sYrmxbIeOu9K1JkUz.jpg", "genre_ids": [18, 10749], "id": 294, "original_language": "en", "original_title": "Desert Hearts", "overview": "The story of straight-edge literature professor Vivian who travels to Reno to get away from a relationship breakup when she falls in love with an attractive and unconventional girl named Cay.", "poster_path": "/b8JSmQSpYYJhctMtxNgqh0elENg.jpg", "release_date": "1985-10-01", "title": "Desert Hearts", "video": false, "vote_average": 7.3, "vote_count": 58, "popularity": 8.237}, {"id": 2255, "video": false, "vote_count": 772, "vote_average": 6.8, "title": "Chasing Amy", "release_date": "1997-04-04", "original_language": "en", "original_title": "Chasing Amy", "genre_ids": [35, 18, 10749], "backdrop_path": "/doKYVK61Vb8J1KUjlb9dNWkQNp6.jpg", "adult": false, "overview": "Holden and Banky are comic book artists. Everything is going good for them until they meet Alyssa, also a comic book artist. Holden falls for her, but his hopes are crushed when he finds out she's a lesbian.", "poster_path": "/4vFJileWrCGaBeobCmF0tXpQCUb.jpg", "popularity": 11.325}, {"adult": false, "backdrop_path": "/hD8DQM72Xacg1d3mFqS0eN8vKYw.jpg", "genre_ids": [18], "id": 8272, "original_language": "en", "original_title": "The Savages", "overview": "A sister and brother face the realities of familial responsibility as they begin to care for their ailing father.", "poster_path": "/nY54gSmTOmSXlQpWDB7DWp4u8a7.jpg", "release_date": "2007-01-19", "title": "The Savages", "video": false, "vote_average": 6.9, "vote_count": 192, "popularity": 13.094}, {"adult": false, "backdrop_path": "/g3LYarEY9LjB28Ct2trwFN72gqZ.jpg", "genre_ids": [35], "id": 437557, "original_language": "en", "original_title": "Blockers", "overview": "When three parents discover their daughters\u2019 pact to lose their virginity at prom, they launch a covert one-night operation to stop the teens from sealing the deal.", "poster_path": "/uvlUQXg0AlpGzKukO11K7QtW3Yu.jpg", "release_date": "2018-03-14", "title": "Blockers", "video": false, "vote_average": 6.2, "vote_count": 1153, "popularity": 18.075}, {"adult": false, "backdrop_path": "/zBB1mzmqnUuSrlTuf0SFFlI1EoJ.jpg", "genre_ids": [18], "id": 244772, "original_language": "en", "original_title": "The Skeleton Twins", "overview": "Estranged twins Maggie and Milo coincidentally cheat death on the same day, prompting them to reunite and confront the reasons their lives went so wrong. As the twins' reunion reinvigorates them, they realize the key to fixing their lives may just lie in repairing their relationship.", "poster_path": "/vvmv1R2jDXJeeeyYcGg0ypXc2XK.jpg", "release_date": "2014-09-12", "title": "The Skeleton Twins", "video": false, "vote_average": 6.7, "vote_count": 416, "popularity": 9.821}, {"adult": false, "backdrop_path": "/3YGy88nTV2e0wxZcKI1goiEN9oy.jpg", "genre_ids": [18, 10749], "id": 37636, "original_language": "en", "original_title": "High Art", "overview": "A young female intern at a small magazine company becomes involved with a drug-addicted lesbian photographer, both of whom seek to exploit each other for their respective careers, while slowly falling in love with each other.", "poster_path": "/qTg05RNJIvb9w4Z7XIcAZxuZmTn.jpg", "release_date": "1998-06-12", "title": "High Art", "video": false, "vote_average": 6.6, "vote_count": 61, "popularity": 7.27}, {"adult": false, "backdrop_path": "/caLMOD3ZJ3V7qjlxDXrzlJfBLgD.jpg", "genre_ids": [18, 10749], "id": 20, "original_language": "en", "original_title": "My Life Without Me", "overview": "A Pedro Almodovar production in which a fatally ill mother with only two months to live creates a list of things she wants to do before she dies with out telling her family of her illness.", "poster_path": "/vVj92VBFUBzjqzLvBiPVVlJDp78.jpg", "release_date": "2003-03-07", "title": "My Life Without Me", "video": false, "vote_average": 6.1, "vote_count": 220, "popularity": 9.208}, {"adult": false, "backdrop_path": "/useuHJQ5HOoEWkAvEjL1FW1sUfe.jpg", "genre_ids": [18], "id": 376867, "original_language": "en", "original_title": "Moonlight", "overview": "The tender, heartbreaking story of a young man\u2019s struggle to find himself, told across three defining chapters in his life as he experiences the ecstasy, pain, and beauty of falling in love, while grappling with his own sexuality.", "poster_path": "/qAwFbszz0kRyTuXmMeKQZCX3Q2O.jpg", "release_date": "2016-10-21", "title": "Moonlight", "video": false, "vote_average": 7.4, "vote_count": 4406, "popularity": 27.348}], "total_pages": 1446, "total_results": 28907}, "recommendations": {"page": 1, "results": [{"id": 85589, "video": false, "vote_count": 8, "vote_average": 6.9, "title": "Zero Kelvin", "release_date": "1995-09-29", "original_language": "no", "original_title": "Kj\u00e6rlighetens kj\u00f8tere", "genre_ids": [18, 53], "backdrop_path": "/iVKrLtWLM3z1MuFhp0aajTIgu1j.jpg", "adult": false, "overview": "Larsen, an aspiring poet in '20s Oslo, leaves his girlfriend to spend a year as a trapper in East Greenland. There he is teamed with a seemingly rough old sailor/trapper, Randb\u00e6k, and a scientist, Holm. Trapped in a tiny hut together as the Arctic winter sets in, a complex and intense love/hate relationship develops between Randb\u00e6k and Larsen, who are more similar than either would like to admit. A powerful psychological and physical drama set against stunningly bleak Arctic scenery.", "poster_path": "/gt9ueOkcTt6UVZqNCH8qhgHfM8n.jpg", "popularity": 4.314}, {"adult": false, "backdrop_path": "/123bRGZNuDDuHrRZiIpMEJOuSVk.jpg", "genre_ids": [99], "id": 85834, "original_language": "fr", "original_title": "M\u00e9diterran\u00e9e", "overview": "Pollet and Schl\u00f6ndorff imagine the Mediterranean as a supernal arena.", "poster_path": "/niilxJfs02VMQXosSAphcZgwJkx.jpg", "release_date": "1963-04-23", "title": "M\u00e9diterran\u00e9e", "video": false, "vote_average": 6.3, "vote_count": 9, "popularity": 2.76}, {"adult": false, "backdrop_path": "/kUx6ONC8O3W7bd12kffZCdWjVn2.jpg", "genre_ids": [28, 18, 10752], "id": 43786, "original_language": "en", "original_title": "Wake Island", "overview": "In November 1941, Major Caton takes command of the small Marine garrison on Wake Island. His tendency toward spit and polish upsets the men's tropical lassitude, but Pearl Harbor changes everything. Soon the island is attacked and the Marines pull together day by day; but how long can they hold out?", "poster_path": "/y3sWKUyQcOYeQ8Rv7fJLgV4qrRH.jpg", "release_date": "1942-08-11", "title": "Wake Island", "video": false, "vote_average": 5.9, "vote_count": 11, "popularity": 3.943}, {"adult": false, "backdrop_path": "/qxPg9JCMm4TiuqwoSe5qikmuPLR.jpg", "genre_ids": [99], "id": 56962, "original_language": "en", "original_title": "Hell's Angel", "overview": "Christopher Hitchens investigates whether Mother Teresa of Calcutta deserves her saintly image. He probes her campaigns against contraception and abortion and her questionable relationships with right-wing political leaders.", "poster_path": "/3lUtzrxBuLLENoWlsJeCuANWEhx.jpg", "release_date": "1994-11-08", "title": "Hell's Angel", "video": false, "vote_average": 7.6, "vote_count": 10, "popularity": 1.774}, {"adult": false, "backdrop_path": "/sVnCg03eTCQIN2aSblm8oinbakG.jpg", "genre_ids": [99], "id": 97035, "original_language": "fr", "original_title": "Une histoire de vent", "overview": "It is an autobiographical fiction starring Ivens as an old man who has spent his life trying to \"tame the wind and harness the sea\" by capturing them on film.", "poster_path": "/sF5bf3gb7GLSStPPHg3YDmbt8I0.jpg", "release_date": "1988-09-09", "title": "A Tale of the Wind", "video": false, "vote_average": 6.7, "vote_count": 12, "popularity": 3.367}, {"adult": false, "backdrop_path": "/v04fr70ziTw3Syj3lcbGuJpfn24.jpg", "genre_ids": [18], "id": 103539, "original_language": "kk", "original_title": "Kelin", "overview": "A woman is led by her family to her new husband's home, to live with, presumably, his elderly mother and younger brother. Despite being forced into the marriage, she discovers that he is not such a bad catch after all but domestic bliss does not last long.", "poster_path": "/6175LOmzSdhFT8ieRLDD5nWIjM0.jpg", "release_date": "2009-06-26", "title": "Kelin", "video": false, "vote_average": 4.9, "vote_count": 9, "popularity": 1.303}], "total_pages": 1, "total_results": 6}, "credits": {"cast": [{"cast_id": 2, "character": "Christine M.", "credit_id": "52fe49b79251416c750d10a3", "gender": 1, "id": 211254, "name": "Edda Barends", "order": 0, "profile_path": null}, {"cast_id": 3, "character": "Annie", "credit_id": "52fe49b79251416c750d10a7", "gender": 1, "id": 34871, "name": "Nelly Frijda", "order": 1, "profile_path": "/aSob361v124Apxx7GlLCjZtVEhm.jpg"}, {"cast_id": 4, "character": "Anna", "credit_id": "52fe49b79251416c750d10ab", "gender": 0, "id": 211016, "name": "Henri\u00ebtte Tol", "order": 2, "profile_path": "/ymtNojOEhy8QxwfbvQWF0GgvKN0.jpg"}, {"cast_id": 5, "character": "Janine van den Bos", "credit_id": "52fe49b79251416c750d10af", "gender": 0, "id": 27533, "name": "Cox Habbema", "order": 3, "profile_path": "/v4EEAwrZiYrP8IgmwVrQvr9u7vx.jpg"}, {"cast_id": 6, "character": "Ruud van den Bos", "credit_id": "52fe49b79251416c750d10b3", "gender": 0, "id": 1009979, "name": "Eddie Brugman", "order": 4, "profile_path": null}, {"cast_id": 7, "character": "Rechter", "credit_id": "52fe49b79251416c750d10b7", "gender": 2, "id": 145580, "name": "Hans Croiset", "order": 5, "profile_path": null}], "crew": [{"credit_id": "52fe49b79251416c750d109f", "department": "Directing", "gender": 1, "id": 13496, "job": "Director", "name": "Marleen Gorris", "profile_path": "/sSVUF5IE4nF4CCLzkwCfRmQz1Ws.jpg"}, {"credit_id": "5a962fe09251417b1e0034ea", "department": "Writing", "gender": 1, "id": 13496, "job": "Screenplay", "name": "Marleen Gorris", "profile_path": "/sSVUF5IE4nF4CCLzkwCfRmQz1Ws.jpg"}, {"credit_id": "5a9630230e0a265438003874", "department": "Production", "gender": 2, "id": 69339, "job": "Producer", "name": "Matthijs van Heijningen", "profile_path": null}, {"credit_id": "5a9630680e0a26544d0037c0", "department": "Crew", "gender": 0, "id": 26573, "job": "Cinematography", "name": "Frans Bromet", "profile_path": null}, {"credit_id": "5a96307fc3a3685a0800391f", "department": "Editing", "gender": 2, "id": 21443, "job": "Editor", "name": "Hans van Dongen", "profile_path": null}, {"credit_id": "5a9630980e0a2654380038d8", "department": "Costume & Make-Up", "gender": 1, "id": 11227, "job": "Costume Design", "name": "Jany Temime", "profile_path": "/1G8TxAQnndnY5CLqVApBQ8RUT4A.jpg"}, {"credit_id": "5a9630bd0e0a26544d00380a", "department": "Directing", "gender": 0, "id": 1905973, "job": "Assistant Director", "name": "Conny Brak", "profile_path": null}, {"credit_id": "5a9630cdc3a3685a24003858", "department": "Art", "gender": 2, "id": 1693103, "job": "Assistant Art Director", "name": "Hans Voors", "profile_path": null}, {"credit_id": "5a9630e90e0a2654410036fe", "department": "Sound", "gender": 0, "id": 105969, "job": "Sound", "name": "Victor Dekker", "profile_path": null}, {"credit_id": "5a96311ec3a3685a08003993", "department": "Costume & Make-Up", "gender": 0, "id": 1665770, "job": "Makeup Artist", "name": "Ulli Ullrich", "profile_path": null}, {"credit_id": "5a9631460e0a26543800395e", "department": "Art", "gender": 2, "id": 35507, "job": "Art Direction", "name": "Harry Ammerlaan", "profile_path": null}, {"credit_id": "5a96316d0e0a26544100374c", "department": "Sound", "gender": 0, "id": 1247374, "job": "Music", "name": "Lodewijk De Boer", "profile_path": "/bBNWNEAmGuqEPv7qf4MqgIn8qaf.jpg"}, {"credit_id": "5a963187c3a3685a24003901", "department": "Sound", "gender": 0, "id": 1987074, "job": "Music", "name": "Martijn Hasebos", "profile_path": null}]}}