{"adult": false, "backdrop_path": "/fprnXmU4FdCd921qYF3q9Z9AQHV.jpg", "belongs_to_collection": null, "budget": 0, "genres": [{"id": 35, "name": "Comedy"}, {"id": 9648, "name": "Mystery"}], "homepage": null, "id": 97432, "imdb_id": "tt0033926", "original_language": "en", "original_title": "Mr. and Mrs. North", "overview": "Married sleuths (Gracie Allen, William Post Jr.) find a corpse in their closet and round up suspects.", "popularity": 1.309, "poster_path": "/sFzucypLQrYP2GpuSICxMMbTH31.jpg", "production_companies": [{"id": 21, "logo_path": "/mjofSXiHpG5t6KYmU4l4FrUhT7m.png", "name": "Metro-Goldwyn-Mayer", "origin_country": "US"}], "production_countries": [{"iso_3166_1": "US", "name": "United States of America"}], "release_date": "1942-01-23", "revenue": 0, "runtime": 67, "spoken_languages": [{"iso_639_1": "en", "name": "English"}], "status": "Released", "tagline": "Gracie says: \"There's been a burglar here! Nobody but a burglar would put anything on my dressing table in the right place. I never do.\"", "title": "Mr. and Mrs. North", "video": false, "vote_average": 7.0, "vote_count": 1, "keywords": {"keywords": [{"id": 11677, "name": "secretary"}]}, "similar": {"page": 1, "results": [{"adult": false, "backdrop_path": "/r2b4rCQlaQ9eyhZhVukW8EnRW0c.jpg", "genre_ids": [35], "id": 55580, "original_language": "it", "original_title": "Fermo posta Tinto Brass", "overview": "This film is a series of letters, photos and video cassettes which women often send in to certain newspapers. By visualizing their story-telling (the name given by the psychologists to their fantasies) the film portrays the confessions, the secret longings, the adventures, recollections, dreams, desires and fantasies of these women. It is an open secret that most women dream of forbidden affairs, secret lovers and hasty encounters but when it comes down to it they lack the courage to pursue their dreams.", "poster_path": "/zC4QqXYwdOPS3LT9J0YPN3bcDxz.jpg", "release_date": "1995-08-30", "title": "P.O. Box Tinto Brass", "video": false, "vote_average": 5.2, "vote_count": 34, "popularity": 11.931}, {"id": 13401, "video": false, "vote_count": 352, "vote_average": 5.5, "title": "The Accidental Husband", "release_date": "2008-02-29", "original_language": "en", "original_title": "The Accidental Husband", "genre_ids": [35, 10749], "backdrop_path": "/mBVyrtzC2aHkPfbN8iKXCwJRaKE.jpg", "adult": false, "overview": "When radio love guru Dr Emma Lloyd convinces Patrick Sullivan's fianc\u00e9e to dump him the week before their wedding. He sets about teaching her a lesson for interfering in other peoples lives that she knows nothing about. Things take a turn when he finds himself falling for the very person who ruined his life and everyone is going to have to learn a few lessons about 'Real Love'", "poster_path": "/1scyqCdWFikY9wfsqwk8IGcNk1Q.jpg", "popularity": 11.026}, {"adult": false, "backdrop_path": "/kQX0k2mVsiexLftIpiTVb5N6rZs.jpg", "genre_ids": [35, 18, 10749], "id": 339397, "original_language": "en", "original_title": "Caf\u00e9 Society", "overview": "The story of a young man who arrives in Hollywood during the 1930s hoping to work in the film industry, falls in love, and finds himself swept up in the vibrant caf\u00e9 society that defined the spirit of the age.", "poster_path": "/hRrF8R32WIldNEMLOhtNrz9OfAZ.jpg", "release_date": "2016-05-11", "title": "Caf\u00e9 Society", "video": false, "vote_average": 6.4, "vote_count": 1699, "popularity": 10.337}, {"id": 195, "video": false, "vote_count": 112, "vote_average": 7.7, "title": "Trouble in Paradise", "release_date": "1932-10-30", "original_language": "en", "original_title": "Trouble in Paradise", "genre_ids": [35, 80, 10749], "backdrop_path": "/lMZyfDVoxhmfBUNmnNQWvSEL9E3.jpg", "adult": false, "overview": "Thief Gaston Monescu and pickpocket Lily are partners in crime and love. Working for perfume company executive Mariette Colet, the two crooks decide to combine their criminal talents to rob their employer. Under the alias of Monsieur Laval, Gaston uses his position as Mariette's personal secretary to become closer to her. However, he takes things too far when he actually falls in love with Mariette, and has to choose between her and Lily.", "poster_path": "/FBxuoLRD3Biyul14unT5m3PYNS.jpg", "popularity": 9.206}, {"adult": false, "backdrop_path": "/q9q0lUP40vMSKzRV8FKIhob0DS6.jpg", "genre_ids": [35, 10749], "id": 34106, "original_language": "en", "original_title": "You Can't Take It with You", "overview": "Alice, the only relatively normal member of the eccentric Sycamore family, falls in love with Tony Kirby. His wealthy banker father, Anthony P. Kirby, and his snobbish mother, strongly disapprove of the match. When the Kirbys are invited to dinner to become better acquainted with their future in-laws, things do not turn out the way Alice had hoped.", "poster_path": "/ysTiFXwTowOdDOUu9ikE21LPmdy.jpg", "release_date": "1938-08-23", "title": "You Can't Take It with You", "video": false, "vote_average": 7.6, "vote_count": 162, "popularity": 8.899}, {"id": 11013, "video": false, "vote_count": 743, "vote_average": 6.8, "title": "Secretary", "release_date": "2002-01-11", "original_language": "en", "original_title": "Secretary", "genre_ids": [35, 18, 10749], "backdrop_path": "/wV0CILccFsisgin2AY6JZtwW7Wn.jpg", "adult": false, "overview": "A young woman, recently released from a mental hospital, gets a job as a secretary to a demanding lawyer, where their employer-employee relationship turns into a sexual, sadomasochistic one.", "poster_path": "/dZaTYgy6sc6Z8ylaKdXw8yq5sRv.jpg", "popularity": 19.123}, {"adult": false, "backdrop_path": "/iV9eG4Y35QqmTpdRWtPTuniatAR.jpg", "genre_ids": [35, 18], "id": 14585, "original_language": "en", "original_title": "In the Company of Men", "overview": "Two business executives--one an avowed misogynist, the other recently emotionally wounded by his love interest--set out to exact revenge on the female gender by seeking out the most innocent, uncorrupted girl they can find and ruining her life.", "poster_path": "/jdg8w5BVEJbakwO1GW7jFQ9EGwC.jpg", "release_date": "1997-03-28", "title": "In the Company of Men", "video": false, "vote_average": 7.0, "vote_count": 73, "popularity": 5.964}, {"id": 20640, "video": false, "vote_count": 60, "vote_average": 6.9, "title": "Woman of the Year", "release_date": "1942-02-05", "original_language": "en", "original_title": "Woman of the Year", "genre_ids": [35, 10749], "backdrop_path": "/nfqwTWCfmy966HV3B2iqPZRwyIc.jpg", "adult": false, "overview": "Rival reporters Sam and Tess fall in love and get married, only to find their relationship strained when Sam comes to resent Tess' hectic lifestyle.", "poster_path": "/qAju16QNCJt9SN4pIIzDyXcxtM3.jpg", "popularity": 5.999}, {"id": 31411, "video": false, "vote_count": 146, "vote_average": 8.1, "title": "The Cameraman", "release_date": "1928-09-10", "original_language": "en", "original_title": "The Cameraman", "genre_ids": [35, 18, 10749, 10751], "backdrop_path": "/kDkgVm79pJ98dLvWWJnlJSFjBpj.jpg", "adult": false, "overview": "A photographer takes up newsreel shooting to impress a secretary.", "poster_path": "/cLVJMJNW3VavnB1CZqbEC9GwSkR.jpg", "popularity": 6.84}, {"adult": false, "backdrop_path": "/ueWP6qY7WyqAYCyvvtwglvC45vb.jpg", "genre_ids": [80, 35, 10749], "id": 25719, "original_language": "en", "original_title": "Shooting Fish", "overview": "Two con artists (Dan Futterman, Stuart Townsend) hire an unwitting medical-school student (Kate Beckinsale) as a secretary for their latest scam.", "poster_path": "/hcWyY9VBfSmpvM9Fbu6WTfkCU9P.jpg", "release_date": "1997-08-22", "title": "Shooting Fish", "video": false, "vote_average": 6.6, "vote_count": 43, "popularity": 5.805}, {"id": 2071, "video": false, "vote_count": 65, "vote_average": 6.4, "title": "Shattered", "release_date": "1991-10-11", "original_language": "en", "original_title": "Shattered", "genre_ids": [9648, 53], "backdrop_path": "/iG2szX3DQkdlGZTYsencb9s6Px.jpg", "adult": false, "overview": "Dan Merrick comes out from a shattering car accident with amnesia. He finds that he is married to Judith who is trying to help him start his life again. He keeps getting flashbacks about events and places that he can't remember. He meets pet shop owner and part time private detective Gus Klein who is supposedly done some work for him prior to the accident. Klein helps Merrick to find out more...", "poster_path": "/q7AAPZtD1APYACKeMc1TEU0g0KT.jpg", "popularity": 7.692}, {"id": 539, "video": false, "vote_count": 5674, "vote_average": 8.4, "title": "Psycho", "release_date": "1960-06-16", "original_language": "en", "original_title": "Psycho", "genre_ids": [18, 27, 53], "backdrop_path": "/3md49VBCeqY6MSNyAVY6d5eC6bA.jpg", "adult": false, "overview": "When larcenous real estate clerk Marion Crane goes on the lam with a wad of cash and hopes of starting a new life, she ends up at the notorious Bates Motel, where manager Norman Bates cares for his housebound mother. The place seems quirky, but fine\u2026 until Marion decides to take a shower.", "poster_path": "/81d8oyEFgj7FlxJqSDXWr8JH8kV.jpg", "popularity": 25.393}, {"id": 42077, "video": false, "vote_count": 30, "vote_average": 6.9, "title": "My Name Is Julia Ross", "release_date": "1945-11-08", "original_language": "en", "original_title": "My Name Is Julia Ross", "genre_ids": [9648], "backdrop_path": "/13CXPW0fPfjsZQ6fmjY7QNI1tRY.jpg", "adult": false, "overview": "A woman finds herself entrenched in a murder cover-up when she goes to work for a wealthy widow.", "poster_path": "/chTO5mqs0avT3ktFTtWfLgN2ZOa.jpg", "popularity": 4.314}, {"adult": false, "backdrop_path": "/hjYPG15duBJmobyAbqjmaciWWqV.jpg", "genre_ids": [18, 35, 10402], "id": 25167, "original_language": "en", "original_title": "Bye Bye Birdie", "overview": "A singer goes to a small town for a performance before he is drafted.", "poster_path": "/4KVjnuLqIU1UQlBiCXzMn2B4FFu.jpg", "release_date": "1963-04-04", "title": "Bye Bye Birdie", "video": false, "vote_average": 6.1, "vote_count": 64, "popularity": 7.59}, {"id": 59969, "video": false, "vote_count": 20, "vote_average": 5.1, "title": "The American Beauty", "release_date": "1961-09-29", "original_language": "fr", "original_title": "La Belle am\u00e9ricaine", "genre_ids": [35], "backdrop_path": "/dTBp1cdUrYxs9InxAd2waob85qz.jpg", "adult": false, "overview": "Marcel, a simple-minded factory worker, is tricked into buying a high-priced American convertable car by a widow determined not to let it fall into the hands of her late husband's secretary/secret lover. Once in pocession of the car, Marcel only encounters one bad luck episode after another with the excessive gasoline consumtion, his wife trying to sell it to make ammends meet, getting into traffic jams, accidently riding into a car wash with the top down, and more", "poster_path": "/zyYTH4t5fEf66fpSP9L2vBIeebI.jpg", "popularity": 3.353}, {"id": 45581, "video": false, "vote_count": 6, "vote_average": 7.2, "title": "As Young as You Feel", "release_date": "1951-06-15", "original_language": "en", "original_title": "As Young as You Feel", "genre_ids": [35], "backdrop_path": "/gvBRPdwU7f7IJKg0nh3qkzXjy2e.jpg", "adult": false, "overview": "Sixty-five-year-old John Hodges must retire from Acme Printing. He later impersonates the president of the parent company and arrives at his old plant on an inspection tour. Acme president McKinley is so nervous not even his beautiful secretary Harriet can calm him. McKinley's wife Lucille becomes infatuated with Hodges. Many further complications ensue.", "poster_path": "/4aq92rxrgIQ2eYOy2KeMV5NDVyq.jpg", "popularity": 2.814}, {"id": 26319, "video": false, "vote_count": 29, "vote_average": 6.7, "title": "The Man Who Came to Dinner", "release_date": "1942-01-24", "original_language": "en", "original_title": "The Man Who Came to Dinner", "genre_ids": [35, 10749], "backdrop_path": "/mFBmZtS7j9jFEP06hHzntKzX1LN.jpg", "adult": false, "overview": "An acerbic critic wreaks havoc when a hip injury forces him to move in with a Midwestern family.", "poster_path": "/zbvD8TLrlmtS3AkhZAdWlkThwP3.jpg", "popularity": 4.098}, {"adult": false, "backdrop_path": "/nOVqSy3uyY9IhzqXN6DO1Ufl5BU.jpg", "genre_ids": [35, 10749], "id": 138906, "original_language": "fr", "original_title": "Le Grand Amour", "overview": "Pierre married Florence, the only daughter of a small industrialist. 15 years later, he is the boss, but his middle-class life worries him a lot. When a new young and lovely secretary comes, he starts dreaming.", "poster_path": "/aLKBgO0HXkY4cYX4XE35oemETwR.jpg", "release_date": "1969-03-21", "title": "Le Grand Amour", "video": false, "vote_average": 6.6, "vote_count": 8, "popularity": 2.601}, {"adult": false, "backdrop_path": "/wmZifaEgXBRBv34CIL96ib7QRxG.jpg", "genre_ids": [35, 10402, 10749], "id": 66473, "original_language": "en", "original_title": "A Damsel in Distress", "overview": "Lady Alyce Marshmorton must marry soon, and the staff of Tottney Castle have laid bets on who she'll choose, with young Albert wagering on \"Mr. X.\" After Alyce goes to London to meet a beau (bumping into dancer Jerry Halliday, instead), she is restricted to the castle to curb her scandalous behavior. Albert then summons Jerry to Alyce's aid in order to \"protect his investment.\"", "poster_path": "/iPXTU0ZA89vcZYxqOOJ01jkIyi8.jpg", "release_date": "1937-11-19", "title": "A Damsel in Distress", "video": false, "vote_average": 7.0, "vote_count": 13, "popularity": 3.705}, {"adult": false, "backdrop_path": "/m479wmx045jXDRH0UtXHZ9ZYiNr.jpg", "genre_ids": [35, 18, 10749], "id": 38721, "original_language": "en", "original_title": "Wife vs. Secretary", "overview": "Magazine publisher Van Stanhope is a hard-working, dynamic executive very happily married to his beautiful wife Linda. Although their relationship is is built on unconditional trust, friends caution her about the dangers of allowing Whitey, her husband's extremely sexy secretary, to continue to have access to him. Even Van's mother warns Linda that Van's father philandered during their marriage, and Van, like all men, will eventually succumb to opportunity and temptation. Although Whitey has a faithful boyfriend, she secretly harbors unrequited feelings for her boss. When they take business trip to Havana, circumstantial evidence convinces Linda that the rumors she's heard may have a basis in fact.", "poster_path": "/buL8jcZLjqnonV6DD4T9mH1SQBQ.jpg", "release_date": "1936-02-28", "title": "Wife vs. Secretary", "video": false, "vote_average": 7.0, "vote_count": 22, "popularity": 4.539}], "total_pages": 6, "total_results": 107}, "recommendations": {"page": 1, "results": [], "total_pages": 1, "total_results": 0}, "credits": {"cast": [{"cast_id": 4, "character": "Pamela North", "credit_id": "52fe49df9251416c750d6335", "gender": 1, "id": 109896, "name": "Gracie Allen", "order": 0, "profile_path": "/obRJIzDzeBEu8izy9E2mpVNO4Mw.jpg"}, {"cast_id": 5, "character": "Gerald P. North", "credit_id": "52fe49df9251416c750d6339", "gender": 2, "id": 83479, "name": "William Post Jr.", "order": 1, "profile_path": "/db2yYRdjmlaAgVC4i4agQRQImwF.jpg"}, {"cast_id": 6, "character": "Lieutenant Weigand", "credit_id": "52fe49e09251416c750d633d", "gender": 2, "id": 82348, "name": "Paul Kelly", "order": 2, "profile_path": "/rjgY0UF0a7fD47dd4xuVC8dDNAb.jpg"}, {"cast_id": 7, "character": "Carol Brent", "credit_id": "52fe49e09251416c750d6341", "gender": 1, "id": 29599, "name": "Rose Hobart", "order": 3, "profile_path": "/txlx2cZkmcFzqMWyi2QgpJMXpMu.jpg"}, {"cast_id": 8, "character": "Jane Wilson", "credit_id": "52fe49e09251416c750d6345", "gender": 1, "id": 19967, "name": "Virginia Grey", "order": 4, "profile_path": "/7l9IHLK10pW0k2kyTT6X6rGrtEy.jpg"}, {"cast_id": 9, "character": "Louis Berex", "credit_id": "52fe49e09251416c750d6349", "gender": 2, "id": 48962, "name": "Tom Conway", "order": 5, "profile_path": "/u2Kn7hRdOVSZTBoAokZz01YcyU4.jpg"}], "crew": [{"credit_id": "52fe49df9251416c750d6325", "department": "Directing", "gender": 2, "id": 121210, "job": "Director", "name": "Robert B. Sinclair", "profile_path": null}, {"credit_id": "52fe49df9251416c750d632b", "department": "Writing", "gender": 0, "id": 117851, "job": "Screenplay", "name": "S.K. Lauren", "profile_path": null}, {"credit_id": "52fe49df9251416c750d6331", "department": "Writing", "gender": 2, "id": 599976, "job": "Theatre Play", "name": "Owen Davis", "profile_path": null}, {"credit_id": "57ebf5a59251410de0006fc3", "department": "Camera", "gender": 2, "id": 10537, "job": "Director of Photography", "name": "Harry Stradling Sr.", "profile_path": "/zrOonlDitklFugniihdlLloxGFO.jpg"}]}}