{"adult": false, "backdrop_path": "/bQgbEQJRlrovLIUS51eSIUmfDnF.jpg", "belongs_to_collection": null, "budget": 0, "genres": [{"id": 18, "name": "Drama"}], "homepage": null, "id": 97549, "imdb_id": "tt0041300", "original_language": "en", "original_title": "The Doctor and the Girl", "overview": "A young doctor discovers new value in his profession after he falls in love with a patient. MGM's 1949 film stars Glenn Ford, Janet Leigh, Charles Coburn, Gloria DeHaven, Nancy Davis and Bruce Bennett.", "popularity": 3.729, "poster_path": "/f7wqPkWextUSJA8tx0yH2DtnOKi.jpg", "production_companies": [{"id": 21, "logo_path": "/mjofSXiHpG5t6KYmU4l4FrUhT7m.png", "name": "Metro-Goldwyn-Mayer", "origin_country": "US"}], "production_countries": [{"iso_3166_1": "US", "name": "United States of America"}], "release_date": "1949-10-19", "revenue": 0, "runtime": 98, "spoken_languages": [{"iso_639_1": "en", "name": "English"}], "status": "Released", "tagline": "", "title": "The Doctor and the Girl", "video": false, "vote_average": 6.0, "vote_count": 3, "keywords": {"keywords": [{"id": 11612, "name": "hospital"}, {"id": 13005, "name": "doctor"}, {"id": 190966, "name": "harvard medical school"}]}, "similar": {"page": 1, "results": [{"id": 40807, "video": false, "vote_count": 2336, "vote_average": 7.1, "title": "50/50", "release_date": "2011-09-30", "original_language": "en", "original_title": "50/50", "genre_ids": [35, 18], "backdrop_path": "/kGac26bIqfwm8eqbP1RjKP70brE.jpg", "adult": false, "overview": "Inspired by a true story, a comedy centered on a 27-year-old guy who learns of his cancer diagnosis, and his subsequent struggle to beat the disease.", "poster_path": "/uDKmnFHqE3rQ9r6ErQsOZWuzXN8.jpg", "popularity": 19.878}, {"id": 797, "video": false, "vote_count": 884, "vote_average": 8.3, "title": "Persona", "release_date": "1966-10-18", "original_language": "sv", "original_title": "Persona", "genre_ids": [18], "backdrop_path": "/hqFN0gOmeXKmKP266CSjbHt9y05.jpg", "adult": false, "overview": "A young nurse, Alma, is put in charge of Elisabeth Vogler: an actress who is seemingly healthy in all respects, but will not talk. As they spend time together, Alma speaks to Elisabeth constantly, never receiving any answer. Alma eventually confesses her secrets to a seemingly sympathetic Elisabeth and finds that her own personality is being submerged into Elisabeth's persona.", "poster_path": "/cjAnlvCrp9ZY7atASUsxRrhve7o.jpg", "popularity": 14.909}, {"adult": false, "backdrop_path": "/a09NeywCuAevxKDG8JmqBpittTT.jpg", "genre_ids": [18], "id": 340027, "original_language": "en", "original_title": "Brain on Fire", "overview": "Susannah Cahalan, an up-and-coming journalist at the New York Post becomes plagued by voices in her head and seizures, causing a rapid descent into insanity.", "poster_path": "/ulOCM9UYjiXxggjDBtNmGTmsJDA.jpg", "release_date": "2017-02-22", "title": "Brain on Fire", "video": false, "vote_average": 7.2, "vote_count": 800, "popularity": 13.13}, {"id": 651, "video": false, "vote_count": 478, "vote_average": 7.1, "title": "M*A*S*H", "release_date": "1970-01-24", "original_language": "en", "original_title": "M*A*S*H", "genre_ids": [35, 18, 10752], "backdrop_path": "/l5YH6TCYi2mgZwXbDjF71iA9UBP.jpg", "adult": false, "overview": "The staff of a Korean War field hospital use humor and high jinks to keep their sanity in the face of the horror of war.", "poster_path": "/cscyvJ4nDgbqewrttPXZ5EYOdwa.jpg", "popularity": 11.845}, {"adult": false, "backdrop_path": "/mtJrV7i76PtXJMmWz3tu6dWav6n.jpg", "genre_ids": [18], "id": 510, "original_language": "en", "original_title": "One Flew Over the Cuckoo's Nest", "overview": "While serving time for insanity at a state mental hospital, implacable rabble-rouser, Randle Patrick McMurphy, inspires his fellow patients to rebel against the authoritarian rule of head nurse, Mildred Ratched.", "poster_path": "/2Sns5oMb356JNdBHgBETjIpRYy9.jpg", "release_date": "1975-11-18", "title": "One Flew Over the Cuckoo's Nest", "video": false, "vote_average": 8.4, "vote_count": 6157, "popularity": 24.823}, {"id": 1903, "video": false, "vote_count": 2234, "vote_average": 6.8, "title": "Vanilla Sky", "release_date": "2001-12-10", "original_language": "en", "original_title": "Vanilla Sky", "genre_ids": [18, 14, 878, 53, 10749], "backdrop_path": "/6XwX3HzKhlBUbTy2qZx0THQOu2T.jpg", "adult": false, "overview": "David Aames has it all: wealth, good looks and gorgeous women on his arm. But just as he begins falling for the warmhearted Sofia, his face is horribly disfigured in a car accident. That's just the beginning of his troubles as the lines between illusion and reality, between life and death, are blurred.", "poster_path": "/ujMy9P4VczTW9YSpAM31uqdOMpz.jpg", "popularity": 14.632}, {"adult": false, "backdrop_path": "/kmcnv73Wn0nkPQ5zQH7amJh4rEJ.jpg", "genre_ids": [12, 18], "id": 9096, "original_language": "en", "original_title": "Medicine Man", "overview": "An eccentric scientist working for a large drug company is working on a research project in the Amazon jungle. He sends for a research assistant and a gas chromatograph because he's close to a cure for cancer. When the assistant turns out to be a \"mere woman,\" he rejects her help. Meanwhile the bulldozers get closer to the area in which they are conducting research, and they eventually learn to work together, and begin falling in love.", "poster_path": "/lQAvyFcppZhqbz5coICwfbgcylY.jpg", "release_date": "1992-02-07", "title": "Medicine Man", "video": false, "vote_average": 6.0, "vote_count": 198, "popularity": 11.373}, {"adult": false, "backdrop_path": "/efECQRmOpX0ktZB1w1HyeYQQhwW.jpg", "genre_ids": [18, 53], "id": 11306, "original_language": "en", "original_title": "Extreme Measures", "overview": "Guy Luthan, a British doctor working at a hospital in New York, starts making unwelcome enquiries when the body of a man who died in his emergency room disappears. After the trail leads Luthan to the door of an eminent surgeon at the hospital, Luthan soon finds himself in extreme danger people who want the hospital's secret to remain undiscovered.", "poster_path": "/18WUNYhc58VQgBmJaFsaST9Uj69.jpg", "release_date": "1996-09-27", "title": "Extreme Measures", "video": false, "vote_average": 5.9, "vote_count": 157, "popularity": 9.058}, {"adult": false, "backdrop_path": "/ueMSXqgN3FOF8y8fym7ntJqtAP.jpg", "genre_ids": [28, 9648, 53], "id": 48138, "original_language": "en", "original_title": "Unknown", "overview": "An American biologist attending a conference in Berlin awakens from a coma after a car accident, only to discover that someone has taken his identity and that no one, not even his wife, believes him. With the help of an illegal immigrant and a former Stazi agent, he sets out to prove who he is and find out why people are trying to kill him.", "poster_path": "/4QAPgl63sRyCptq1Wd25lNsptbU.jpg", "release_date": "2011-02-16", "title": "Unknown", "video": false, "vote_average": 6.6, "vote_count": 2265, "popularity": 21.455}, {"id": 568091, "video": false, "vote_count": 751, "vote_average": 6.6, "title": "Fractured", "release_date": "2019-09-22", "original_language": "en", "original_title": "Fractured", "genre_ids": [53], "backdrop_path": "/3UnUxeEAGoZhjIW8X1HpEuDPngV.jpg", "adult": false, "overview": "Driving cross-country, Ray and his wife and daughter stop at a highway rest area where his daughter falls and breaks her arm. After a frantic rush to the hospital and a clash with the check-in nurse, Ray is finally able to get her to a doctor. While the wife and daughter go downstairs for an MRI, Ray, exhausted, passes out in a chair in the lobby. Upon waking up, they have no record or knowledge of Ray's family ever being checked in.", "poster_path": "/paZNRffT3kUckuRFKbeDBuX1YcZ.jpg", "popularity": 19.226}, {"id": 458594, "video": false, "vote_count": 983, "vote_average": 6.5, "title": "Peppermint", "release_date": "2018-09-06", "original_language": "en", "original_title": "Peppermint", "genre_ids": [28, 53], "backdrop_path": "/9krZX6T4EEs5eFpXgSi8jZkN48O.jpg", "adult": false, "overview": "A grieving mother transforms herself into a vigilante following the murders of her husband and daughter, eluding the authorities to deliver her own personal brand of justice.", "poster_path": "/jrzxS0vcbzIIay1sdYm0rgI2QfJ.jpg", "popularity": 25.2}, {"adult": false, "backdrop_path": "/bvbyidkMaBls1LTaIWYY6UmYTaL.jpg", "genre_ids": [28, 878], "id": 336843, "original_language": "en", "original_title": "Maze Runner: The Death Cure", "overview": "Thomas leads his group of escaped Gladers on their final and most dangerous mission yet. To save their friends, they must break into the legendary Last City, a WCKD-controlled labyrinth that may turn out to be the deadliest maze of all. Anyone who makes it out alive will get answers to the questions the Gladers have been asking since they first arrived in the maze.", "poster_path": "/2zYfzA3TBwrMC8tfFbpiTLODde0.jpg", "release_date": "2018-01-10", "title": "Maze Runner: The Death Cure", "video": false, "vote_average": 7.0, "vote_count": 4393, "popularity": 24.242}, {"id": 238615, "video": false, "vote_count": 1983, "vote_average": 6.3, "title": "Self/less", "release_date": "2015-07-10", "original_language": "en", "original_title": "Self/less", "genre_ids": [9648, 878, 53], "backdrop_path": "/xB92CSLn0w40ZoRGwfpkw9bbBMp.jpg", "adult": false, "overview": "An extremely wealthy elderly man dying from cancer undergoes a radical medical procedure that transfers his consciousness to the body of a healthy young man but everything may not be as good as it seems when he starts to uncover the mystery of the body's origins and the secret organization that will kill to keep its secrets.", "poster_path": "/b03zZZTE17iH6klsInFOlrgfYRN.jpg", "popularity": 32.489}, {"adult": false, "backdrop_path": "/eTxgy8eROB5Ly7ZXKLukQoF6tKl.jpg", "genre_ids": [27, 878], "id": 11549, "original_language": "en", "original_title": "Invasion of the Body Snatchers", "overview": "A small-town doctor learns that the population of his community is being replaced by emotionless alien duplicates.", "poster_path": "/4oj0G2Zr6tQKBDOzKaLuefdeBsG.jpg", "release_date": "1956-02-05", "title": "Invasion of the Body Snatchers", "video": false, "vote_average": 7.5, "vote_count": 472, "popularity": 26.588}, {"id": 10312, "video": false, "vote_count": 1874, "vote_average": 7.2, "title": "Patch Adams", "release_date": "1998-12-25", "original_language": "en", "original_title": "Patch Adams", "genre_ids": [35, 18], "backdrop_path": "/9CtyPVGETuWUlqnNswo7R98xGgU.jpg", "adult": false, "overview": "Patch Adams is a doctor who doesn't look, act or think like any doctor you've met before. For Patch, humour is the best medicine and he's willing to do just anything to make his patients laugh\u2014even if it means risking his own career.", "poster_path": "/2T0Mj8gkTXgciedz8W5nsnjCHig.jpg", "popularity": 12.924}, {"adult": false, "backdrop_path": "/xx9DyVNmehDJPrYGsy9AJgYzAtd.jpg", "genre_ids": [18], "id": 1367, "original_language": "en", "original_title": "Rocky II", "overview": "After Rocky goes the distance with champ Apollo Creed, both try to put the fight behind them and move on. Rocky settles down with Adrian but can't put his life together outside the ring, while Creed seeks a rematch to restore his reputation. Soon enough, the \"Master of Disaster\" and the \"Italian Stallion\" are set on a collision course for a climactic battle that is brutal and unforgettable.", "poster_path": "/fqJH7mI4dFANRay8qdJoGa7fK1k.jpg", "release_date": "1979-06-15", "title": "Rocky II", "video": false, "vote_average": 7.1, "vote_count": 2341, "popularity": 19.433}, {"id": 4922, "video": false, "vote_count": 7498, "vote_average": 7.5, "title": "The Curious Case of Benjamin Button", "release_date": "2008-12-25", "original_language": "en", "original_title": "The Curious Case of Benjamin Button", "genre_ids": [18, 14, 9648, 53, 10749], "backdrop_path": "/u4izHlsHk8jwalt5m7E2uzP8q9E.jpg", "adult": false, "overview": "Born under unusual circumstances, Benjamin Button springs into being as an elderly man in a New Orleans nursing home and ages in reverse. Twelve years after his birth, he meets Daisy, a child who flits in and out of his life as she grows up to be a dancer. Though he has all sorts of unusual adventures over the course of his life, it is his relationship with Daisy, and the hope that they will come together at the right time, that drives Benjamin forward.", "poster_path": "/gjMR102u5hPdIAWX7O2rim8ZWgA.jpg", "popularity": 28.44}, {"id": 312221, "video": false, "vote_count": 4400, "vote_average": 7.4, "title": "Creed", "release_date": "2015-11-25", "original_language": "en", "original_title": "Creed", "genre_ids": [18], "backdrop_path": "/fs2yhdSCzMVlNECrN84WuCkgXov.jpg", "adult": false, "overview": "The former World Heavyweight Champion Rocky Balboa serves as a trainer and mentor to Adonis Johnson, the son of his late friend and former rival Apollo Creed.", "poster_path": "/hKzhV274pkZBSpXfCjUyzbyYKLl.jpg", "popularity": 17.551}, {"id": 258230, "video": false, "vote_count": 2100, "vote_average": 7.2, "title": "A Monster Calls", "release_date": "2016-10-07", "original_language": "en", "original_title": "A Monster Calls", "genre_ids": [18, 14], "backdrop_path": "/xVW8REyVqKwxAtUYY07UGlZH43L.jpg", "adult": false, "overview": "A boy imagines a monster that helps him deal with his difficult life and see the world in a different way.", "poster_path": "/oqZ0MBWxNrArZpyVqk3QGAA37QL.jpg", "popularity": 18.929}, {"id": 9567, "video": false, "vote_count": 1085, "vote_average": 6.5, "title": "Tears of the Sun", "release_date": "2003-03-07", "original_language": "en", "original_title": "Tears of the Sun", "genre_ids": [28, 18, 10752], "backdrop_path": "/ldqbcQaNc8RyTekKaeMoV4HBDQB.jpg", "adult": false, "overview": "Navy SEAL Lieutenant A.K. Waters and his elite squadron of tactical specialists are forced to choose between their duty and their humanity, between following orders by ignoring the conflict that surrounds them, or finding the courage to follow their conscience and protect a group of innocent refugees. When the democratic government of Nigeria collapses and the country is taken over by a ruthless military dictator, Waters, a fiercely loyal and hardened veteran is dispatched on a routine mission to retrieve a Doctors Without Borders physician.", "poster_path": "/qEe7aE4PgZCwnVoxKe7YsTm3Smh.jpg", "popularity": 16.721}], "total_pages": 72, "total_results": 1437}, "recommendations": {"page": 1, "results": [], "total_pages": 1, "total_results": 0}, "credits": {"cast": [{"cast_id": 2, "character": "Dr. Michael Corday", "credit_id": "52fe49e49251416c750d6bf5", "gender": 2, "id": 3381, "name": "Glenn Ford", "order": 0, "profile_path": "/t6lpxAmhOrRJ22d2xnQ1uB0CJf6.jpg"}, {"cast_id": 3, "character": "Dr. John Corday", "credit_id": "52fe49e49251416c750d6bf9", "gender": 2, "id": 11169, "name": "Charles Coburn", "order": 1, "profile_path": "/vuQEpr6ae3vcvpDxw2V9iKB1wUT.jpg"}, {"cast_id": 4, "character": "Fabienne Corday", "credit_id": "52fe49e49251416c750d6bfd", "gender": 1, "id": 120306, "name": "Gloria DeHaven", "order": 2, "profile_path": "/a6zK5paGr1XaORfbySeCeCkp1vr.jpg"}, {"cast_id": 5, "character": "Evelyn 'Taffy' Heldon", "credit_id": "52fe49e49251416c750d6c01", "gender": 1, "id": 7302, "name": "Janet Leigh", "order": 3, "profile_path": "/3FWYSCJUOuYVDPG9UoMjtqNMdyb.jpg"}, {"cast_id": 6, "character": "Dr. Alfred Norton", "credit_id": "52fe49e49251416c750d6c05", "gender": 2, "id": 30303, "name": "Bruce Bennett", "order": 4, "profile_path": "/fcpZGjbahqk3tYJ6XJZ9jDZw3gy.jpg"}, {"cast_id": 9, "character": "Dr. George Esmond", "credit_id": "58c1f863925141051200095c", "gender": 2, "id": 89525, "name": "Warner Anderson", "order": 5, "profile_path": "/qGIbWqzL2cy9RXMIaWwrGi9re86.jpg"}, {"cast_id": 10, "character": "Dr. Francis I. Garard", "credit_id": "58c1f886c3a36842f40008a8", "gender": 2, "id": 100919, "name": "Basil Ruysdael", "order": 6, "profile_path": "/ptpgz4Rgql6FKVJNwjAcFo1kWbV.jpg"}], "crew": [{"credit_id": "52fe49e49251416c750d6bf1", "department": "Directing", "gender": 2, "id": 33062, "job": "Director", "name": "Curtis Bernhardt", "profile_path": "/6eVNSKjZvbcqMLYygHA6ejs8zYh.jpg"}, {"credit_id": "52fe49e49251416c750d6c0b", "department": "Writing", "gender": 0, "id": 1159653, "job": "Story", "name": "Maxence van der Meersch", "profile_path": null}, {"credit_id": "52fe49e49251416c750d6c11", "department": "Writing", "gender": 0, "id": 93322, "job": "Screenplay", "name": "Theodore Reeves", "profile_path": null}, {"credit_id": "5a79be95c3a368227b029051", "department": "Production", "gender": 2, "id": 30174, "job": "Producer", "name": "Pandro S. Berman", "profile_path": "/pOB0fbkzzKPUs5w9wd7aeFjjpuI.jpg"}, {"credit_id": "5a79be9c925141775702486f", "department": "Sound", "gender": 2, "id": 13337, "job": "Original Music Composer", "name": "Rudolph G. Kopp", "profile_path": null}, {"credit_id": "5a79bea2c3a3682261021ec3", "department": "Camera", "gender": 2, "id": 98442, "job": "Director of Photography", "name": "Robert H. Planck", "profile_path": null}, {"credit_id": "5a79bea89251417769024c13", "department": "Editing", "gender": 2, "id": 3643, "job": "Editor", "name": "Ferris Webster", "profile_path": null}, {"credit_id": "5a79beaf0e0a26598e02684d", "department": "Art", "gender": 0, "id": 40170, "job": "Art Direction", "name": "E. Preston Ames", "profile_path": null}, {"credit_id": "5a79beb50e0a265982027594", "department": "Art", "gender": 2, "id": 9062, "job": "Art Direction", "name": "Cedric Gibbons", "profile_path": "/w8tc9iVH87Iu1KKFDZ9B99NhnBc.jpg"}, {"credit_id": "5a79beba9251417763021951", "department": "Art", "gender": 2, "id": 8243, "job": "Set Decoration", "name": "Arthur Krams", "profile_path": "/9VwkbO1zLnZz2ROELO4gCrGr3dY.jpg"}, {"credit_id": "5a79bec00e0a2659820275a6", "department": "Art", "gender": 2, "id": 9063, "job": "Set Decoration", "name": "Edwin B. Willis", "profile_path": "/b4hSs5KLFXxSrvvA923VjdmywMl.jpg"}, {"credit_id": "5a79becac3a368227b02908b", "department": "Production", "gender": 2, "id": 1570984, "job": "Production Manager", "name": "Al Shenberg", "profile_path": null}, {"credit_id": "5a79bed2c3a3682251023897", "department": "Directing", "gender": 0, "id": 1633633, "job": "Assistant Director", "name": "Alfred Raboch", "profile_path": null}, {"credit_id": "5cf2865ac3a368697a20f446", "department": "Camera", "gender": 2, "id": 2326188, "job": "Still Photographer", "name": "Otto Dyar", "profile_path": null}]}}