{"adult": false, "backdrop_path": "/yfPv6EqY3AbGQ04LooIQ9sYzass.jpg", "belongs_to_collection": null, "budget": 0, "genres": [{"id": 14, "name": "Fantasy"}, {"id": 35, "name": "Comedy"}], "homepage": null, "id": 97590, "imdb_id": "tt0035247", "original_language": "en", "original_title": "The Remarkable Andrew", "overview": "When Andrew Long, hyper-efficient small town accountant, finds a $1240 discrepancy in the city budget, his superiors try to explain it away. When he insists on pursuing the matter, he's in danger of being blamed himself. In his trouble, the spirit of Andrew Jackson, whom he idolizes, visits him, and in turn, summons much high-powered talent from American history...which only Andrew can see.", "popularity": 1.827, "poster_path": "/4mphcdTKYe5DitayaW9sSQiHmNN.jpg", "production_companies": [{"id": 4, "logo_path": "/fycMZt242LVjagMByZOLUGbCvv3.png", "name": "Paramount", "origin_country": "US"}], "production_countries": [{"iso_3166_1": "US", "name": "United States of America"}], "release_date": "1942-03-05", "revenue": 0, "runtime": 81, "spoken_languages": [{"iso_639_1": "en", "name": "English"}], "status": "Released", "tagline": "", "title": "The Remarkable Andrew", "video": false, "vote_average": 8.3, "vote_count": 2, "keywords": {"keywords": [{"id": 8570, "name": "president"}, {"id": 162846, "name": "ghost"}, {"id": 193213, "name": "george washington"}, {"id": 194021, "name": "andrew jackson"}]}, "similar": {"page": 1, "results": [{"id": 620, "video": false, "vote_count": 5187, "vote_average": 7.4, "title": "Ghostbusters", "release_date": "1984-06-08", "original_language": "en", "original_title": "Ghostbusters", "genre_ids": [35, 14], "backdrop_path": "/qmDy6Rdom8d8UFj9GeAAtVIjTRT.jpg", "adult": false, "overview": "After losing their academic posts at a prestigious university, a team of parapsychologists goes into business as proton-pack-toting \"ghostbusters\" who exterminate ghouls, hobgoblins and supernatural pests of all stripes. An ad campaign pays off when a knockout cellist hires the squad to purge her swanky digs of demons that appear to be living in her refrigerator.", "poster_path": "/3FS3oBdorgczgfCkFi2u8ZTFfpS.jpg", "popularity": 24.995}, {"id": 4011, "video": false, "vote_count": 3507, "vote_average": 7.3, "title": "Beetlejuice", "release_date": "1988-02-29", "original_language": "en", "original_title": "Beetlejuice", "genre_ids": [35, 14], "backdrop_path": "/upAwc1kPQJU1ZWeMgEWV8Lp6CWb.jpg", "adult": false, "overview": "Thanks to an untimely demise via drowning, a young couple end up as poltergeists in their New England farmhouse, where they fail to meet the challenge of scaring away the insufferable new owners, who want to make drastic changes. In desperation, the undead newlyweds turn to an expert frightmeister, but he's got a diabolical agenda of his own.", "poster_path": "/gWnW7vxm8yr01TVLQhL4aI02orp.jpg", "popularity": 34.958}, {"id": 10014, "video": false, "vote_count": 874, "vote_average": 5.8, "title": "A Nightmare on Elm Street Part 2: Freddy's Revenge", "release_date": "1985-10-31", "original_language": "en", "original_title": "A Nightmare on Elm Street Part 2: Freddy's Revenge", "genre_ids": [27], "backdrop_path": "/tJTrNDt1242xe4zlatlZfDMvWjg.jpg", "adult": false, "overview": "A new family moves into the house on Elm Street, and before long, the kids are again having nightmares about deceased child murderer Freddy Krueger. This time, Freddy attempts to possess a teenage boy to cause havoc in the real world, and can only be overcome if the boy's sweetheart can master her fear.", "poster_path": "/seEMZxo6bhHWbWPNcBQfsMAk39F.jpg", "popularity": 16.661}, {"id": 416234, "video": false, "vote_count": 1007, "vote_average": 5.8, "title": "Winchester", "release_date": "2018-02-02", "original_language": "en", "original_title": "Winchester", "genre_ids": [14, 27, 9648, 53], "backdrop_path": "/d4wnMDSrQonB9iArMzd90WqaoJ4.jpg", "adult": false, "overview": "San Jose, California, 1906. Isolated in her labyrinthine mansion, eccentric firearm heiress Sarah Winchester believes that she is being haunted by the souls of those killed by the guns manufactured by her company.", "poster_path": "/tHDtskokZeO9B3JBdR1dSH0uqad.jpg", "popularity": 13.27}, {"adult": false, "backdrop_path": "/w4w8CTEe4isWO2TzDSQ3MV3br9l.jpg", "genre_ids": [14, 35, 10751], "id": 8839, "original_language": "en", "original_title": "Casper", "overview": "Furious that her late father only willed her his gloomy-looking mansion rather than his millions, Carrigan Crittenden is ready to burn the place to the ground when she discovers a map to a treasure hidden in the house. But when she enters the rickety mansion to seek her claim, she is frightened away by a wicked wave of ghosts. Determined to get her hands on this hidden fortune, she hires afterlife therapist Dr. James Harvey to exorcise the ghosts from the mansion. Harvey and his daughter Kat move in, and soon Kat meets Casper, the ghost of a young boy who's \"the friendliest ghost you know.\" But not so friendly are Casper's uncles--Stretch, Fatso and Stinkie--who are determined to drive all \"fleshies\" away.", "poster_path": "/1WeumvndgPE3hopKQqXbCKO26oH.jpg", "release_date": "1995-05-26", "title": "Casper", "video": false, "vote_average": 6.2, "vote_count": 2788, "popularity": 25.596}, {"id": 448095, "video": false, "vote_count": 308, "vote_average": 6.8, "title": "I Still See You", "release_date": "2018-09-27", "original_language": "en", "original_title": "I Still See You", "genre_ids": [14, 53], "backdrop_path": "/7rqpB7coXaNvTVMWb5vL8qU0pBp.jpg", "adult": false, "overview": "A spellbinding and romantic supernatural thriller. Ten years after an apocalyptic event left the world haunted by ghosts, Roni receives a threatening message from beyond the grave. Joining forces with a mysterious classmate, Kirk, Roni descends into a shadow world that blurs the bounds of the living and the dead-and begins a desperate race against time to stop a cunning killer.", "poster_path": "/9fqzZs922V8OmwgO11Eqclof2mQ.jpg", "popularity": 16.612}, {"adult": false, "backdrop_path": "/59baGxEztxeXW1oFjs8EBgXxTXk.jpg", "genre_ids": [27, 53], "id": 91586, "original_language": "en", "original_title": "Insidious: Chapter 2", "overview": "The haunted Lambert family seeks to uncover the mysterious childhood secret that has left them dangerously connected to the spirit world.", "poster_path": "/vmWgw1Lsc6bHThA6S2k8fPsROaI.jpg", "release_date": "2013-09-12", "title": "Insidious: Chapter 2", "video": false, "vote_average": 6.6, "vote_count": 2515, "popularity": 21.591}, {"adult": false, "backdrop_path": "/2F8cwDiU43qYYmRVCyv2Lx5E36C.jpg", "genre_ids": [14, 18], "id": 13188, "original_language": "en", "original_title": "Scrooge", "overview": "Ebenezer Scrooge (Alastair Sim) malcontentedly shuffles through life as a cruel miserly businessman until one fateful Christmas Eve when he is visited by three spirits, sent show him how his unhappy childhood and maladaptive adult behavior over has let him a selfish, lonely, bitter old man.  Released in the USA as \"A Christmas Carol\".", "poster_path": "/vIgQuTnJljMIwzdM94D3rnIgzlx.jpg", "release_date": "1951-11-28", "title": "Scrooge", "video": false, "vote_average": 7.5, "vote_count": 139, "popularity": 10.803}, {"adult": false, "backdrop_path": "/zZAJke7HMmQfc52L1AzvQkmMR3e.jpg", "genre_ids": [53, 27, 18], "id": 288158, "original_language": "en", "original_title": "The Woman in Black 2: Angel of Death", "overview": "40 years after the first haunting at Eel Marsh House, a group of children evacuated from WWII London arrive, awakening the house's darkest inhabitant.", "poster_path": "/kzWRtyMtazWA22LJXA64KKZ3slY.jpg", "release_date": "2014-12-30", "title": "The Woman in Black 2: Angel of Death", "video": false, "vote_average": 5.1, "vote_count": 681, "popularity": 9.114}, {"adult": false, "backdrop_path": "/w8jINuXklxghTAHNxt0NQYaAN1C.jpg", "genre_ids": [27], "id": 242512, "original_language": "en", "original_title": "Ouija", "overview": "A group of friends must confront their most terrifying fears when they awaken the dark powers of an ancient spirit board.", "poster_path": "/vHTXN00kJktCbSLV50Vbk9siNiX.jpg", "release_date": "2014-10-24", "title": "Ouija", "video": false, "vote_average": 5.1, "vote_count": 1835, "popularity": 21.913}, {"id": 493922, "video": false, "vote_count": 3302, "vote_average": 7.1, "title": "Hereditary", "release_date": "2018-06-07", "original_language": "en", "original_title": "Hereditary", "genre_ids": [27, 9648, 53], "backdrop_path": "/4DUoPZOHdPuROP4nyEIsPaMIiQl.jpg", "adult": false, "overview": "When Ellen, the matriarch of the Graham family, passes away, her daughter\u2019s family begins to unravel cryptic and increasingly terrifying secrets about their ancestry.", "poster_path": "/lHV8HHlhwNup2VbpiACtlKzaGIQ.jpg", "popularity": 26.426}, {"adult": false, "backdrop_path": "/kQOLgJGvFjQ7EwGfaPkW9dlGFXJ.jpg", "genre_ids": [27, 9648], "id": 565, "original_language": "en", "original_title": "The Ring", "overview": "It sounded like just another urban legend: A videotape filled with nightmarish images, leading to a phone call foretelling the viewer's death in exactly seven days. As a newspaper reporter, Rachel Keller was naturally skeptical of the story, until four teenagers all met with mysterious deaths exactly one week after watching just such a tape. Allowing her investigative curiosity to get the better of her, Rachel tracks down the video... and watches it. Now she has just seven days to unravel the mystery of the Ring.", "poster_path": "/zHJFdhqEXZJxG653oZvOM3PmNON.jpg", "release_date": "2002-10-18", "title": "The Ring", "video": false, "vote_average": 6.6, "vote_count": 3616, "popularity": 12.821}, {"adult": false, "backdrop_path": "/3uwyXMZN93PRkShUxvLrufwVAc2.jpg", "genre_ids": [80, 18, 27, 9648, 53], "id": 452507, "original_language": "en", "original_title": "1922", "overview": "A simple yet proud rancher conspires to murder his wife for financial gain, convincing his teenage son to participate.", "poster_path": "/q4FQOiSRhTLWulHl5Vpg37FMArH.jpg", "release_date": "2017-10-20", "title": "1922", "video": false, "vote_average": 5.9, "vote_count": 1491, "popularity": 14.757}, {"id": 625719, "video": false, "vote_count": 1, "vote_average": 3.0, "title": "Martin's Close", "release_date": "2019-12-24", "original_language": "en", "original_title": "Martin's Close", "genre_ids": [27, 10770], "backdrop_path": "/gcccicGB2eKpE8K50wGXa9GJY3M.jpg", "adult": false, "overview": "Part of the long running tradition of 'A Ghost Story For Christmas' on BBC Four in the UK, and the third instalment presented by Mark Gatiss. A young squire accused of murdering a young girl that did not return his feelings of love reveals a supernatural secret at his trial.", "poster_path": "/ArhYVKnfILuWERuUyuvWJd1jqRm.jpg", "popularity": 6.706}, {"id": 381032, "video": false, "vote_count": 21, "vote_average": 5.9, "title": "Another Evil", "release_date": "2017-05-05", "original_language": "en", "original_title": "Another Evil", "genre_ids": [35, 27], "backdrop_path": "/9xe0c5cgkjyZC06vujkfcO1pwLU.jpg", "adult": false, "overview": "After encountering a ghost in his family's vacation home, Dan and his wife Mary hire an \"industrial-grade exorcist\" named Os to get rid of the beings.", "poster_path": "/A0WcyVPOgDLs479hOaqaYaT5urP.jpg", "popularity": 5.252}, {"adult": false, "backdrop_path": "/yjorFsCy0DsSiK0HwABu0SHQv1P.jpg", "genre_ids": [27], "id": 157547, "original_language": "en", "original_title": "Oculus", "overview": "A woman tries to exonerate her brother's murder conviction by proving that the crime was committed by a supernatural phenomenon.", "poster_path": "/ic8C94ylSfcoLkXqPOKzL6DqPcH.jpg", "release_date": "2014-04-03", "title": "Oculus", "video": false, "vote_average": 6.4, "vote_count": 1917, "popularity": 11.973}, {"id": 201085, "video": false, "vote_count": 3219, "vote_average": 6.5, "title": "Crimson Peak", "release_date": "2015-10-13", "original_language": "en", "original_title": "Crimson Peak", "genre_ids": [18, 14, 27, 9648, 53, 10749], "backdrop_path": "/zTs5Mc1zfEj61cvolvpPn8zSyim.jpg", "adult": false, "overview": "In the aftermath of a family tragedy, an aspiring author is torn between love for her childhood friend and the temptation of a mysterious outsider. Trying to escape the ghosts of her past, she is swept away to a house that breathes, bleeds\u2026 and remembers.", "poster_path": "/aukTmf7j4JBFdvqKe4z9kbhEcmw.jpg", "popularity": 13.735}, {"id": 587138, "video": false, "vote_count": 0, "vote_average": 0.0, "title": "Driven", "release_date": "2019-02-09", "original_language": "en", "original_title": "Driven", "genre_ids": [35, 27, 53], "backdrop_path": null, "adult": false, "overview": "Emerson Graham's nights as a cab driver are filled with annoyances and inconveniences, but until tonight, never attacks and disappearances. After picking up a mysterious passenger her evening goes from working a job to performing a quest as they must race against the clock to defeat a force of evil. The meter is running.", "poster_path": "/ca0URmLciw4rZgjWU6y2nOapyGU.jpg", "popularity": 2.366}, {"id": 49017, "video": false, "vote_count": 4003, "vote_average": 6.3, "title": "Dracula Untold", "release_date": "2014-10-01", "original_language": "en", "original_title": "Dracula Untold", "genre_ids": [28, 18, 14, 27, 10752], "backdrop_path": "/gy5ItoprIPOT7Z1c2YhNhart39l.jpg", "adult": false, "overview": "Vlad Tepes is a great hero, but when he learns the Sultan is preparing for battle and needs to form an army of 1,000 boys, he vows to find a way to protect his family. Vlad turns to dark forces in order to get the power to destroy his enemies and agrees to go from hero to monster as he's turned into the mythological vampire, Dracula.", "poster_path": "/4oy4e0DP6LRwRszfx8NY8EYBj8V.jpg", "popularity": 32.104}, {"id": 282035, "video": false, "vote_count": 4849, "vote_average": 5.5, "title": "The Mummy", "release_date": "2017-06-06", "original_language": "en", "original_title": "The Mummy", "genre_ids": [28, 12, 14, 27, 53], "backdrop_path": "/5TC6gKrmtnoGE3c3lHeNPevkn4Z.jpg", "adult": false, "overview": "Though safely entombed in a crypt deep beneath the unforgiving desert, an ancient queen whose destiny was unjustly taken from her is awakened in our current day, bringing with her malevolence grown over millennia, and terrors that defy human comprehension.", "poster_path": "/zxkY8byBnCsXodEYpK8tmwEGXBI.jpg", "popularity": 22.059}], "total_pages": 91, "total_results": 1810}, "recommendations": {"page": 1, "results": [], "total_pages": 1, "total_results": 0}, "credits": {"cast": [{"cast_id": 11, "character": "General Andrew Jackson", "credit_id": "52fe49e69251416c750d6fd7", "gender": 2, "id": 41755, "name": "Brian Donlevy", "order": 0, "profile_path": "/dJP0woESrhHQrPbTieZdE54OM2f.jpg"}, {"cast_id": 12, "character": "Andrew Long", "credit_id": "52fe49e69251416c750d6fdb", "gender": 2, "id": 8252, "name": "William Holden", "order": 1, "profile_path": "/6sa5f8p1KBhYxJDEmCLxn7QLcBe.jpg"}, {"cast_id": 13, "character": "Peggy Tobin", "credit_id": "52fe49e69251416c750d6fdf", "gender": 1, "id": 84485, "name": "Ellen Drew", "order": 2, "profile_path": "/2CfeXiphV0ObXowvJQeuLQKjd5V.jpg"}, {"cast_id": 14, "character": "General George Washington", "credit_id": "52fe49e69251416c750d6fe3", "gender": 2, "id": 92907, "name": "Montagu Love", "order": 3, "profile_path": "/xCbs0dRi64AuOggWaTZyE5KQ3T8.jpg"}, {"cast_id": 15, "character": "Mr. Thomas Jefferson", "credit_id": "52fe49e69251416c750d6fe7", "gender": 2, "id": 95757, "name": "Gilbert Emery", "order": 4, "profile_path": "/gKJeGDvOVIHqmtjdED9X6hfYsK.jpg"}, {"cast_id": 16, "character": "Mr. Chief Justice John Marshall", "credit_id": "52fe49e69251416c750d6feb", "gender": 2, "id": 29580, "name": "Brandon Hurst", "order": 5, "profile_path": "/jU1SqbZ6de4cMQJo3rpsdkNJqD9.jpg"}, {"cast_id": 17, "character": "Dr. Benjamin Franklin", "credit_id": "52fe49e69251416c750d6fef", "gender": 0, "id": 128641, "name": "George Watts", "order": 6, "profile_path": null}, {"cast_id": 18, "character": "Jesse James", "credit_id": "52fe49e69251416c750d6ff3", "gender": 2, "id": 58217, "name": "Rod Cameron", "order": 7, "profile_path": "/aGflgVgFrZMGjbuM04bTFpCfmej.jpg"}, {"cast_id": 19, "character": "Private Henry Bartholowmew Smith", "credit_id": "52fe49e69251416c750d6ff7", "gender": 2, "id": 89672, "name": "Jimmy Conlin", "order": 8, "profile_path": "/dCYGtlO3jXm1jd1oPZiVxEZTEYQ.jpg"}, {"cast_id": 20, "character": "Randall Stevens", "credit_id": "52fe49e69251416c750d6ffb", "gender": 2, "id": 10161, "name": "Richard Webb", "order": 9, "profile_path": "/n5uFxSSi6mEzAarMNk6uDrdxKo3.jpg"}, {"cast_id": 21, "character": "Dr. Clarence Upjohn", "credit_id": "5abe93080e0a264a5a016fde", "gender": 2, "id": 34280, "name": "Spencer Charters", "order": 10, "profile_path": "/67wOC0rjJG6tpXVQLZsOj6s7clP.jpg"}, {"cast_id": 22, "character": "District Attorney Orville Beamish", "credit_id": "5abe93150e0a264a5101834e", "gender": 2, "id": 30279, "name": "Minor Watson", "order": 11, "profile_path": "/1t0VRIa8oykSFS3WXcMfCCOCakH.jpg"}, {"cast_id": 23, "character": "Mayor Ollie Lancaster", "credit_id": "5abe93280e0a264a5d018b14", "gender": 2, "id": 128437, "name": "Clyde Fillmore", "order": 12, "profile_path": "/era0XTbEEHWIfPkcYpqkn7Sku2R.jpg"}, {"cast_id": 24, "character": "Judge Ormond Krebbs", "credit_id": "5abe933bc3a368443c017fac", "gender": 2, "id": 34235, "name": "Thomas W. Ross", "order": 13, "profile_path": null}, {"cast_id": 25, "character": "Chief Clerk Art Slocumb", "credit_id": "5abe934b0e0a264a5d018b4f", "gender": 2, "id": 14975, "name": "Porter Hall", "order": 14, "profile_path": "/73hzC2AnpyFHOceuq4ZdUbsNQds.jpg"}, {"cast_id": 26, "character": "City Treasurer R.R. McCall", "credit_id": "5abe936e0e0a264a570160d2", "gender": 2, "id": 589217, "name": "Wallis Clark", "order": 15, "profile_path": "/spMgNeu8LM30dVBO2iYZUJsKyuS.jpg"}, {"cast_id": 27, "character": "Purchase Agent Sam Savage", "credit_id": "5abe937bc3a368443f015b2a", "gender": 2, "id": 103503, "name": "Milton Parsons", "order": 16, "profile_path": "/1CQzgiwMZe51CkoYXk0dkhruBDa.jpg"}, {"cast_id": 28, "character": "Mrs. Grondos", "credit_id": "5abe9389c3a36844440177cd", "gender": 1, "id": 134807, "name": "Helena Phillips Evans", "order": 17, "profile_path": null}, {"cast_id": 29, "character": "Jake Pearl", "credit_id": "5abe93949251416027015c49", "gender": 0, "id": 83623, "name": "Tom Fadden", "order": 18, "profile_path": "/5fZfgiaVkVfYrt4dG44CngwFGM.jpg"}, {"cast_id": 30, "character": "Sheriff Clem Watkins", "credit_id": "5abe939f9251416024016d02", "gender": 2, "id": 34238, "name": "Harlan Briggs", "order": 19, "profile_path": "/7yKYlqb1Rd2ekAJBjxmPgP0Uws1.jpg"}, {"cast_id": 31, "character": "Miss Van Buren", "credit_id": "5abe93ac9251416015015b69", "gender": 1, "id": 85847, "name": "Nydia Westman", "order": 20, "profile_path": "/AiVf47fwuhZ2xIH5agynjUKuQff.jpg"}, {"cast_id": 32, "character": "Miss Halsey", "credit_id": "5abe93bf0e0a264a4e017913", "gender": 1, "id": 81282, "name": "Frances Gifford", "order": 21, "profile_path": "/d9rY2fRrpx1m1mOJmeFvjlvzIrO.jpg"}, {"cast_id": 33, "character": "District Attorney's Secretary", "credit_id": "5abe93d40e0a264a5a0170f3", "gender": 1, "id": 30260, "name": "Martha O'Driscoll", "order": 22, "profile_path": "/a4YlsYLZETcWhXSTYDyr2Jpz5uC.jpg"}, {"cast_id": 34, "character": "Bailiff", "credit_id": "5abe9403c3a3684455017cca", "gender": 0, "id": 2011688, "name": "Sam Bagley", "order": 23, "profile_path": null}, {"cast_id": 35, "character": "Hugo French", "credit_id": "5abe940e925141601e015b4a", "gender": 2, "id": 85990, "name": "Walter Baldwin", "order": 24, "profile_path": "/kmebKk7qK1YsT9Sv5fcdm26qb21.jpg"}, {"cast_id": 36, "character": "Policeman", "credit_id": "5abe94199251416027015cbf", "gender": 2, "id": 90074, "name": "Monte Blue", "order": 25, "profile_path": "/u5eHdofzXRQu08r0YFS5LwXoc3E.jpg"}, {"cast_id": 37, "character": "Teller / Witness", "credit_id": "5abe942a0e0a264a51018489", "gender": 2, "id": 85897, "name": "Hobart Cavanaugh", "order": 26, "profile_path": "/ghffG1MGoG7DujiBhcKGfNMnzjr.jpg"}, {"cast_id": 38, "character": "Sam Marbery", "credit_id": "5abe9439c3a3684455017cfe", "gender": 2, "id": 30280, "name": "Chester Clute", "order": 27, "profile_path": "/9ZlAACiCnepfZS0dTAqqkdqWGse.jpg"}, {"cast_id": 39, "character": "Shopkeeper", "credit_id": "5abe94490e0a264a60018a44", "gender": 2, "id": 30195, "name": "Chester Conklin", "order": 28, "profile_path": "/s9P3OhaUEMcs84P0oSfUewTMRjC.jpg"}, {"cast_id": 40, "character": "Bit Role", "credit_id": "5abe9455925141601b0170a6", "gender": 0, "id": 1459334, "name": "Jane Cowan", "order": 29, "profile_path": null}, {"cast_id": 41, "character": "Bit Role", "credit_id": "5abe94620e0a264a510184d8", "gender": 0, "id": 1199590, "name": "Lew Davis", "order": 30, "profile_path": null}, {"cast_id": 42, "character": "Bit Role", "credit_id": "5abe946c0e0a264a570161ff", "gender": 0, "id": 1709675, "name": "Ruth Day", "order": 31, "profile_path": null}, {"cast_id": 43, "character": "Boy", "credit_id": "5abe947d0e0a264a54018a2f", "gender": 0, "id": 1672957, "name": "Douglas Deems", "order": 32, "profile_path": null}, {"cast_id": 44, "character": "Jurist", "credit_id": "5abe948b9251416018016550", "gender": 2, "id": 9097, "name": "Gibson Gowland", "order": 33, "profile_path": "/1qGL5mXReOE09EyVNWWPnKajjm0.jpg"}, {"cast_id": 45, "character": "Mr. Bricker, Banker", "credit_id": "5abe949dc3a36844480190a3", "gender": 2, "id": 127521, "name": "William Halligan", "order": 34, "profile_path": "/dC91G2qwran3ntMjC6cNubi2tgu.jpg"}, {"cast_id": 46, "character": "Shopkeeper", "credit_id": "5abe94bcc3a368443c0181da", "gender": 0, "id": 1423323, "name": "Walter Lawrence", "order": 35, "profile_path": null}, {"cast_id": 47, "character": "Jurist", "credit_id": "5abe94f3925141601e015cd5", "gender": 2, "id": 33383, "name": "Theodore Lorch", "order": 36, "profile_path": "/zgNKmyWVIQLEBusCp3S2cvBqNdD.jpg"}, {"cast_id": 48, "character": "Bit Role", "credit_id": "5abe9507c3a368443c01825f", "gender": 1, "id": 1064924, "name": "Margaret Mann", "order": 37, "profile_path": "/vfTGdVh2LiTx47iq6M9MbzsArFK.jpg"}, {"cast_id": 49, "character": "Mrs. Ballard", "credit_id": "5abe9526c3a368443f015d67", "gender": 1, "id": 29264, "name": "Margaret McWade", "order": 38, "profile_path": "/c8FNp4qWHuB2IYCKBxWbeTAIndi.jpg"}, {"cast_id": 50, "character": "Onlooker", "credit_id": "5abe95350e0a264a5a0172d9", "gender": 2, "id": 100945, "name": "James Millican", "order": 39, "profile_path": "/jRGu5a4dNfVYBty6UrlBgI81KFV.jpg"}, {"cast_id": 51, "character": "Sanford", "credit_id": "5abe95430e0a264a4e017afc", "gender": 2, "id": 1005425, "name": "Howard M. Mitchell", "order": 40, "profile_path": "/sEDA3uTnHHeWq1jxh2JEJRBQJfS.jpg"}, {"cast_id": 52, "character": "Congratulatory Girl in Courtroom", "credit_id": "5abe955e0e0a264a54018b6b", "gender": 1, "id": 243805, "name": "Noel Neill", "order": 41, "profile_path": "/x7utCeuCrKLjU6OndLln3225r4e.jpg"}, {"cast_id": 53, "character": "Policeman", "credit_id": "5abe956d925141601801665d", "gender": 2, "id": 124875, "name": "Emory Parnell", "order": 42, "profile_path": "/sS6qfDabEwf1bLNpLi8EcRlVrmb.jpg"}, {"cast_id": 54, "character": "Bit Role", "credit_id": "5abe957ac3a3684438017d41", "gender": 0, "id": 1468089, "name": "Ed Randolph", "order": 43, "profile_path": null}, {"cast_id": 55, "character": "Mrs. Kelly", "credit_id": "5abe9586925141601801669b", "gender": 1, "id": 105508, "name": "Margaret Seddon", "order": 44, "profile_path": "/4hed27EOiirjFgQfQlStq4G8Hyb.jpg"}, {"cast_id": 56, "character": "Townsman", "credit_id": "5abe959c0e0a264a5a017354", "gender": 0, "id": 121251, "name": "Jack O'Shea", "order": 45, "profile_path": "/wXio7CLSvRnACtEjPM8QdBpvxLi.jpg"}, {"cast_id": 57, "character": "Joe, Policeman", "credit_id": "5abe95a9c3a368443c018366", "gender": 2, "id": 120473, "name": "Brick Sullivan", "order": 46, "profile_path": null}, {"cast_id": 58, "character": "Bailiff", "credit_id": "5abe95b6c3a3684435013c85", "gender": 2, "id": 144127, "name": "Ben Taggart", "order": 47, "profile_path": "/pB7YVJSaqAzGzY7siMtrC7PfbkP.jpg"}, {"cast_id": 59, "character": "Dog Man", "credit_id": "5abe95c50e0a264a570163b7", "gender": 0, "id": 2011697, "name": "Rudd Weatherwax", "order": 48, "profile_path": null}], "crew": [{"credit_id": "52fe49e59251416c750d6fbb", "department": "Editing", "gender": 2, "id": 3486, "job": "Editor", "name": "Archie Marshek", "profile_path": null}, {"credit_id": "52fe49e69251416c750d6fcd", "department": "Costume & Make-Up", "gender": 1, "id": 4350, "job": "Costume Design", "name": "Edith Head", "profile_path": "/63ZeXQOh26sGa8nTbYWntieyWrz.jpg"}, {"credit_id": "52fe49e69251416c750d6fd3", "department": "Costume & Make-Up", "gender": 2, "id": 7689, "job": "Makeup Department Head", "name": "Wally Westmore", "profile_path": null}, {"credit_id": "52fe49e59251416c750d6fc1", "department": "Art", "gender": 2, "id": 8622, "job": "Art Direction", "name": "Hans Dreier", "profile_path": "/pyVz3McZwtOFOVjx3jSqawd45Zj.jpg"}, {"credit_id": "52fe49e59251416c750d6fa3", "department": "Writing", "gender": 2, "id": 11993, "job": "Screenplay", "name": "Dalton Trumbo", "profile_path": "/2Ii27zuIjlzkqgs6dFS4SgsuNKH.jpg"}, {"credit_id": "52fe49e59251416c750d6faf", "department": "Sound", "gender": 2, "id": 26026, "job": "Original Music Composer", "name": "Victor Young", "profile_path": null}, {"credit_id": "52fe49e59251416c750d6fb5", "department": "Camera", "gender": 2, "id": 48054, "job": "Director of Photography", "name": "Theodor Sparkuhl", "profile_path": "/wTOgh3VQUigtCWw7eiW46Tgn27u.jpg"}, {"credit_id": "52fe49e59251416c750d6f9d", "department": "Directing", "gender": 2, "id": 81285, "job": "Director", "name": "Stuart Heisler", "profile_path": "/kdNAwG8DWEW09m0Q4WtJnW2p4U6.jpg"}, {"credit_id": "52fe49e59251416c750d6fc7", "department": "Art", "gender": 2, "id": 120450, "job": "Art Direction", "name": "A. Earl Hedrick", "profile_path": null}, {"credit_id": "52fe49e59251416c750d6fa9", "department": "Production", "gender": 0, "id": 1002808, "job": "Producer", "name": "Richard Blumenthal", "profile_path": null}, {"credit_id": "5c4c79720e0a2612ccc8428f", "department": "Crew", "gender": 2, "id": 2218057, "job": "Generator Operator", "name": "Paul Whitson", "profile_path": null}, {"credit_id": "5cd02e7e0e0a2631b8026a7d", "department": "Costume & Make-Up", "gender": 2, "id": 2305305, "job": "Makeup Artist", "name": "Robert Littlefield", "profile_path": null}, {"credit_id": "5d386bcfab6849105b877bd6", "department": "Costume & Make-Up", "gender": 0, "id": 2363860, "job": "Wardrobe Designer", "name": "Pat Williams", "profile_path": null}]}}