{"adult": false, "backdrop_path": "/fdzTtZlGHMt08DGZS2GiuVCv0KB.jpg", "belongs_to_collection": null, "budget": 0, "genres": [{"id": 35, "name": "Comedy"}, {"id": 18, "name": "Drama"}, {"id": 10749, "name": "Romance"}], "homepage": null, "id": 97598, "imdb_id": "tt0033780", "original_language": "en", "original_title": "Kathleen", "overview": "Kathleen is a twelve-year-old who lives in a big house with a nanny, a butler, maids, no mother and a father who is working most of the time. She dreams of a family with a mother, father and her, and tells everyone that she has such a family. Because of this story, she cannot invite any friends over as they will see that it is not true.", "popularity": 2.35, "poster_path": "/aJ0i8K545nnBk1qZyxzWUCIJNhX.jpg", "production_companies": [{"id": 21, "logo_path": "/mjofSXiHpG5t6KYmU4l4FrUhT7m.png", "name": "Metro-Goldwyn-Mayer", "origin_country": "US"}], "production_countries": [{"iso_3166_1": "US", "name": "United States of America"}], "release_date": "1941-12-18", "revenue": 0, "runtime": 88, "spoken_languages": [{"iso_639_1": "en", "name": "English"}], "status": "Released", "tagline": "She's twelve and TERRIFIC now", "title": "Kathleen", "video": false, "vote_average": 6.0, "vote_count": 1, "keywords": {"keywords": [{"id": 1566, "name": "dream"}, {"id": 11268, "name": "psychologist"}]}, "similar": {"page": 1, "results": [{"id": 1903, "video": false, "vote_count": 2234, "vote_average": 6.8, "title": "Vanilla Sky", "release_date": "2001-12-10", "original_language": "en", "original_title": "Vanilla Sky", "genre_ids": [18, 14, 878, 53, 10749], "backdrop_path": "/6XwX3HzKhlBUbTy2qZx0THQOu2T.jpg", "adult": false, "overview": "David Aames has it all: wealth, good looks and gorgeous women on his arm. But just as he begins falling for the warmhearted Sofia, his face is horribly disfigured in a car accident. That's just the beginning of his troubles as the lines between illusion and reality, between life and death, are blurred.", "poster_path": "/ujMy9P4VczTW9YSpAM31uqdOMpz.jpg", "popularity": 14.632}, {"adult": false, "backdrop_path": "/atDDJBJ9eUeXbySh6wFbUBIQlQ1.jpg", "genre_ids": [27, 53, 35], "id": 11284, "original_language": "en", "original_title": "Freddy's Dead: The Final Nightmare", "overview": "Just when you thought it was safe to sleep, Freddy Krueger returns in this sixth installment of the Nightmare on Elm Street films, as psychologist Maggie Burroughs, tormented by recurring nightmares, meets a patient with the same horrific dreams. Their quest for answers leads to a certain house on Elm Street -- where the nightmares become reality.", "poster_path": "/m4IFNmheHcjbLsVWbUq9TIpWL5S.jpg", "release_date": "1991-09-05", "title": "Freddy's Dead: The Final Nightmare", "video": false, "vote_average": 5.2, "vote_count": 627, "popularity": 17.882}, {"adult": false, "backdrop_path": "/5UhVmv70qTfy7YSf8r87kNXWxjK.jpg", "genre_ids": [18, 53, 9648], "id": 638, "original_language": "en", "original_title": "Lost Highway", "overview": "A tormented jazz musician finds himself lost in an enigmatic story involving murder, surveillance, gangsters, doppelgangers, and an impossible transformation inside a prison cell.", "poster_path": "/z6yhgEzGUJaBBgAxoyggRzwLnVM.jpg", "release_date": "1997-01-15", "title": "Lost Highway", "video": false, "vote_average": 7.6, "vote_count": 1277, "popularity": 16.545}, {"id": 377, "video": false, "vote_count": 2762, "vote_average": 7.3, "title": "A Nightmare on Elm Street", "release_date": "1984-11-14", "original_language": "en", "original_title": "A Nightmare on Elm Street", "genre_ids": [27], "backdrop_path": "/67qMLI58HmQ5ArBsTVBxG4KHuRJ.jpg", "adult": false, "overview": "Teenagers in a small town are dropping like flies, apparently in the grip of mass hysteria causing their suicides. A cop's daughter, Nancy Thompson, traces the cause to child molester Fred Krueger, who was burned alive by angry parents many years before. Krueger has now come back in the dreams of his killers' children, claiming their lives as his revenge. Nancy and her boyfriend, Glen, must devise a plan to lure the monster out of the realm of nightmares and into the real world...", "poster_path": "/sXFlyjfWv544uKOJmPd2vVsaFm9.jpg", "popularity": 15.339}, {"id": 10014, "video": false, "vote_count": 873, "vote_average": 5.8, "title": "A Nightmare on Elm Street Part 2: Freddy's Revenge", "release_date": "1985-10-31", "original_language": "en", "original_title": "A Nightmare on Elm Street Part 2: Freddy's Revenge", "genre_ids": [27], "backdrop_path": "/tJTrNDt1242xe4zlatlZfDMvWjg.jpg", "adult": false, "overview": "A new family moves into the house on Elm Street, and before long, the kids are again having nightmares about deceased child murderer Freddy Krueger. This time, Freddy attempts to possess a teenage boy to cause havoc in the real world, and can only be overcome if the boy's sweetheart can master her fear.", "poster_path": "/seEMZxo6bhHWbWPNcBQfsMAk39F.jpg", "popularity": 19.738}, {"adult": false, "backdrop_path": "/hm4vpIhBW75bTIDTurq2d4rLZy1.jpg", "genre_ids": [53, 18, 27], "id": 3511, "original_language": "en", "original_title": "The Broken", "overview": "The life of a successful radiologist spirals out of control when she sees the spitting image of herself driving down a London street. While attempting to uncover who the imposter could be, she stumbles into a terrifying mystery that her family and closest friends are somehow involved in, leaving her with no one to trust.", "poster_path": "/nGTUsccLUZhF9Bb5fjvL7KrogvC.jpg", "release_date": "2008-01-18", "title": "The Broken", "video": false, "vote_average": 5.5, "vote_count": 113, "popularity": 9.129}, {"id": 258230, "video": false, "vote_count": 2100, "vote_average": 7.2, "title": "A Monster Calls", "release_date": "2016-10-07", "original_language": "en", "original_title": "A Monster Calls", "genre_ids": [18, 14], "backdrop_path": "/xVW8REyVqKwxAtUYY07UGlZH43L.jpg", "adult": false, "overview": "A boy imagines a monster that helps him deal with his difficult life and see the world in a different way.", "poster_path": "/oqZ0MBWxNrArZpyVqk3QGAA37QL.jpg", "popularity": 18.929}, {"id": 4593, "video": false, "vote_count": 339, "vote_average": 7.7, "title": "The Discreet Charm of the Bourgeoisie", "release_date": "1972-09-15", "original_language": "fr", "original_title": "Le Charme discret de la bourgeoisie", "genre_ids": [35], "backdrop_path": "/ta7tLjGfVID9dExxanNkbTKyHr8.jpg", "adult": false, "overview": "In Luis Bu\u00f1uel\u2019s deliciously satiric masterpiece, an upper-class sextet sits down to dinner but never eats, their attempts continually thwarted by a vaudevillian mixture of events both actual and imagined.", "poster_path": "/zN4ILX2x64PvT2jIOAHXxCOi5WA.jpg", "popularity": 11.092}, {"id": 329981, "video": false, "vote_count": 413, "vote_average": 5.2, "title": "Shut In", "release_date": "2016-11-11", "original_language": "en", "original_title": "Shut In", "genre_ids": [18, 53], "backdrop_path": "/ejSSc2ReyK4rctVUES4PISnIG2n.jpg", "adult": false, "overview": "A widowed child psychologist lives in an isolated existence in rural New England. When caught in a deadly winter storm, she must find a way to rescue a young boy before he disappears forever.", "poster_path": "/ngSiyIDAFX4YF1h2OyOacKcDvw0.jpg", "popularity": 11.182}, {"id": 10072, "video": false, "vote_count": 857, "vote_average": 6.6, "title": "A Nightmare on Elm Street 3: Dream Warriors", "release_date": "1987-02-27", "original_language": "en", "original_title": "A Nightmare on Elm Street 3: Dream Warriors", "genre_ids": [27, 53], "backdrop_path": "/lNrbMhjhAQK9Hf4Nww7GoBezCMA.jpg", "adult": false, "overview": "It's been many years since Freddy Krueger's first victim, Nancy, came face-to-face with Freddy and his sadistic, evil ways. Now, Nancy's all grown up; she's put her frightening nightmares behind her and is helping teens cope with their dreams. Too bad Freddy's decided to herald his return by invading the kids' dreams and scaring them into committing suicide.", "poster_path": "/4aMSIhvShIkDrhOsa0WL6KFwnpD.jpg", "popularity": 23.121}, {"id": 11596, "video": false, "vote_count": 683, "vote_average": 6.4, "title": "New Nightmare", "release_date": "1994-10-13", "original_language": "en", "original_title": "New Nightmare", "genre_ids": [14, 27, 9648, 53], "backdrop_path": "/bFdZFVHMn6stFWr4c08OTJDZHcG.jpg", "adult": false, "overview": "In this meta horror film, a demonic entity uses the fictional character of Freddy Krueger to enter the real world and torment \"Elm Street\" heroine Heather Langenkamp and her family.", "poster_path": "/oLEZibnraixTE68rTaYv4FEmvYd.jpg", "popularity": 17.139}, {"id": 626, "video": false, "vote_count": 636, "vote_average": 7.5, "title": "Un Chien Andalou", "release_date": "1929-06-05", "original_language": "fr", "original_title": "Un chien andalou", "genre_ids": [18, 14, 27], "backdrop_path": "/5XUmngHuhc41kMwv7ZeRWaplcBl.jpg", "adult": false, "overview": "Un Chien Andalou is a classic European avant-garde surrealist film from the cooperation of director Luis Bu\u00f1uel and Salvador Dali. The film changed the way people made movies. Most famous is the scene of a woman\u2019s eye being cut with a knife.", "poster_path": "/r4OfwC3AcDJqqBg3ayD0w5KWKdV.jpg", "popularity": 11.634}, {"adult": false, "backdrop_path": "/ukaTVB2RFnZ6OeqoCSfltX1qOBN.jpg", "genre_ids": [14, 27, 53], "id": 10836, "original_language": "en", "original_title": "Dagon", "overview": "A boating accident off the coast of Spain sends Paul and his girlfriend Barbara to the decrepit fishing village of Imboca. As night falls, people start to disappear and things not quite human start to appear. Paul is pursued by the entire town. Running for his life, he uncovers Imboca's secret..they worship Dagon, a monstrous god of the sea...and Dagon's unholy offspring are on the loose...", "poster_path": "/8S648eMKObi8ERFS7cSYDocxSaZ.jpg", "release_date": "2001-10-12", "title": "Dagon", "video": false, "vote_average": 6.3, "vote_count": 147, "popularity": 12.923}, {"id": 81188, "video": false, "vote_count": 4113, "vote_average": 7.3, "title": "Rise of the Guardians", "release_date": "2012-11-21", "original_language": "en", "original_title": "Rise of the Guardians", "genre_ids": [28, 12, 16, 14, 10751], "backdrop_path": "/uLAzeXooxaCJvxltbEqZQHLxniP.jpg", "adult": false, "overview": "When an evil spirit known as Pitch lays down the gauntlet to take over the world, the immortal Guardians must join forces for the first time to protect the hopes, beliefs and imagination of children all over the world.", "poster_path": "/sIZr3pWcnLTjMkOaTkBrV967lTK.jpg", "popularity": 24.698}, {"adult": false, "backdrop_path": "/gVTTtYgKIBurNvkGiGC6735b8y.jpg", "genre_ids": [28, 80, 14], "id": 414, "original_language": "en", "original_title": "Batman Forever", "overview": "The Dark Knight of Gotham City confronts a dastardly duo: Two-Face and the Riddler. Formerly District Attorney Harvey Dent, Two-Face believes Batman caused the courtroom accident which left him disfigured on one side. And Edward Nygma, computer-genius and former employee of millionaire Bruce Wayne, is out to get the philanthropist; as The Riddler. Former circus acrobat Dick Grayson, his family killed by Two-Face, becomes Wayne's ward and Batman's new partner Robin.", "poster_path": "/eTMrHEhlFPHNxpqGwpGGTdAa0xV.jpg", "release_date": "1995-06-16", "title": "Batman Forever", "video": false, "vote_average": 5.3, "vote_count": 3091, "popularity": 17.157}, {"id": 11360, "video": false, "vote_count": 3005, "vote_average": 6.9, "title": "Dumbo", "release_date": "1941-10-22", "original_language": "en", "original_title": "Dumbo", "genre_ids": [16, 10751], "backdrop_path": "/sa5vHfu5n4NFqZbVf2hzqGr6bim.jpg", "adult": false, "overview": "Dumbo is a baby elephant born with over-sized ears and a supreme lack of confidence. But thanks to his even more diminutive buddy Timothy the Mouse,  the pint-sized pachyderm learns to surmount all obstacles.", "poster_path": "/hKDdllslMtsU9JixAv5HR9biXlp.jpg", "popularity": 26.622}, {"adult": false, "backdrop_path": "/7jQ5uwFcMuRL7pmCVDjq7KpBwbU.jpg", "genre_ids": [27, 53], "id": 10160, "original_language": "en", "original_title": "A Nightmare on Elm Street: The Dream Child", "overview": "Alice, having survived the previous installment of the Nightmare series, finds the deadly dreams of Freddy Krueger starting once again. This time, the taunting murderer is striking through the sleeping mind of Alice's unborn child. His intention is to be \"born again\" into the real world. The only one who can stop Freddy is his dead mother, but can Alice free her spirit in time to save her own son?", "poster_path": "/vnorsG2pKAVqIMYsDJbKoOr4CsX.jpg", "release_date": "1989-08-11", "title": "A Nightmare on Elm Street: The Dream Child", "video": false, "vote_average": 5.4, "vote_count": 610, "popularity": 13.693}, {"adult": false, "backdrop_path": "/dDn5n9JbGLEthBndWtkW343BhYE.jpg", "genre_ids": [27, 53], "id": 10131, "original_language": "en", "original_title": "A Nightmare on Elm Street 4: The Dream Master", "overview": "Dream demon Freddy Krueger is resurrected from his apparent demise, and rapidly tracks down and kills the remainder of the Elm Street kids. However, Kristen, who can draw others into her dreams, wills her special ability to her friend Alice. Alice soon realizes that Freddy is taking advantage of that unknown power to pull a new group of children into his foul domain.", "poster_path": "/gERdob60xVv0tJ1Kr3XEqqj0KFl.jpg", "release_date": "1988-08-19", "title": "A Nightmare on Elm Street 4: The Dream Master", "video": false, "vote_average": 5.8, "vote_count": 675, "popularity": 19.928}, {"id": 38, "video": false, "vote_count": 8439, "vote_average": 8.1, "title": "Eternal Sunshine of the Spotless Mind", "release_date": "2004-03-19", "original_language": "en", "original_title": "Eternal Sunshine of the Spotless Mind", "genre_ids": [18, 878, 10749], "backdrop_path": "/1dXTsaFxHoF9cas08UjAqE8NqOW.jpg", "adult": false, "overview": "Joel Barish, heartbroken that his girlfriend underwent a procedure to erase him from her memory, decides to do the same. However, as he watches his memories of her fade away, he realises that he still loves her, and may be too late to correct his mistake.", "poster_path": "/7y3eYvTsGjxPYDtSnumCLIMDkrV.jpg", "popularity": 22.167}, {"id": 2976, "video": false, "vote_count": 1689, "vote_average": 6.6, "title": "Hairspray", "release_date": "2007-07-13", "original_language": "en", "original_title": "Hairspray", "genre_ids": [35, 18, 10749], "backdrop_path": "/yafOInYuEuK6FOw1oK40Lggp0TV.jpg", "adult": false, "overview": "Pleasantly plump teenager Tracy Turnblad auditions to be on Baltimore's most popular dance show - The Corny Collins Show - and lands a prime spot. Through her newfound fame, she becomes determined to help her friends and end the racial segregation that has been a staple of the show.", "poster_path": "/ndOpIx4BXpFCRRIxgMoGHxZxlE9.jpg", "popularity": 28.634}], "total_pages": 44, "total_results": 866}, "recommendations": {"page": 1, "results": [], "total_pages": 1, "total_results": 0}, "credits": {"cast": [{"cast_id": 2, "character": "Kathleen Davis", "credit_id": "55162476c3a368347f0007ab", "gender": 1, "id": 95624, "name": "Shirley Temple", "order": 1, "profile_path": "/btP9pnJQT1qZGG9hDBOIIrdamCI.jpg"}, {"cast_id": 3, "character": "John Davis", "credit_id": "5516247ec3a368348f0006e4", "gender": 2, "id": 2435, "name": "Herbert Marshall", "order": 2, "profile_path": "/jLi1edH2FEV3Hrmoa3j7QwYcaDx.jpg"}, {"cast_id": 4, "character": "Martha Kent", "credit_id": "55162486c3a368347d000883", "gender": 1, "id": 41245, "name": "Laraine Day", "order": 3, "profile_path": "/s9UHeBQF7VjzvDrvIgzNlBs7oCn.jpg"}, {"cast_id": 5, "character": "Lorraine Bennett", "credit_id": "5516248f9251417f4e000604", "gender": 1, "id": 98574, "name": "Gail Patrick", "order": 4, "profile_path": "/vCdZttcsdbWhkLUygrV2bUpf1Lw.jpg"}, {"cast_id": 6, "character": "Mr. Schoner", "credit_id": "55162498c3a368348f0006e9", "gender": 2, "id": 2494, "name": "Felix Bressart", "order": 5, "profile_path": "/x3NDEBpQavuhcV2yFNgm3JK0d5J.jpg"}, {"cast_id": 7, "character": "Mrs. Farrell", "credit_id": "551624a09251413eb50007d6", "gender": 1, "id": 50836, "name": "Nella Walker", "order": 6, "profile_path": "/kl8WuqmPAuwqaOne9fod7kkwcTQ.jpg"}, {"cast_id": 8, "character": "Montague Foster", "credit_id": "551624a8c3a368347f0007b7", "gender": 2, "id": 34497, "name": "Lloyd Corrigan", "order": 7, "profile_path": "/uuC8nYacobRfv8DVJQYeoA4A6Sx.jpg"}, {"cast_id": 11, "character": "Jarvis", "credit_id": "55acf713c3a368648e007435", "gender": 0, "id": 1371301, "name": "Guy Bellis", "order": 8, "profile_path": null}, {"cast_id": 12, "character": "Solo Dancer", "credit_id": "5c9638cec3a3682e59f5aafc", "gender": 2, "id": 2265782, "name": "Paul Godkin", "order": 9, "profile_path": null}], "crew": [{"credit_id": "52fe49e69251416c750d708f", "department": "Directing", "gender": 2, "id": 33026, "job": "Director", "name": "Harold S. Bucquet", "profile_path": "/vrnyMGCGMeguCOZZa18aV4UL7s3.jpg"}, {"credit_id": "5516251c9251413ec40007af", "department": "Writing", "gender": 1, "id": 223265, "job": "Screenplay", "name": "Mary C. McCall, Jr.", "profile_path": null}, {"credit_id": "5516252a9251413ec10007a4", "department": "Writing", "gender": 1, "id": 959728, "job": "Story", "name": "Kay Van Riper", "profile_path": null}]}}