{"adult": false, "backdrop_path": "/wjX27EUbKUiweFtz98C8CnO21DP.jpg", "belongs_to_collection": null, "budget": 0, "genres": [{"id": 35, "name": "Comedy"}, {"id": 18, "name": "Drama"}, {"id": 10749, "name": "Romance"}], "homepage": null, "id": 97819, "imdb_id": "tt0035393", "original_language": "en", "original_title": "Sunday Punch", "overview": "Ma Galestrum (Connie Gilchrist) is a boardinghouse owner whose tenants are a group of aspiring boxers. When her young niece, Judy (Jean Rogers), comes to stay for a visit, college dropout Ken Burke (William Lundigan) and Swedish janitor Ole (Dan Dailey Jr.) immediately fall for her charms. Ken considers going back to college for Judy, but his fight promoter is less than thrilled with this idea. Meanwhile, Ole is determined to meet Ken in the ring to vie for Judy's heart.", "popularity": 1.25, "poster_path": "/eFndQbLHRCrOYn2z0NRPj37iHlt.jpg", "production_companies": [{"id": 21, "logo_path": "/mjofSXiHpG5t6KYmU4l4FrUhT7m.png", "name": "Metro-Goldwyn-Mayer", "origin_country": "US"}], "production_countries": [{"iso_3166_1": "US", "name": "United States of America"}], "release_date": "1942-05-08", "revenue": 0, "runtime": 76, "spoken_languages": [{"iso_639_1": "en", "name": "English"}], "status": "Released", "tagline": "", "title": "Sunday Punch", "video": false, "vote_average": 3.0, "vote_count": 1, "keywords": {"keywords": [{"id": 128, "name": "love triangle"}, {"id": 12390, "name": "boarding house"}, {"id": 209476, "name": "boxing"}]}, "similar": {"page": 1, "results": [{"id": 1375, "video": false, "vote_count": 1670, "vote_average": 5.6, "title": "Rocky V", "release_date": "1990-10-18", "original_language": "en", "original_title": "Rocky V", "genre_ids": [18], "backdrop_path": "/dr5pdEDOdCvelCQqP32UZubiSgE.jpg", "adult": false, "overview": "A lifetime of taking shots has ended Rocky\u2019s career, and a crooked accountant has left him broke. Inspired by the memory of his trainer, however, Rocky finds glory in training and takes on an up-and-coming boxer.", "poster_path": "/5P2RiuLt31mWyb6duww8qlAhs6G.jpg", "popularity": 22.518}, {"id": 1366, "video": false, "vote_count": 4244, "vote_average": 7.7, "title": "Rocky", "release_date": "1976-11-21", "original_language": "en", "original_title": "Rocky", "genre_ids": [18], "backdrop_path": "/2kkyt0FLROrXt41IgSdE7goCFNQ.jpg", "adult": false, "overview": "When world heavyweight boxing champion, Apollo Creed wants to give an unknown fighter a shot at the title as a publicity stunt, his handlers choose palooka Rocky Balboa, an uneducated collector for a Philadelphia loan shark. Rocky teams up with trainer  Mickey Goldmill to make the most of this once in a lifetime break.", "poster_path": "/9TUR3s1PMJHwDRbpm7PWQ0S7IRy.jpg", "popularity": 31.646}, {"id": 70, "video": false, "vote_count": 5415, "vote_average": 7.9, "title": "Million Dollar Baby", "release_date": "2004-12-15", "original_language": "en", "original_title": "Million Dollar Baby", "genre_ids": [18], "backdrop_path": "/7nGW4MhYQ7sJfp482XkrgqPYQ2S.jpg", "adult": false, "overview": "Despondent over a painful estrangement from his daughter, trainer Frankie Dunn isn't prepared for boxer Maggie Fitzgerald to enter his life. But Maggie's determined to go pro and to convince Dunn and his cohort to help her.", "poster_path": "/h4VZKi2Jt4VoBYJmtC4c3bO8KqM.jpg", "popularity": 22.24}, {"id": 167073, "video": false, "vote_count": 2097, "vote_average": 7.3, "title": "Brooklyn", "release_date": "2015-10-20", "original_language": "en", "original_title": "Brooklyn", "genre_ids": [18, 10749], "backdrop_path": "/7fXKVIM8UQBvQ9aQOzFqThlq7eN.jpg", "adult": false, "overview": "In 1950s Ireland and New York, young Eilis Lacey has to choose between two men and two countries.", "poster_path": "/dRpkyrSDrEMFRZDeFJG4EupqUfR.jpg", "popularity": 12.966}, {"adult": false, "backdrop_path": "/6qYptQG2ynJANbyjjYOt4fpHfxF.jpg", "genre_ids": [18], "id": 1371, "original_language": "en", "original_title": "Rocky III", "overview": "Now the world champion, Rocky Balboa is living in luxury and only fighting opponents who pose no threat to him in the ring, until Clubber Lang challenges him to a bout. After taking a pounding from Lang, the humbled champ turns to former bitter rival Apollo Creed for a rematch with Lang.", "poster_path": "/ns55NGqTDEEjcI9z2a9htA2cFtG.jpg", "release_date": "1982-05-28", "title": "Rocky III", "video": false, "vote_average": 6.8, "vote_count": 2156, "popularity": 25.559}, {"id": 1374, "video": false, "vote_count": 2312, "vote_average": 6.9, "title": "Rocky IV", "release_date": "1985-11-21", "original_language": "en", "original_title": "Rocky IV", "genre_ids": [18], "backdrop_path": "/uvbjTLZSxGehXWDo1ENyVuBrYie.jpg", "adult": false, "overview": "After iron man Drago, a highly intimidating 6-foot-5, 261-pound Soviet athlete, kills Apollo Creed in an exhibition match, Rocky comes to the heart of Russia for 15 pile-driving boxing rounds of revenge.", "poster_path": "/jmvpwgW5M2kduR9zB0q8qGFC4zM.jpg", "popularity": 23.829}, {"id": 1903, "video": false, "vote_count": 2237, "vote_average": 6.8, "title": "Vanilla Sky", "release_date": "2001-12-10", "original_language": "en", "original_title": "Vanilla Sky", "genre_ids": [18, 14, 878, 53, 10749], "backdrop_path": "/6XwX3HzKhlBUbTy2qZx0THQOu2T.jpg", "adult": false, "overview": "David Aames has it all: wealth, good looks and gorgeous women on his arm. But just as he begins falling for the warmhearted Sofia, his face is horribly disfigured in a car accident. That's just the beginning of his troubles as the lines between illusion and reality, between life and death, are blurred.", "poster_path": "/ujMy9P4VczTW9YSpAM31uqdOMpz.jpg", "popularity": 16.046}, {"adult": false, "backdrop_path": "/xx9DyVNmehDJPrYGsy9AJgYzAtd.jpg", "genre_ids": [18], "id": 1367, "original_language": "en", "original_title": "Rocky II", "overview": "After Rocky goes the distance with champ Apollo Creed, both try to put the fight behind them and move on. Rocky settles down with Adrian but can't put his life together outside the ring, while Creed seeks a rematch to restore his reputation. Soon enough, the \"Master of Disaster\" and the \"Italian Stallion\" are set on a collision course for a climactic battle that is brutal and unforgettable.", "poster_path": "/fqJH7mI4dFANRay8qdJoGa7fK1k.jpg", "release_date": "1979-06-15", "title": "Rocky II", "video": false, "vote_average": 7.1, "vote_count": 2345, "popularity": 27.206}, {"id": 1578, "video": false, "vote_count": 2158, "vote_average": 8.0, "title": "Raging Bull", "release_date": "1980-11-14", "original_language": "en", "original_title": "Raging Bull", "genre_ids": [18], "backdrop_path": "/yt88nEyDJLN8gOg1FTvCcXCM672.jpg", "adult": false, "overview": "When Jake LaMotta steps into a boxing ring and obliterates his opponent, he's a prizefighter. But when he treats his family and friends the same way, he's a ticking time bomb, ready to go off at any moment. Though LaMotta wants his family's love, something always seems to come between them. Perhaps it's his violent bouts of paranoia and jealousy. This kind of rage helped make him a champ, but in real life, he winds up in the ring alone.", "poster_path": "/3cgzzWsUOBlNjmA5m4qs9BGkezC.jpg", "popularity": 15.977}, {"adult": false, "backdrop_path": "/i8AGAKxZL5aXnDcXVOZK5JkkDhn.jpg", "genre_ids": [18], "id": 10400, "original_language": "en", "original_title": "The Hurricane", "overview": "The story of Rubin \"Hurricane\" Carter, a boxer wrongly imprisoned for murder, and the people who aided in his fight to prove his innocence.", "poster_path": "/6SoTMHbcZ6XItPiEfIe1WzeET3c.jpg", "release_date": "1999-09-17", "title": "The Hurricane", "video": false, "vote_average": 7.4, "vote_count": 736, "popularity": 12.58}, {"adult": false, "backdrop_path": "/bYbnlh6VXFRtcSX82UMDsBDLB5j.jpg", "genre_ids": [18, 10749], "id": 28468, "original_language": "it", "original_title": "La chiave", "overview": "After twenty years of marriage, art professor Nino Rolfe attempts to break down his wife Teresa's conventional modesty. Noticing her affection for their daughter's fianc\u00e9, Nino instigates her sexual interest in him as well. This sets off a chain of unexpected events and emotional complications, as Nino and his unpredictable fascist daughter find that they both enjoy being jealous.", "poster_path": "/e6g2geNLgFzMbriH6EvSJZD78nx.jpg", "release_date": "1983-10-18", "title": "The Key", "video": false, "vote_average": 5.0, "vote_count": 128, "popularity": 15.363}, {"adult": false, "backdrop_path": "/a8xpxCnvqKyshdrDNFGs6oy4r8N.jpg", "genre_ids": [18, 10749], "id": 1278, "original_language": "en", "original_title": "The Dreamers", "overview": "A young American studying in Paris in 1968 strikes up a friendship with a French brother and sister. Set against the background of the '68 Paris student riots.", "poster_path": "/7ABcfmXQZeCXl5sNrDuLS1URMPN.jpg", "release_date": "2003-09-01", "title": "The Dreamers", "video": false, "vote_average": 7.2, "vote_count": 1671, "popularity": 15.849}, {"id": 38, "video": false, "vote_count": 8445, "vote_average": 8.1, "title": "Eternal Sunshine of the Spotless Mind", "release_date": "2004-03-19", "original_language": "en", "original_title": "Eternal Sunshine of the Spotless Mind", "genre_ids": [18, 878, 10749], "backdrop_path": "/1dXTsaFxHoF9cas08UjAqE8NqOW.jpg", "adult": false, "overview": "Joel Barish, heartbroken that his girlfriend underwent a procedure to erase him from her memory, decides to do the same. However, as he watches his memories of her fade away, he realises that he still loves her, and may be too late to correct his mistake.", "poster_path": "/7y3eYvTsGjxPYDtSnumCLIMDkrV.jpg", "popularity": 22.427}, {"id": 521, "video": false, "vote_count": 1257, "vote_average": 8.0, "title": "Dial M for Murder", "release_date": "1954-05-29", "original_language": "en", "original_title": "Dial M for Murder", "genre_ids": [80, 18, 9648, 53], "backdrop_path": "/jVMlfESb0TJ29w8CUDDofEprMmn.jpg", "adult": false, "overview": "An ex-tennis pro carries out a plot to have his wife murdered after discovering she is having an affair, and assumes she will soon leave him for the other man anyway. When things go wrong, he improvises a new plan\u2014to frame her for murder instead.", "poster_path": "/xrpK1PyckNWmRxU4kZURfaCyboS.jpg", "popularity": 28.336}, {"id": 46853, "video": false, "vote_count": 34, "vote_average": 5.1, "title": "Playing with Love", "release_date": "1977-05-17", "original_language": "it", "original_title": "Maladolescenza", "genre_ids": [18], "backdrop_path": "/vTQsFtOSZpG16bLFeZHD0i9Bjr6.jpg", "adult": false, "overview": "Laura and Fabrizio have been meeting every summer in the forest by her parent's summer home. Fabrizio is a solitary boy with only his dog for company; Laura a sweet but unconfident child. This summer new aspects enter into their story as both are growing up. Laura is falling in love with Fabrizio, while he displays a new sexual awareness of her masked by his malice. Things develop further when they meet Sylvia who, unlike the innocent Laura, is confident and assertive. Fabrizio develops a fascination with her, eventually bribing Laura to fetch her to the forest to join them in play.", "poster_path": "/pRU8nEGBXMOuIhKB8ZgFWuZBf5G.jpg", "popularity": 36.143}, {"adult": false, "backdrop_path": "/8ZIZJbPXCtnIG1rJpR57iFRyPTt.jpg", "genre_ids": [10749, 35], "id": 544, "original_language": "en", "original_title": "There's Something About Mary", "overview": "For Ted, prom night went about as bad as it\u2019s possible for any night to go. Thirteen years later, he finally gets another chance with his old prom date, only to run up against other suitors including the sleazy detective he hired to find her.", "poster_path": "/zD4ACYImREkDRk8PPiIXHDx4nZa.jpg", "release_date": "1998-07-15", "title": "There's Something About Mary", "video": false, "vote_average": 6.5, "vote_count": 3196, "popularity": 23.945}, {"id": 223485, "video": false, "vote_count": 586, "vote_average": 6.6, "title": "Slow West", "release_date": "2015-04-16", "original_language": "en", "original_title": "Slow West", "genre_ids": [28, 18, 53, 37, 10749], "backdrop_path": "/9qF6lhj6X0ImH4iWGZs1uspXJI0.jpg", "adult": false, "overview": "In the Old West, a 17-year-old Scottish boy teams up with a mysterious gunman to find the woman with whom he is infatuated.", "poster_path": "/uZ9dBBn0GaEw0YIBvQd01Io3pho.jpg", "popularity": 10.467}, {"id": 312221, "video": false, "vote_count": 4401, "vote_average": 7.4, "title": "Creed", "release_date": "2015-11-25", "original_language": "en", "original_title": "Creed", "genre_ids": [18], "backdrop_path": "/fs2yhdSCzMVlNECrN84WuCkgXov.jpg", "adult": false, "overview": "The former World Heavyweight Champion Rocky Balboa serves as a trainer and mentor to Adonis Johnson, the son of his late friend and former rival Apollo Creed.", "poster_path": "/hKzhV274pkZBSpXfCjUyzbyYKLl.jpg", "popularity": 17.844}, {"id": 307081, "video": false, "vote_count": 3703, "vote_average": 7.4, "title": "Southpaw", "release_date": "2015-03-24", "original_language": "en", "original_title": "Southpaw", "genre_ids": [28, 18], "backdrop_path": "/tTt1cdEEkKMJ1R4VBTe5vbE3bWO.jpg", "adult": false, "overview": "Billy \"The Great\" Hope, the reigning junior middleweight boxing champion, has an impressive career, a loving wife and daughter, and a lavish lifestyle. However, when tragedy strikes, Billy hits rock bottom, losing his family, his house and his manager. He soon finds an unlikely savior in Tick Willis, a former fighter who trains the city's toughest amateur boxers. With his future on the line, Hope fights to reclaim the trust of those he loves the most.", "poster_path": "/50d0XQQETSyg3bwBXhC7K33pKgc.jpg", "popularity": 28.235}, {"adult": false, "backdrop_path": "/zrGPZc07huy9ApZs7GCrWj05Cy8.jpg", "genre_ids": [12, 14, 10749, 10751], "id": 2270, "original_language": "en", "original_title": "Stardust", "overview": "In a countryside town bordering on a magical land, a young man makes a promise to his beloved that he'll retrieve a fallen star by venturing into the magical realm. His journey takes him into a world beyond his wildest dreams and reveals his true identity.", "poster_path": "/A9gXvPOnMu961E36x5p3RT4FQ5E.jpg", "release_date": "2007-08-09", "title": "Stardust", "video": false, "vote_average": 7.2, "vote_count": 2402, "popularity": 20.44}], "total_pages": 67, "total_results": 1328}, "recommendations": {"page": 1, "results": [], "total_pages": 1, "total_results": 0}, "credits": {"cast": [{"cast_id": 4, "character": "Ken Burke", "credit_id": "52fe49f19251416c750d885d", "gender": 2, "id": 18805, "name": "William Lundigan", "order": 0, "profile_path": "/bY1TCCSltVJLPedbChOOQA16mYC.jpg"}, {"cast_id": 3, "character": "Judy", "credit_id": "52fe49f19251416c750d8859", "gender": 1, "id": 33360, "name": "Jean Rogers", "order": 1, "profile_path": "/zwXMw0rqysy4E1uS4FG6K3MV948.jpg"}, {"cast_id": 5, "character": "Ole", "credit_id": "52fe49f19251416c750d8861", "gender": 2, "id": 82129, "name": "Dan Dailey", "order": 2, "profile_path": "/7lYu40kKfXSeRFKYT2OsceJHfRV.jpg"}, {"cast_id": 11, "character": "'Pops' Muller", "credit_id": "56effa6992514141f4000580", "gender": 2, "id": 30002, "name": "Guy Kibbee", "order": 3, "profile_path": "/pqWHnvlW3oDUTHl8KzgBeHJwgQ0.jpg"}, {"cast_id": 12, "character": "Matt Bassler", "credit_id": "56effa77c3a368225100f652", "gender": 2, "id": 30686, "name": "J. Carrol Naish", "order": 4, "profile_path": "/iHUIlLxzgkZSMvapdxLhBZe82B.jpg"}, {"cast_id": 2, "character": "Ma Galestrum", "credit_id": "52fe49f19251416c750d8855", "gender": 1, "id": 87519, "name": "Connie Gilchrist", "order": 5, "profile_path": "/hUQSAnW63H5MJDv92YOXRZKmdJw.jpg"}, {"cast_id": 13, "character": "Roscoe", "credit_id": "56effa8792514108c8002c80", "gender": 2, "id": 14574, "name": "Sam Levene", "order": 6, "profile_path": "/rqKY46wP6XbEVbDYaC6Euq23FWb.jpg"}, {"cast_id": 14, "character": "'Biff'", "credit_id": "56effa9392514108c8002c86", "gender": 2, "id": 89989, "name": "Leo Gorcey", "order": 7, "profile_path": "/ntzfWLKlvtMuem9knh5Omx6mkcP.jpg"}, {"cast_id": 15, "character": "'Killer' Connolly", "credit_id": "56effaa1c3a368224e00ebae", "gender": 2, "id": 129549, "name": "Rags Ragland", "order": 8, "profile_path": "/WzDxP8my8E4e02hjfFTw20acsV.jpg"}, {"cast_id": 29, "character": "'Baby' Fitzroy (as Douglass Newland)", "credit_id": "5b2459110e0a266725000b12", "gender": 2, "id": 1057305, "name": "Johnny Mitchell", "order": 10, "profile_path": "/oI7pXB7hV7l71lnsLhEGl1UJEHj.jpg"}, {"cast_id": 17, "character": "Nat Cucci", "credit_id": "56effac0c3a368226000f2f1", "gender": 2, "id": 16004, "name": "Anthony Caruso", "order": 11, "profile_path": "/d2p7VwnIAQKds9JHkz0yxSF6sIQ.jpg"}, {"cast_id": 18, "character": "Phil Grogan (uncredited)", "credit_id": "56effacf925141771a0056b7", "gender": 2, "id": 89524, "name": "Dane Clark", "order": 12, "profile_path": "/pbVGIAhYjCdvM0eMFfhaWgflKuP.jpg"}, {"cast_id": 19, "character": "Ringsider (uncredited)", "credit_id": "56effade92514141f400058e", "gender": 1, "id": 25787, "name": "Ava Gardner", "order": 13, "profile_path": "/tx4IH7GfcJQVg6wMTXxfVxX8AKY.jpg"}, {"cast_id": 20, "character": "Ringside spectator at Ole's first fight (uncredited)", "credit_id": "56effaed92514108e20030cb", "gender": 2, "id": 29579, "name": "Charles Lane", "order": 14, "profile_path": "/wu5fTupk5atyJlCsHhXPGcdf8Mg.jpg"}], "crew": [{"credit_id": "5834a7dc9251416d5700995b", "department": "Art", "gender": 2, "id": 9062, "job": "Art Direction", "name": "Cedric Gibbons", "profile_path": "/w8tc9iVH87Iu1KKFDZ9B99NhnBc.jpg"}, {"credit_id": "5834a7e6c3a3682f6c00930f", "department": "Art", "gender": 2, "id": 9063, "job": "Set Decoration", "name": "Edwin B. Willis", "profile_path": "/b4hSs5KLFXxSrvvA923VjdmywMl.jpg"}, {"credit_id": "5834a7d2c3a3682f9d009aad", "department": "Editing", "gender": 2, "id": 13984, "job": "Editor", "name": "Albert Akst", "profile_path": null}, {"credit_id": "5834a80ec3a3682fad009537", "department": "Sound", "gender": 2, "id": 14356, "job": "Original Music Composer", "name": "Daniele Amfitheatrof", "profile_path": null}, {"credit_id": "5834a81a9251416d00009718", "department": "Sound", "gender": 2, "id": 19407, "job": "Original Music Composer", "name": "David Snell", "profile_path": "/uLoDz6KoVfqJBuPso9CDo6zYcdL.jpg"}, {"credit_id": "5834a7c79251416bc6009c32", "department": "Camera", "gender": 2, "id": 96427, "job": "Director of Photography", "name": "Paul Vogel", "profile_path": null}, {"credit_id": "5834a7fcc3a36828710097bf", "department": "Costume & Make-Up", "gender": 2, "id": 34225, "job": "Costume Design", "name": "Robert Kalloch", "profile_path": null}, {"credit_id": "52fe49f19251416c750d8851", "department": "Directing", "gender": 2, "id": 73256, "job": "Director", "name": "David Miller", "profile_path": "/k43xGVyc8hkfDycwRGUeR6QbbLI.jpg"}, {"credit_id": "56effa2b92514108e20030b2", "department": "Writing", "gender": 2, "id": 86405, "job": "Writer", "name": "Allen Rivkin", "profile_path": null}, {"credit_id": "56effa1dc3a368226000f2e1", "department": "Writing", "gender": 2, "id": 94762, "job": "Screenplay", "name": "Michael Kanin", "profile_path": null}, {"credit_id": "56effa22925141771a0056aa", "department": "Writing", "gender": 2, "id": 94762, "job": "Story", "name": "Michael Kanin", "profile_path": null}, {"credit_id": "5834a7bac3a3682ea100909e", "department": "Production", "gender": 2, "id": 131228, "job": "Producer", "name": "Irving Starr", "profile_path": null}, {"credit_id": "56effa0d9251415e6200e9a4", "department": "Writing", "gender": 1, "id": 1237020, "job": "Screenplay", "name": "Fay Kanin", "profile_path": "/2letj0SH6KSfL8WEUTvBJemxkFB.jpg"}, {"credit_id": "56effa13c3a368226500e43c", "department": "Writing", "gender": 1, "id": 1237020, "job": "Story", "name": "Fay Kanin", "profile_path": "/2letj0SH6KSfL8WEUTvBJemxkFB.jpg"}]}}