{"adult": false, "backdrop_path": null, "belongs_to_collection": null, "budget": 0, "genres": [{"id": 35, "name": "Comedy"}, {"id": 27, "name": "Horror"}], "homepage": null, "id": 98308, "imdb_id": "tt0096239", "original_language": "en", "original_title": "Teen Vamp", "overview": "An unimpressive, boring high-school geek is bitten and contracts vampirical symptoms, transforming him into a confident coolio.", "popularity": 2.619, "poster_path": "/a27DegHlHPyP9R8YLFryxuX1peF.jpg", "production_companies": [], "production_countries": [], "release_date": "1988-01-01", "revenue": 0, "runtime": 85, "spoken_languages": [{"iso_639_1": "en", "name": "English"}], "status": "Released", "tagline": "A deliciously wicked story of a boy and his teeth.", "title": "Teen Vamp", "video": false, "vote_average": 3.7, "vote_count": 5, "keywords": {"keywords": [{"id": 3133, "name": "vampire"}, {"id": 6270, "name": "high school"}]}, "similar": {"page": 1, "results": [{"id": 7131, "video": false, "vote_count": 3395, "vote_average": 6.1, "title": "Van Helsing", "release_date": "2004-05-05", "original_language": "en", "original_title": "Van Helsing", "genre_ids": [28, 12, 27], "backdrop_path": "/sib4pGrwKQUbFRyHlhXv03HXoHj.jpg", "adult": false, "overview": "Famed monster slayer Gabriel Van Helsing is dispatched to Transylvania to assist the last of the Valerious bloodline in defeating Count Dracula. Anna Valerious reveals that Dracula has formed an unholy alliance with Dr. Frankenstein's monster and is hell-bent on exacting a centuries-old curse on her family.", "poster_path": "/s2OPT5CZsZBQYAIlO9Mv4AimHvV.jpg", "popularity": 19.526}, {"adult": false, "backdrop_path": "/99Z7mNsixJJTn10tHLCtu6XcY6E.jpg", "genre_ids": [53, 27], "id": 10577, "original_language": "en", "original_title": "Dracula 2000", "overview": "In the millenium version of this classic Gothic horror we find Abraham Van Helsing, who has tangled with Count Dracula in the past, working as an English antiques dealer. Simon is a vampire hunter in training under his apprenticeship.", "poster_path": "/6YF56U91zP1mQvle83KA1A7CPop.jpg", "release_date": "2000-12-22", "title": "Dracula 2000", "video": false, "vote_average": 4.7, "vote_count": 317, "popularity": 11.748}, {"id": 40264, "video": false, "vote_count": 746, "vote_average": 4.1, "title": "Vampires Suck", "release_date": "2010-08-18", "original_language": "en", "original_title": "Vampires Suck", "genre_ids": [35], "backdrop_path": "/1A5oDak9MwbHN2TU4gy3e8kfzU7.jpg", "adult": false, "overview": "Becca, an anxious, non-vampire teen is torn between two boys. Before she can choose, Becca must get around her controlling father, who embarrasses Becca by treating her like a child. Meanwhile, Becca's friends contend with their own romantic issues - all of which collide at the prom.", "poster_path": "/ug9h5BJ5XX9bp1nJI6Ji07QC3sx.jpg", "popularity": 11.815}, {"id": 49017, "video": false, "vote_count": 4003, "vote_average": 6.3, "title": "Dracula Untold", "release_date": "2014-10-01", "original_language": "en", "original_title": "Dracula Untold", "genre_ids": [28, 18, 14, 27, 10752], "backdrop_path": "/gy5ItoprIPOT7Z1c2YhNhart39l.jpg", "adult": false, "overview": "Vlad Tepes is a great hero, but when he learns the Sultan is preparing for battle and needs to form an army of 1,000 boys, he vows to find a way to protect his family. Vlad turns to dark forces in order to get the power to destroy his enemies and agrees to go from hero to monster as he's turned into the mythological vampire, Dracula.", "poster_path": "/4oy4e0DP6LRwRszfx8NY8EYBj8V.jpg", "popularity": 32.104}, {"adult": false, "backdrop_path": "/ysLIi9nzMbUqi4dQh3tqblUb27o.jpg", "genre_ids": [878, 28, 27, 53, 12, 14], "id": 36648, "original_language": "en", "original_title": "Blade: Trinity", "overview": "For years, Blade has fought against the vampires in the cover of the night. But now, after falling into the crosshairs of the FBI, he is forced out into the daylight, where he is driven to join forces with a clan of human vampire hunters he never knew existed\u2014The Nightstalkers. Together with Abigail and Hannibal, two deftly trained Nightstalkers, Blade follows a trail of blood to the ancient creature that is also hunting him\u2014the original vampire, Dracula.", "poster_path": "/4WinsdHQBdh5aTt7Bd7T7dbUXbb.jpg", "release_date": "2004-12-08", "title": "Blade: Trinity", "video": false, "vote_average": 5.8, "vote_count": 2278, "popularity": 19.358}, {"adult": false, "backdrop_path": "/sEx5TxWlWynwZrqqXdPKbKJXQHl.jpg", "genre_ids": [28, 35, 27], "id": 10206, "original_language": "en", "original_title": "Buffy the Vampire Slayer", "overview": "Blonde, bouncy Buffy is your typical high school cheerleader: her goal is to \"marry Christian Slater and die,\" and nothing gets in her way when it's time to shop! But all that changes when a strange man informs her she's been chosen by fate to kill vampires.  With the help of a romantic rebel, Buffy is soon spending school nights protecting L.A. from Lothos the Vampire King, his sidekick, Lefty, and their determined gang of bloodsuckers. It's everything you'd expect from a teen queen in the Valley.", "poster_path": "/r0feHChsxNVMpqwT6Wk9GIJxs2n.jpg", "release_date": "1992-07-24", "title": "Buffy the Vampire Slayer", "video": false, "vote_average": 5.5, "vote_count": 406, "popularity": 10.321}, {"adult": false, "backdrop_path": "/k4AVaOboquMcd3zbFSSgCEbzabz.jpg", "genre_ids": [35, 27], "id": 246741, "original_language": "en", "original_title": "What We Do in the Shadows", "overview": "Vampire housemates try to cope with the complexities of modern life and show a newly turned hipster some of the perks of being undead.", "poster_path": "/4bqqrtzY9vVQeEcqyqWfTJWmpD9.jpg", "release_date": "2014-06-19", "title": "What We Do in the Shadows", "video": false, "vote_average": 7.6, "vote_count": 1861, "popularity": 18.202}, {"adult": false, "backdrop_path": "/8cVSUI36ORfCJ6d4TP71wIrdD7h.jpg", "genre_ids": [18, 27], "id": 133805, "original_language": "en", "original_title": "Carrie", "overview": "A reimagining of the classic horror tale about Carrie White, a shy girl outcast by her peers and sheltered by her deeply religious mother, who unleashes telekinetic terror on her small town after being pushed too far at her senior prom.", "poster_path": "/j0999NYddCGcishJlxluDRQIn6k.jpg", "release_date": "2013-10-16", "title": "Carrie", "video": false, "vote_average": 5.9, "vote_count": 2914, "popularity": 15.756}, {"adult": false, "backdrop_path": "/zffzhr30v7nCHRcyfnVr8PmNLbM.jpg", "genre_ids": [10749, 35, 18], "id": 11355, "original_language": "en", "original_title": "Never Been Kissed", "overview": "Josie Geller, a baby-faced junior copywriter at the Chicago Sun-Times, must pose as a student at her former high school to research contemporary teenage culture. With the help of her brother, Rob, Josie infiltrates the inner circle of the most popular clique on campus. But she hits a major snag in her investigation -- not to mention her own failed love life -- when she falls for her dreamy English teacher, Sam Coulson.", "poster_path": "/1F9EAhEQxa0I5Pa5Z10hWIBFS3r.jpg", "release_date": "1999-04-09", "title": "Never Been Kissed", "video": false, "vote_average": 6.0, "vote_count": 855, "popularity": 15.613}, {"id": 24021, "video": false, "vote_count": 5444, "vote_average": 6.1, "title": "The Twilight Saga: Eclipse", "release_date": "2010-06-23", "original_language": "en", "original_title": "The Twilight Saga: Eclipse", "genre_ids": [12, 18, 14, 10749], "backdrop_path": "/lKCZYVQQb7Agw6WR25WvQBFKJmK.jpg", "adult": false, "overview": "Bella once again finds herself surrounded by danger as Seattle is ravaged by a string of mysterious killings and a malicious vampire continues her quest for revenge. In the midst of it all, she is forced to choose between her love for Edward and her friendship with Jacob, knowing that her decision has the potential to ignite the ageless struggle between vampire and werewolf. With her graduation quickly approaching, Bella is confronted with the most important decision of her life.", "poster_path": "/sOpCY4by0bkEu9LbVXVCOpWWKzF.jpg", "popularity": 21.716}, {"id": 277, "video": false, "vote_count": 4160, "vote_average": 6.7, "title": "Underworld", "release_date": "2003-09-19", "original_language": "en", "original_title": "Underworld", "genre_ids": [28, 14, 53], "backdrop_path": "/cPhRPAJWK8BuuJqqf6PztzvOlnZ.jpg", "adult": false, "overview": "Vampires and werewolves have waged a nocturnal war against each other for centuries. But all bets are off when a female vampire warrior named Selene, who's famous for her strength and werewolf-hunting prowess, becomes smitten with a peace-loving male werewolf, Michael, who wants to end the war.", "poster_path": "/rdkxl5iXdpVU188cL1LLG3sy6z4.jpg", "popularity": 22.311}, {"id": 6404, "video": false, "vote_count": 336, "vote_average": 7.5, "title": "Nosferatu the Vampyre", "release_date": "1979-01-17", "original_language": "de", "original_title": "Nosferatu - Phantom der Nacht", "genre_ids": [18, 27], "backdrop_path": "/hqSThhiEMal7eSWEoWgeVyvSLAW.jpg", "adult": false, "overview": "Jonathan Harker, a real state agent, goes to Transylvania to visit the mysterious Count Dracula and formalize the purchase of a property in Wismar. Once Jonathan is caught under his evil spell, Dracula travels to Wismar where he meets the beautiful Lucy, Jonathan's wife, while a plague spreads through the town, now ruled by death.", "poster_path": "/fKFkl1G6XldPz4jD82DpFdYduI6.jpg", "popularity": 11.923}, {"id": 248574, "video": false, "vote_count": 645, "vote_average": 5.7, "title": "Barely Lethal", "release_date": "2015-04-30", "original_language": "en", "original_title": "Barely Lethal", "genre_ids": [28, 12, 35], "backdrop_path": "/scoMZVgdqBM7vqZaEbhQXJd7jOL.jpg", "adult": false, "overview": "A 16-year-old international assassin yearning for a \"normal\" adolescence fakes her own death and enrolls as a senior in a suburban high school. She quickly learns that being popular can be more painful than getting water-boarded.", "poster_path": "/nJm0vGJVyELlQEzHRq22vi2JHbW.jpg", "popularity": 18.241}, {"id": 15144, "video": false, "vote_count": 1221, "vote_average": 6.8, "title": "Sixteen Candles", "release_date": "1984-05-04", "original_language": "en", "original_title": "Sixteen Candles", "genre_ids": [35, 10749], "backdrop_path": "/xCIgY4mUmO4tbDVlntym9PdZ9H8.jpg", "adult": false, "overview": "A teenage girl deals with her parents forgetting her birthday and a crush on her high school's heartthrob.", "poster_path": "/rzTrRQg5ek47Yl0Vfenc69r9gOd.jpg", "popularity": 29.228}, {"adult": false, "backdrop_path": "/ncERp0UvXuImUeJcf27kEANcf1r.jpg", "genre_ids": [35, 10751, 10749], "id": 9880, "original_language": "en", "original_title": "The Princess Diaries", "overview": "A socially awkward but very bright 15-year-old girl being raised by a single mom discovers that she is the princess of a small European country because of the recent death of her long-absent father, who, unknown to her, was the crown prince of Genovia. She must make a choice between continuing the life of a San Francisco teen or stepping up to the throne.", "poster_path": "/sxpvHk286sXLJWcFrBMNIsXbYsd.jpg", "release_date": "2001-08-03", "title": "The Princess Diaries", "video": false, "vote_average": 6.8, "vote_count": 2861, "popularity": 30.076}, {"id": 346672, "video": false, "vote_count": 2458, "vote_average": 5.5, "title": "Underworld: Blood Wars", "release_date": "2016-11-24", "original_language": "en", "original_title": "Underworld: Blood Wars", "genre_ids": [28, 18, 14, 27], "backdrop_path": "/fXqGBlz4xtLZzo878sHUxtsVzpU.jpg", "adult": false, "overview": "Vampire death dealer Selene fends off brutal attacks from both the Lycan clan and the Vampire faction that betrayed her. With her only allies, David and his father Thomas, she must stop the eternal war between Lycans and Vampires, even if it means she has to make the ultimate sacrifice.", "poster_path": "/nHXiMnWUAUba2LZ0dFkNDVdvJ1o.jpg", "popularity": 24.065}, {"id": 272693, "video": false, "vote_count": 3247, "vote_average": 6.8, "title": "The DUFF", "release_date": "2015-02-20", "original_language": "en", "original_title": "The DUFF", "genre_ids": [35, 10749], "backdrop_path": "/awGZf5T1hflis9Z2KvRMhp798xU.jpg", "adult": false, "overview": "Bianca's universe turns upside down when she learns that her high school refers to her as a \u2018DUFF' (Designated Ugly Fat Friend). Hoping to erase that label, she enlists the help of a charming jock and her favorite teacher. Together they'll face the school's mean girl and remind everyone that we are all someone's DUFF\u2026 and that's totally fine.", "poster_path": "/dBBgPTCN5Zze4POXWVVpwf3wkra.jpg", "popularity": 14.151}, {"id": 76492, "video": false, "vote_count": 5547, "vote_average": 6.9, "title": "Hotel Transylvania", "release_date": "2012-09-20", "original_language": "en", "original_title": "Hotel Transylvania", "genre_ids": [16, 35, 14, 10751], "backdrop_path": "/sETTal2HPPkUC3lWc27HL1AFu9C.jpg", "adult": false, "overview": "Welcome to Hotel Transylvania, Dracula's lavish five-stake resort, where monsters and their families can live it up and no humans are allowed. One special weekend, Dracula has invited all his best friends to celebrate his beloved daughter Mavis's 118th birthday. For Dracula catering to all of these legendary monsters is no problem but the party really starts when one ordinary guy stumbles into the hotel and changes everything!", "poster_path": "/9qugesYpAWHUpdrw2w8URSGkAPt.jpg", "popularity": 31.161}, {"adult": false, "backdrop_path": "/5x0VEeFCnWzRBwU23KycKQRqEhN.jpg", "genre_ids": [10402, 35], "id": 15157, "original_language": "en", "original_title": "Another Cinderella Story", "overview": "A guy who danced with what could be the girl of his dreams at a costume ball only has one hint at her identity: the Zune she left behind as she rushed home in order to make her curfew. And with a once-in-a-lifetime opportunity in front of him, he sets out to find his masked beauty.", "poster_path": "/fLdCKCfHT8A6bnWybBsQFjC4fCo.jpg", "release_date": "2008-09-16", "title": "Another Cinderella Story", "video": false, "vote_average": 6.6, "vote_count": 1120, "popularity": 16.339}, {"id": 52520, "video": false, "vote_count": 2773, "vote_average": 6.2, "title": "Underworld: Awakening", "release_date": "2012-01-19", "original_language": "en", "original_title": "Underworld: Awakening", "genre_ids": [28, 14, 27], "backdrop_path": "/8iNsXY3LPsuT0gnUiTBMoNuRZI7.jpg", "adult": false, "overview": "Having escaped years of imprisonment, vampire warrioress Selene finds herself in a changed world where humans have discovered the existence of both Vampire and Lycan clans and are conducting an all-out war to eradicate both immortal species. Now Selene must battle the humans and a frightening new breed of super Lycans to ensure the death dealers' survival.", "poster_path": "/ayazc5fQ2YAw7vjaE1WGlJWtGX9.jpg", "popularity": 15.03}], "total_pages": 148, "total_results": 2944}, "recommendations": {"page": 1, "results": [{"adult": false, "backdrop_path": "/2nMssZkzbxvahKXIoMSXYGDRoZM.jpg", "genre_ids": [10770], "id": 30936, "original_language": "en", "original_title": "Alien Arsenal", "overview": "Alien Arsenal, also released as Alien Weapons, tells the story of two teenage misfits, Ralph and Baxter, who accidentally discover a bizarre vault full of alien weaponry and body armor in the basement of their high school, with which they harness the power to transform from super geeks...to superheroes. Unfortunately, their discovery signals the arsenal's alien owners who have returned to Earth to reclaim the deadly cache...and destroy the planet!", "poster_path": "/rvZ8o9YtN9zek5XPWkIUQGu4tEf.jpg", "release_date": "1999-05-17", "title": "Alien Arsenal", "video": false, "vote_average": 3.3, "vote_count": 4, "popularity": 2.101}], "total_pages": 1, "total_results": 1}, "credits": {"cast": [{"cast_id": 4, "character": "Mrs. Murphy", "credit_id": "56676a0bc3a3683699000382", "gender": 1, "id": 92680, "name": "Karen Carlson", "order": 1, "profile_path": "/7d1FGqe0SNXl0tAxlVor56cyZFQ.jpg"}, {"cast_id": 5, "character": "The Reverend", "credit_id": "56676aa4c3a36836a00003bb", "gender": 2, "id": 62019, "name": "Clu Gulager", "order": 2, "profile_path": "/qlNfzKclL6jFUPdIaXTMPtgXg51.jpg"}, {"cast_id": 6, "character": "Conny Sutton", "credit_id": "56676af4c3a36836af0003d8", "gender": 0, "id": 131764, "name": "Angie Brown", "order": 3, "profile_path": null}, {"cast_id": 7, "character": "Murphy", "credit_id": "56676b4a92514173fc0003b0", "gender": 0, "id": 1546601, "name": "Beau Bishop", "order": 4, "profile_path": null}, {"cast_id": 9, "character": "Bucky Ryder", "credit_id": "582506449251417b2c0001dc", "gender": 0, "id": 1706729, "name": "Evans Dietz", "order": 5, "profile_path": null}, {"cast_id": 10, "character": "Dalbert Heiney", "credit_id": "58250659c3a368360b000238", "gender": 0, "id": 1706731, "name": "Edd Anderson", "order": 6, "profile_path": null}, {"cast_id": 11, "character": "", "credit_id": "5825065ec3a368360b000241", "gender": 2, "id": 105374, "name": "Jude Gerard Prest", "order": 7, "profile_path": "/iOXXKpw4LBKPvXfkvSNwkuCMtWX.jpg"}], "crew": [{"credit_id": "56677a20c3a36836a30007ba", "department": "Camera", "gender": 2, "id": 940645, "job": "Director of Photography", "name": "Richard Mann", "profile_path": null}, {"credit_id": "52fe4a0b9251416c750dbe53", "department": "Directing", "gender": 0, "id": 1017290, "job": "Director", "name": "Samuel Bradford", "profile_path": null}, {"credit_id": "52fe4a0b9251416c750dbe59", "department": "Writing", "gender": 0, "id": 1017290, "job": "Writer", "name": "Samuel Bradford", "profile_path": null}]}}