{"adult": false, "backdrop_path": "/yPXPLA1WPKBgs0IzyDqGfEXG7Sv.jpg", "belongs_to_collection": null, "budget": 1600000, "genres": [{"id": 18, "name": "Drama"}], "homepage": null, "id": 98632, "imdb_id": "tt0068920", "original_language": "en", "original_title": "Antony and Cleopatra", "overview": "Adaptation of Shakespeare's Antony and Cleopatra, a historical drama that attempts to bring an epic visual style to the Bard's original stage play. The story concerns Marc Antony's attempts to rule Rome while maintaining a relationship with the queen of Egypt (Hildegarde Neil), which began while Antony was still married. Now he is being forced to marry the sister of his Roman co-leader, and soon the conflict leads to war.", "popularity": 3.003, "poster_path": "/jRlEEoJmfgvjuiXOCofsDNVv420.jpg", "production_companies": [{"id": 108863, "logo_path": null, "name": "Folio Films", "origin_country": ""}, {"id": 364, "logo_path": null, "name": "The Rank Organisation", "origin_country": ""}, {"id": 108864, "logo_path": null, "name": "Transac", "origin_country": ""}, {"id": 1377, "logo_path": null, "name": "\u00cdzaro Films", "origin_country": ""}], "production_countries": [{"iso_3166_1": "ES", "name": "Spain"}, {"iso_3166_1": "CH", "name": "Switzerland"}, {"iso_3166_1": "GB", "name": "United Kingdom"}], "release_date": "1972-03-18", "revenue": 0, "runtime": 138, "spoken_languages": [{"iso_639_1": "en", "name": "English"}], "status": "Released", "tagline": "", "title": "Antony and Cleopatra", "video": false, "vote_average": 6.3, "vote_count": 4, "keywords": {"keywords": [{"id": 497, "name": "william shakespeare"}, {"id": 6715, "name": "cleopatra"}]}, "similar": {"page": 1, "results": [{"id": 504949, "video": false, "vote_count": 917, "vote_average": 7.2, "title": "The King", "release_date": "2019-10-11", "original_language": "en", "original_title": "The King", "genre_ids": [18, 36, 10752], "backdrop_path": "/r0AWsZ9dBvC2No3kND9nxv3iRbb.jpg", "adult": false, "overview": "England, 15th century. Hal, a capricious prince who lives among the populace far from court, is forced by circumstances to reluctantly accept the throne and become Henry V.", "poster_path": "/8u0QBGUbZcBW59VEAdmeFl9g98N.jpg", "popularity": 21.272}, {"id": 207, "video": false, "vote_count": 6557, "vote_average": 8.3, "title": "Dead Poets Society", "release_date": "1989-06-02", "original_language": "en", "original_title": "Dead Poets Society", "genre_ids": [18], "backdrop_path": "/34DzJKMrzgc3EO1Dnbp6mkpbCZm.jpg", "adult": false, "overview": "At an elite, old-fashioned boarding school in New England, a passionate English teacher inspires his students to rebel against convention and seize the potential of every day, courting the disdain of the stern headmaster.", "poster_path": "/3Ri2GReavqSHqWemlP6HYn8i2P9.jpg", "popularity": 23.847}, {"id": 45772, "video": false, "vote_count": 1217, "vote_average": 5.8, "title": "Gnomeo & Juliet", "release_date": "2011-01-13", "original_language": "en", "original_title": "Gnomeo & Juliet", "genre_ids": [16, 10751], "backdrop_path": "/5VDfdJBofpvXAMtaHTT8YFE0lru.jpg", "adult": false, "overview": "A version of Shakespeare's play, set in the world of warring indoor and outdoor gnomes. Garden gnomes Gnomeo and Juliet have as many obstacles to overcome as their quasi namesakes when they are caught up in a feud between neighbors. But with plastic pink flamingos and lawnmower races in the mix, can this young couple find lasting happiness?", "poster_path": "/atCBHTqq7khw5Z1KSVXDo6ncKWF.jpg", "popularity": 30.988}, {"id": 42314, "video": false, "vote_count": 73, "vote_average": 6.9, "title": "Looking for Richard", "release_date": "1996-10-11", "original_language": "en", "original_title": "Looking for Richard", "genre_ids": [99], "backdrop_path": "/7qdxm509oFNaWENfpRoaKLpla0A.jpg", "adult": false, "overview": "Al Pacino's deeply-felt rumination on Shakespeare's significance and relevance to the modern world through interviews and an in-depth analysis of \"Richard III.\"", "poster_path": "/2iEgEoMP1S2YWKkYkwm8cgg2bBN.jpg", "popularity": 21.001}, {"adult": false, "backdrop_path": "/a8yYZd7vECN3myX8dJiXOlN2bgf.jpg", "genre_ids": [16, 10751, 14], "id": 370567, "original_language": "en", "original_title": "Sherlock Gnomes", "overview": "Garden gnomes, Gnomeo & Juliet, recruit renown detective, Sherlock Gnomes, to investigate the mysterious disappearance of other garden ornaments.", "poster_path": "/wqnzpJR3PwS4doVkAkt9seSEpoX.jpg", "release_date": "2018-03-15", "title": "Sherlock Gnomes", "video": false, "vote_average": 5.5, "vote_count": 408, "popularity": 16.328}, {"id": 2899, "video": false, "vote_count": 1973, "vote_average": 7.4, "title": "Asterix & Obelix: Mission Cleopatra", "release_date": "2002-01-29", "original_language": "fr", "original_title": "Ast\u00e9rix & Ob\u00e9lix Mission Cl\u00e9op\u00e2tre", "genre_ids": [12, 35, 14, 10751], "backdrop_path": "/2g6rIEw3t8ZWzMRlDlgXFr8pAlB.jpg", "adult": false, "overview": "The Egyptian Queen Cleopatra bets against the Roman Emperor, Julius Caesar, that her people are still great, even if the times of the Pharaohs has long passed. She vows (against all logic) to build a new palace for Caesar within three months. Since all her architects are either busy otherwise or too conservative in style, this ambivalent honor falls to Edifis. He is to build the palace and be covered in gold or, if not, his fate is to be eaten by crocodiles. Edifis calls upon an old friend to help him out: The fabulous Druid Getafix from Gaul, who brews a fantastic potion that gives supernatural strength. In order to help and protect the old Druid, Asterix and Obelix accompany him on his journey to Egypt. When Julius Caesar gets wind of the project succeeding, he has the building site attacked by his troops in order to win the bet and not lose face. But just like the local pirates, he hasn't counted on Asterix and Obelix.", "poster_path": "/qWy5b64SoBXcMDdfgLyLZgIHSdv.jpg", "popularity": 20.077}, {"adult": false, "backdrop_path": "/oi5EvMTKxhUngCveced3dwx1ctF.jpg", "genre_ids": [35, 10749, 18], "id": 4951, "original_language": "en", "original_title": "10 Things I Hate About You", "overview": "On the first day at his new school, Cameron instantly falls for Bianca, the gorgeous girl of his dreams. The only problem is that Bianca is forbidden to date until her ill-tempered, completely un-dateable older sister Kat goes out, too. In an attempt to solve his problem, Cameron singles out the only guy who could possibly be a match for Kat: a mysterious bad boy with a nasty reputation of his own.", "poster_path": "/paS5plbzKz3PYddxky6svYYz3hS.jpg", "release_date": "1999-03-30", "title": "10 Things I Hate About You", "video": false, "vote_average": 7.5, "vote_count": 4541, "popularity": 24.836}, {"id": 20662, "video": false, "vote_count": 2836, "vote_average": 6.3, "title": "Robin Hood", "release_date": "2010-05-12", "original_language": "en", "original_title": "Robin Hood", "genre_ids": [28, 12, 18], "backdrop_path": "/avhEibZxIr8NzHQFBjw3FjLjN7u.jpg", "adult": false, "overview": "When soldier Robin happens upon the dying Robert of Loxley, he promises to return the man's sword to his family in Nottingham. There, he assumes Robert's identity; romances his widow, Marion; and draws the ire of the town's sheriff and King John's henchman, Godfrey.", "poster_path": "/4gH0vhyOcl7QV3t81653CpWjEB6.jpg", "popularity": 20.802}, {"adult": false, "backdrop_path": "/tS3ms6HM52hLLU3eRdjVPSgSS4w.jpg", "genre_ids": [18, 36, 10749], "id": 8095, "original_language": "en", "original_title": "Cleopatra", "overview": "Determined to hold on to the throne, Cleopatra seduces the Roman emperor Julius Caesar. When Caesar is murdered, she redirects her attentions to his general, Marc Antony, who vows to take power\u2014but Caesar\u2019s successor has other plans.", "poster_path": "/bj7rUGUewofA9cpHt1h36gvDFfy.jpg", "release_date": "1963-06-12", "title": "Cleopatra", "video": false, "vote_average": 7.0, "vote_count": 312, "popularity": 17.932}, {"id": 11162, "video": false, "vote_count": 321, "vote_average": 6.8, "title": "The Merchant of Venice", "release_date": "2004-12-03", "original_language": "en", "original_title": "The Merchant of Venice", "genre_ids": [18, 10749], "backdrop_path": "/8lSVc8ZP6yscNdgiQx4Yp488ECf.jpg", "adult": false, "overview": "Venice, 1596. Bassanio begs his friend Antonio, a prosperous merchant, to lend him a large sum of money so that he can woo Portia, a very wealthy heiress; but Antonio has invested his fortune abroad, so they turn to Shylock, a Jewish moneylender, and ask him for a loan.", "poster_path": "/2Gwt9W6SSxIqxsVnsiqg49D5A6l.jpg", "popularity": 9.491}, {"id": 10549, "video": false, "vote_count": 248, "vote_average": 7.5, "title": "Hamlet", "release_date": "1996-12-25", "original_language": "en", "original_title": "Hamlet", "genre_ids": [18], "backdrop_path": "/9kkzRKwGKTVWNFBMruCT3RKUrzx.jpg", "adult": false, "overview": "Hamlet, Prince of Denmark, returns home to find his father murdered and his mother now marrying the murderer... his uncle. Meanwhile, war is brewing.", "poster_path": "/ilurgUOp6SCl4cuhfjctj1qxlfZ.jpg", "popularity": 11.557}, {"id": 9929, "video": false, "vote_count": 484, "vote_average": 7.0, "title": "Asterix and Cleopatra", "release_date": "1968-12-16", "original_language": "fr", "original_title": "Ast\u00e9rix et Cl\u00e9op\u00e2tre", "genre_ids": [12, 16, 35, 10751], "backdrop_path": "/fvoaw9HwExoCSOloM301vBW0rIM.jpg", "adult": false, "overview": "Popular animated hero Asterix and his faithful sidekick Obelix travel to ancient Egypt to help Cleopatra build a new summer home. Cleopatra and Julius Caesar have made a bet, with Caesar wagering the project cannot be completed in a few weeks time. With the help of a magic potion, Asterix comes to the rescue of the Queen of the Nile as Caesar and an angry architect plot against them.", "poster_path": "/gNpKAmWFsCiWKKx39Ap8pF7EWQg.jpg", "popularity": 16.513}, {"id": 10705, "video": false, "vote_count": 173, "vote_average": 7.4, "title": "Henry V", "release_date": "1989-10-05", "original_language": "en", "original_title": "Henry V", "genre_ids": [18, 36, 10752], "backdrop_path": "/usbfKNeqx5FrHByBf7Fzf9WDuIl.jpg", "adult": false, "overview": "Gritty adaption of William Shakespeare's play about the English King's bloody conquest of France.", "poster_path": "/lGvLBxPDSqBbrvZBmbKFEi91QDo.jpg", "popularity": 9.077}, {"id": 1934, "video": false, "vote_count": 1910, "vote_average": 6.9, "title": "Shakespeare in Love", "release_date": "1998-12-11", "original_language": "en", "original_title": "Shakespeare in Love", "genre_ids": [35, 36, 10749], "backdrop_path": "/qvhpBNfb53wLnEbVnmC5GNGFRHO.jpg", "adult": false, "overview": "Young Shakespeare is forced to stage his latest comedy, \"Romeo and Ethel, the Pirate's Daughter,\" before it's even written. When a lovely noblewoman auditions for a role, they fall into forbidden love -- and his play finds a new life (and title). As their relationship progresses, Shakespeare's comedy soon transforms into tragedy.", "poster_path": "/sAN5jedynbs3pa3ww0UXQ1k0lRF.jpg", "popularity": 13.21}, {"id": 11316, "video": false, "vote_count": 134, "vote_average": 6.9, "title": "Macbeth", "release_date": "1971-12-20", "original_language": "en", "original_title": "Macbeth", "genre_ids": [18, 10752], "backdrop_path": "/isyOwiSRyLRFXdsMn0UiA7mQbXV.jpg", "adult": false, "overview": "Scotland, 11th century. Driven by the twisted prophecy of three witches and the ruthless ambition of his wife, warlord Macbeth, bold and brave, but also weak and hesitant, betrays his good king and his brothers in arms and sinks into the bloody mud of a path with no return, sown with crime and suspicion.", "poster_path": "/6dveJH0aZe6qjiUrbr3dIyLLoAl.jpg", "popularity": 10.234}, {"adult": false, "backdrop_path": "/stSaFz5CtMXwIj3r4MDjqxqWRot.jpg", "genre_ids": [18, 12], "id": 468, "original_language": "en", "original_title": "My Own Private Idaho", "overview": "In this loose adaptation of Shakespeare's \"Henry IV,\" Mike Waters is a gay hustler afflicted with narcolepsy. Scott Favor is the rebellious son of a mayor. Together, the two travel from Portland, Oregon to Idaho and finally to the coast of Italy in a quest to find Mike's estranged mother. Along the way they turn tricks for money and drugs, eventually attracting the attention of a wealthy benefactor and sexual deviant.", "poster_path": "/xgWJPruxsL2TGVwhZDM8YiarbEY.jpg", "release_date": "1991-02-01", "title": "My Own Private Idaho", "video": false, "vote_average": 7.1, "vote_count": 524, "popularity": 14.658}, {"id": 31174, "video": false, "vote_count": 83, "vote_average": 6.8, "title": "Richard III", "release_date": "1995-12-29", "original_language": "en", "original_title": "Richard III", "genre_ids": [18, 10752], "backdrop_path": "/uCGFpcWrZSoSOJyzH5ag5m4svf5.jpg", "adult": false, "overview": "A murderous lust for the British throne sees Richard III (Ian McKellen) descend into madness. Though the setting is transposed to the 1930s, England is torn by civil war, split between the rivaling houses of York and Lancaster. Richard aspires to a fascist dictatorship, but must first remove the obstacles to his ascension -- among them his brother, his nephews and his brother's wife (Annette Bening). When the Duke of Buckingham (Jim Broadbent) deserts him, Richard's plans are compromised.", "poster_path": "/e8nuS9GQoSFaqld4hW5erk2ccag.jpg", "popularity": 6.62}, {"id": 986, "video": false, "vote_count": 74, "vote_average": 7.3, "title": "Chimes at Midnight", "release_date": "1965-12-22", "original_language": "en", "original_title": "Campanadas de medianoche", "genre_ids": [35, 18, 36], "backdrop_path": "/15ap1Fi1ZR4xdE6wcZrlVt6W5rf.jpg", "adult": false, "overview": "The career of Shakespeare's Sir John Falstaff as roistering companion to young Prince Hal, circa 1400-1413.", "poster_path": "/5o4GubdnLhuZytMIbvoQhj8S7lA.jpg", "popularity": 6.478}, {"id": 11645, "video": false, "vote_count": 683, "vote_average": 8.1, "title": "Ran", "release_date": "1985-06-01", "original_language": "ja", "original_title": "\u4e71", "genre_ids": [28, 18, 36], "backdrop_path": "/3QWR9tyxLtCz7xANh7nyIxYPISp.jpg", "adult": false, "overview": "With Ran, legendary director Akira Kurosawa reimagines Shakespeare's King Lear as a singular historical epic set in sixteenth-century Japan. Majestic in scope, the film is Kurosawa's late-life masterpiece, a profound examination of the folly of war and the crumbling of one family under the weight of betrayal, greed, and the insatiable thirst for power.", "poster_path": "/dwYUbrcQAyshW22yoUTzWwwC67b.jpg", "popularity": 13.332}, {"adult": false, "backdrop_path": "/tFfucMJh4Me1JYBIRJcOokWWuLs.jpg", "genre_ids": [18], "id": 23383, "original_language": "en", "original_title": "Hamlet", "overview": "Winner of four Academy Awards, including Best Picture and Best Actor, Sir Laurence Olivier\u2019s Hamlet continues to be the most compelling version of Shakespeare\u2019s beloved tragedy. Olivier is at his most inspired\u2014both as director and as the melancholy Dane himself\u2014as he breathes new life into the words of one of the world\u2019s greatest dramatists.", "poster_path": "/woO9SgU2vTRMZeG0YqOLeoIqlzC.jpg", "release_date": "1948-03-25", "title": "Hamlet", "video": false, "vote_average": 7.6, "vote_count": 105, "popularity": 9.358}], "total_pages": 16, "total_results": 308}, "recommendations": {"page": 1, "results": [], "total_pages": 1, "total_results": 0}, "credits": {"cast": [{"cast_id": 2, "character": "Marc Antony", "credit_id": "52fe4a1e9251416c750de445", "gender": 2, "id": 10017, "name": "Charlton Heston", "order": 0, "profile_path": "/yqmVz8wDDpb49SYdNNrmuEm9YL0.jpg"}, {"cast_id": 3, "character": "Cleopatra", "credit_id": "52fe4a1e9251416c750de449", "gender": 1, "id": 1018924, "name": "Hildegard Neil", "order": 1, "profile_path": "/ny6TqsofQm1EWXN0dZWnOpHSavo.jpg"}, {"cast_id": 4, "character": "Enobarbus", "credit_id": "52fe4a1e9251416c750de44d", "gender": 2, "id": 39955, "name": "Eric Porter", "order": 2, "profile_path": "/o5FEY5W5hr9KCNSNl38J6GXXIQk.jpg"}, {"cast_id": 5, "character": "", "credit_id": "534cde8d0e0a2661b7000b9d", "gender": 2, "id": 15198, "name": "John Castle", "order": 3, "profile_path": "/yXMWGwbbMB67Gt0EAFMfN4kxA8W.jpg"}, {"cast_id": 6, "character": "", "credit_id": "534cde9e0e0a2661b9000b3a", "gender": 2, "id": 14821, "name": "Fernando Rey", "order": 4, "profile_path": "/dK8oBtRU5z8pA0LvMqh09leXQVc.jpg"}], "crew": [{"credit_id": "5b5c8f9fc3a3684224016770", "department": "Writing", "gender": 2, "id": 6210, "job": "Theatre Play", "name": "William Shakespeare", "profile_path": "/2z4njqosEQM4g26ttb9grG9rJUg.jpg"}, {"credit_id": "5e179ed8c2f44b0012bf6ebd", "department": "Writing", "gender": 2, "id": 6210, "job": "Writer", "name": "William Shakespeare", "profile_path": "/2z4njqosEQM4g26ttb9grG9rJUg.jpg"}, {"credit_id": "5b5c8f940e0a262e9f0165fa", "department": "Writing", "gender": 2, "id": 10017, "job": "Screenplay", "name": "Charlton Heston", "profile_path": "/yqmVz8wDDpb49SYdNNrmuEm9YL0.jpg"}, {"credit_id": "52fe4a1e9251416c750de441", "department": "Directing", "gender": 2, "id": 10017, "job": "Director", "name": "Charlton Heston", "profile_path": "/yqmVz8wDDpb49SYdNNrmuEm9YL0.jpg"}, {"credit_id": "5e102680d64ac200186035f9", "department": "Sound", "gender": 2, "id": 29056, "job": "Music", "name": "John Scott", "profile_path": null}, {"credit_id": "5b5c8fcc9251415227015dce", "department": "Editing", "gender": 0, "id": 29668, "job": "Editor", "name": "Eric Boyd-Perkins", "profile_path": null}, {"credit_id": "5b5c8fafc3a368422f01907b", "department": "Production", "gender": 0, "id": 229385, "job": "Producer", "name": "Peter Snell", "profile_path": null}, {"credit_id": "5b5c8fe70e0a262ea1017880", "department": "Costume & Make-Up", "gender": 1, "id": 1028057, "job": "Costume Design", "name": "Wendy Dickson", "profile_path": null}, {"credit_id": "5b5c8fbfc3a368421b018ab6", "department": "Camera", "gender": 2, "id": 1090581, "job": "Director of Photography", "name": "Rafael Pacheco", "profile_path": null}]}}