{"adult": false, "backdrop_path": "/vUOLIVmTBEij0aO1NVTcSRvti80.jpg", "belongs_to_collection": null, "budget": 0, "genres": [{"id": 80, "name": "Crime"}, {"id": 53, "name": "Thriller"}], "homepage": null, "id": 9898, "imdb_id": "tt0756672", "original_language": "en", "original_title": "The Killing Floor", "overview": "A literary agent moves into a penthouse apartment. Soon after the move, he receives crime scene photographs that seem to have taken place in his new apartment. Next he receives a series of stalker videotapes that document his every move.", "popularity": 5.067, "poster_path": "/V6QdGytX9IK62WrPCjphVWcQTp.jpg", "production_companies": [], "production_countries": [{"iso_3166_1": "US", "name": "United States of America"}], "release_date": "2007-05-10", "revenue": 0, "runtime": 94, "spoken_languages": [{"iso_639_1": "en", "name": "English"}], "status": "Released", "tagline": "", "title": "The Killing Floor", "video": false, "vote_average": 5.6, "vote_count": 20, "keywords": {"keywords": [{"id": 10226, "name": "neighbor"}, {"id": 18420, "name": "surveillance"}, {"id": 177185, "name": "videotape"}]}, "similar": {"page": 1, "results": [{"id": 156022, "video": false, "vote_count": 5466, "vote_average": 7.2, "title": "The Equalizer", "release_date": "2014-09-24", "original_language": "en", "original_title": "The Equalizer", "genre_ids": [28, 80, 53], "backdrop_path": "/vbl4ZVqelrrzJ16fdDOq9siWbpi.jpg", "adult": false, "overview": "McCall believes he has put his mysterious past behind him and dedicated himself to beginning a new, quiet life. But when he meets Teri, a young girl under the control of ultra-violent Russian gangsters, he can\u2019t stand idly by \u2013 he has to help her. Armed with hidden skills that allow him to serve vengeance against anyone who would brutalize the helpless, McCall comes out of his self-imposed retirement and finds his desire for justice reawakened. If someone has a problem, if the odds are stacked against them, if they have nowhere else to turn, McCall will help. He is The Equalizer.", "poster_path": "/2eQfjqlvPAxd9aLDs8DvsKLnfed.jpg", "popularity": 38.079}, {"id": 1493, "video": false, "vote_count": 2182, "vote_average": 6.4, "title": "Miss Congeniality", "release_date": "2000-12-14", "original_language": "en", "original_title": "Miss Congeniality", "genre_ids": [28, 35, 80], "backdrop_path": "/p25mxAO1ArY8bgZX6Y7B2r3vo0k.jpg", "adult": false, "overview": "When the local FBI office receives a letter from a terrorist known only as 'The Citizen', it's quickly determined that he's planning his next act at the Miss America beauty pageant. Because tough-as-nails Gracie Hart is the only female Agent at the office, she's chosen to go undercover as the contestant from New Jersey.", "poster_path": "/7ujgPH708pOGvl2Y5IYvXeAGPC2.jpg", "popularity": 18.238}, {"id": 72559, "video": false, "vote_count": 4090, "vote_average": 5.5, "title": "G.I. Joe: Retaliation", "release_date": "2013-03-26", "original_language": "en", "original_title": "G.I. Joe: Retaliation", "genre_ids": [28, 12, 878, 53], "backdrop_path": "/b9OVFl48ZV2oTLzACSwBpNrCUhJ.jpg", "adult": false, "overview": "Framed for crimes against the country, the G.I. Joe team is terminated by Presidential order. This forces the G.I. Joes into not only fighting their mortal enemy Cobra; they are forced to contend with threats from within the government that jeopardize their very existence.", "poster_path": "/iFWxbu2LLtfaWv6D1TSrY11huTe.jpg", "popularity": 20.171}, {"id": 567, "video": false, "vote_count": 3301, "vote_average": 8.3, "title": "Rear Window", "release_date": "1954-08-01", "original_language": "en", "original_title": "Rear Window", "genre_ids": [18, 9648, 53], "backdrop_path": "/8hknli2ljweYPkdEgl33vtJBf2U.jpg", "adult": false, "overview": "Professional photographer L.B. 'Jeff' Jeffries breaks his leg while getting an action shot at an auto race. Confined to his New York apartment, he spends his time looking out of the rear window observing the neighbors. When he begins to suspect that a man across the courtyard may have murdered his wife, Jeff enlists the help of his high society fashion-consultant girlfriend and his visiting nurse to investigate.", "poster_path": "/oXbT7vlLmZ76kWoHe5XJYuyJUgp.jpg", "popularity": 23.326}, {"adult": false, "backdrop_path": "/fwreQBx5CD55c1DpH117cS8915P.jpg", "genre_ids": [18, 53], "id": 867, "original_language": "en", "original_title": "Sliver", "overview": "A woman moves into an apartment in Manhattan and learns that the previous tenant's life ended mysteriously after they fell from the balcony.", "poster_path": "/av21Dfu31DQPtp5jkorMMS58rQC.jpg", "release_date": "1993-05-21", "title": "Sliver", "video": false, "vote_average": 5.3, "vote_count": 286, "popularity": 19.627}, {"id": 302401, "video": false, "vote_count": 2710, "vote_average": 7.1, "title": "Snowden", "release_date": "2016-09-15", "original_language": "en", "original_title": "Snowden", "genre_ids": [80, 18, 36, 53], "backdrop_path": "/qzGFm7uF1HExPUAcAPwC3Hzk5WR.jpg", "adult": false, "overview": "CIA employee Edward Snowden leaks thousands of classified documents to the press.", "poster_path": "/mWOotrG1MMKP9iCy2uPepbu27jk.jpg", "popularity": 18.683}, {"id": 137094, "video": false, "vote_count": 1850, "vote_average": 6.1, "title": "Jack Ryan: Shadow Recruit", "release_date": "2014-01-15", "original_language": "en", "original_title": "Jack Ryan: Shadow Recruit", "genre_ids": [28, 18, 53], "backdrop_path": "/7WURHOyx05AWAoNcBGp72clvB49.jpg", "adult": false, "overview": "Jack Ryan, as a young covert CIA analyst, uncovers a Russian plot to crash the U.S. economy with a terrorist attack.", "poster_path": "/jBibISmRBUO35p0Picv0nOo33sc.jpg", "popularity": 23.316}, {"id": 101, "video": false, "vote_count": 8645, "vote_average": 8.3, "title": "L\u00e9on: The Professional", "release_date": "1994-09-14", "original_language": "en", "original_title": "L\u00e9on: The Professional", "genre_ids": [28, 80, 18], "backdrop_path": "/dXQ7HILRK1Tg33RT64JwbQI7Osh.jpg", "adult": false, "overview": "L\u00e9on, the top hit man in New York, has earned a rep as an effective \"cleaner\". But when his next-door neighbors are wiped out by a loose-cannon DEA agent, he becomes the unwilling custodian of 12-year-old Mathilda. Before long, Mathilda's thoughts turn to revenge, and she considers following in L\u00e9on's footsteps.", "poster_path": "/gE8S02QUOhVnAmYu4tcrBlMTujz.jpg", "popularity": 42.005}, {"adult": false, "backdrop_path": "/5UhVmv70qTfy7YSf8r87kNXWxjK.jpg", "genre_ids": [18, 53, 9648], "id": 638, "original_language": "en", "original_title": "Lost Highway", "overview": "A tormented jazz musician finds himself lost in an enigmatic story involving murder, surveillance, gangsters, doppelgangers, and an impossible transformation inside a prison cell.", "poster_path": "/z6yhgEzGUJaBBgAxoyggRzwLnVM.jpg", "release_date": "1997-01-15", "title": "Lost Highway", "video": false, "vote_average": 7.6, "vote_count": 1277, "popularity": 16.545}, {"id": 2320, "video": false, "vote_count": 457, "vote_average": 6.2, "title": "Executive Decision", "release_date": "1996-03-15", "original_language": "en", "original_title": "Executive Decision", "genre_ids": [28, 12, 18, 53], "backdrop_path": "/bjVntRO9QkAwm1HzTfH1nn1nOpn.jpg", "adult": false, "overview": "Terrorists hijack a 747 inbound to Washington D.C., demanding the the release of their imprisoned leader. Intelligence expert David Grant (Kurt Russell) suspects another reason and he is soon the reluctant member of a special assault team that is assigned to intercept the plane and hijackers.", "poster_path": "/wmgkFuEr8bHRAgs1HS5U46Rzo0I.jpg", "popularity": 14.601}, {"id": 445571, "video": false, "vote_count": 3242, "vote_average": 6.9, "title": "Game Night", "release_date": "2018-02-22", "original_language": "en", "original_title": "Game Night", "genre_ids": [35, 80, 9648], "backdrop_path": "/4hU1pC7MGQ7wU9ldkRJYNHK3vgb.jpg", "adult": false, "overview": "Max and Annie's weekly game night gets kicked up a notch when Max's brother Brooks arranges a murder mystery party -- complete with fake thugs and federal agents. So when Brooks gets kidnapped, it's all supposed to be part of the game. As the competitors set out to solve the case, they start to learn that neither the game nor Brooks are what they seem to be. The friends soon find themselves in over their heads as each twist leads to another unexpected turn over the course of one chaotic night.", "poster_path": "/85R8LMyn9f2Lev2YPBF8Nughrkv.jpg", "popularity": 22.952}, {"id": 11974, "video": false, "vote_count": 611, "vote_average": 6.8, "title": "The 'Burbs", "release_date": "1989-02-17", "original_language": "en", "original_title": "The 'Burbs", "genre_ids": [35, 27, 53], "backdrop_path": "/yCOTJnV7I0UcusTycv5bGEDQ5ll.jpg", "adult": false, "overview": "When secretive new neighbors move in next door, suburbanite Ray Peterson and his friends let their paranoia get the best of them as they start to suspect the newcomers of evildoings and commence an investigation. But it's hardly how Ray, who much prefers drinking beer, reading his newspaper and watching a ball game on the tube expected to spend his vacation.", "poster_path": "/zPEECSo5ZOBr9oEmBLSVXcqndTO.jpg", "popularity": 12.904}, {"adult": false, "backdrop_path": "/4UIjazRJV5Q2D7gYg9NS1BGiFdU.jpg", "genre_ids": [80, 18, 53, 9648], "id": 1073, "original_language": "en", "original_title": "Arlington Road", "overview": "Threats from sinister foreign nationals aren't the only thing to fear. Bedraggled college professor Michael Faraday has been vexed (and increasingly paranoid) since his wife's accidental death in a botched FBI operation. But all that takes a backseat when a seemingly all-American couple set up house next door.", "poster_path": "/jMwDRI4qu5FrSAzf7BfNveuRVf9.jpg", "release_date": "1999-03-19", "title": "Arlington Road", "video": false, "vote_average": 7.1, "vote_count": 521, "popularity": 9.656}, {"adult": false, "backdrop_path": "/6xe5Q0w3nedZSE6J8pY0QGBj97Q.jpg", "genre_ids": [18], "id": 179307, "original_language": "en", "original_title": "Video Voyeur: The Susan Wilson Story", "overview": "A Louisiana woman discovers that a trusted neighbor has installed video surveillance equipment in her home to spy on her family. As a result, the real-life Wilson lobbied for a 1999 state law passed in nine other states since making video voyeurism a felony.", "poster_path": "/dyjK6oU2L3WQpjaqu4axfe1Ken3.jpg", "release_date": "2002-01-21", "title": "Video Voyeur: The Susan Wilson Story", "video": false, "vote_average": 5.4, "vote_count": 8, "popularity": 8.028}, {"id": 592, "video": false, "vote_count": 753, "vote_average": 7.6, "title": "The Conversation", "release_date": "1974-04-07", "original_language": "en", "original_title": "The Conversation", "genre_ids": [80, 18, 9648], "backdrop_path": "/u8dMKtP9QShwJoMyu9tdOhashyn.jpg", "adult": false, "overview": "Surveillance expert Harry Caul is hired by a mysterious client's brusque aide to tail a young couple. Tracking the pair through San Francisco's Union Square, Caul and his associate Stan manage to record a cryptic conversation between them. Tormented by memories of a previous case that ended badly, Caul becomes obsessed with the resulting tape, trying to determine if the couple are in danger.", "poster_path": "/dhgW1uGaRj8vIgq54VnCP96X7Sv.jpg", "popularity": 9.96}, {"id": 9798, "video": false, "vote_count": 2135, "vote_average": 6.9, "title": "Enemy of the State", "release_date": "1998-11-20", "original_language": "en", "original_title": "Enemy of the State", "genre_ids": [28, 18, 53], "backdrop_path": "/5zIxXANoUCVMFu9YFhHejmnSmhY.jpg", "adult": false, "overview": "A hotshot Washington criminal lawyer becomes the target of a rogue security executive videotaped in the act of murdering a congressman when the incriminating tape is surreptitiously slipped into his shopping bag by the videographer, who is fleeing the executive's assassins.", "poster_path": "/2B0vLBo6gJbnzke4Enc77GCxKrz.jpg", "popularity": 16.944}, {"id": 1265, "video": false, "vote_count": 2704, "vote_average": 7.2, "title": "Bridge to Terabithia", "release_date": "2007-02-16", "original_language": "en", "original_title": "Bridge to Terabithia", "genre_ids": [12, 18, 10751], "backdrop_path": "/t45osFg8w2Kh7BzgYl1iYgi8IxF.jpg", "adult": false, "overview": "Jesse Aarons trained all summer to become the fastest runner in school, so he's very upset when newcomer Leslie Burke outruns him and everyone else. Despite this and other differences, including that she's rich, he's poor, and she's a city girl, he's a country boy, the two become fast friends. Together, they create Terabithia, a land of monsters, trolls, ogres, and giants and rule as king and queen.", "poster_path": "/gihMBO2SmUprI1ecYe7Eo7Eg1yq.jpg", "popularity": 19.916}, {"adult": false, "backdrop_path": "/fAA0S3rM3o5Sp8TIdS0MvWOGsCQ.jpg", "genre_ids": [18, 10749], "id": 843, "original_language": "cn", "original_title": "\u82b1\u6a23\u5e74\u83ef", "overview": "Taking place in Hong Kong of 1962, a melancholy story about the love between a woman and a man who live in the same building and one day find out that their husband and wife had an affair with each other.", "poster_path": "/unOW3SxFxBdd7LMWjmRONdHWKPb.jpg", "release_date": "2000-05-22", "title": "In the Mood for Love", "video": false, "vote_average": 8.1, "vote_count": 962, "popularity": 15.474}, {"id": 5825, "video": false, "vote_count": 1261, "vote_average": 7.2, "title": "National Lampoon's Christmas Vacation", "release_date": "1989-12-01", "original_language": "en", "original_title": "National Lampoon's Christmas Vacation", "genre_ids": [35], "backdrop_path": "/o5yflApN9GuOkmnv6O9l4z83U5F.jpg", "adult": false, "overview": "It's Christmas time and the Griswolds are preparing for a family seasonal celebration, but things never run smoothly for Clark, his wife Ellen and their two kids. Clark's continual bad luck is worsened by his obnoxious family guests, but he manages to keep going knowing that his Christmas bonus is due soon.", "poster_path": "/uh2sQFjRXCwexWcBtV7OEnL1c5G.jpg", "popularity": 21.754}, {"id": 325133, "video": false, "vote_count": 3095, "vote_average": 5.7, "title": "Neighbors 2: Sorority Rising", "release_date": "2016-05-04", "original_language": "en", "original_title": "Neighbors 2: Sorority Rising", "genre_ids": [35], "backdrop_path": "/8HuO1RMDI3prfWDkF7t1y8EhLVO.jpg", "adult": false, "overview": "A sorority moves in next door to the home of Mac and Kelly Radner who have a young child. The Radner's enlist their former nemeses from the fraternity to help battle the raucous sisters.", "poster_path": "/bWUeJHbKIyT306WtJFRHoSzX9nk.jpg", "popularity": 21.985}], "total_pages": 16, "total_results": 312}, "recommendations": {"page": 1, "results": [{"adult": false, "backdrop_path": null, "genre_ids": [27, 53], "id": 38246, "original_language": "en", "original_title": "Servants of Twilight", "overview": "Based on the novel by Dean R. Koontz, this action packed thriller features Bruce Greenwood as a private detective hired to protect a little boy from a fanatical religious cult that believe he is the antichrist fortold in the book of Revelations.", "poster_path": "/nd0UMyLza7VnJh2HIvfRLjCZFDM.jpg", "release_date": "1991-05-01", "title": "Servants of Twilight", "video": false, "vote_average": 5.3, "vote_count": 13, "popularity": 4.433}, {"id": 45102, "video": false, "vote_count": 13, "vote_average": 4.5, "title": "House of Fears", "release_date": "2007-10-07", "original_language": "en", "original_title": "House of Fears", "genre_ids": [27, 53], "backdrop_path": "/3BaAGGBSSWrugFaGRdBAB3DNnD9.jpg", "adult": false, "overview": "The night before a local haunted house opens for Halloween, six friends sneak in for a few hours of fun. Soon after entering, they find themselves trapped inside with no way out.", "poster_path": "/mQmq6QsLSvpeFkqNRMxe3G5paKP.jpg", "popularity": 4.254}, {"adult": false, "backdrop_path": null, "genre_ids": [53, 27], "id": 167198, "original_language": "en", "original_title": "The Midnight Game", "overview": "After playing a pagan ritual on a dare, a group of high school students find themselves trapped in an endless cycle of their worst fears.", "poster_path": "/p4Hav1ndkCPWYb6b43xTGmBz4Hh.jpg", "release_date": "2013-03-02", "title": "The Midnight Game", "video": false, "vote_average": 3.1, "vote_count": 9, "popularity": 2.728}, {"adult": false, "backdrop_path": null, "genre_ids": [28, 878, 10770], "id": 53838, "original_language": "en", "original_title": "Painkiller Jane", "overview": "Jane, a young soldier, is exposed to a biochemical weapon that endows her with self-healing powers. She uses her abilities to fight crime while eluding the military.", "poster_path": "/n1IY8waiF78xEmxOIoDUseNhfeo.jpg", "release_date": "2005-12-10", "title": "Painkiller Jane", "video": false, "vote_average": 5.4, "vote_count": 9, "popularity": 4.346}, {"id": 23200, "video": false, "vote_count": 7, "vote_average": 4.7, "title": "Silent Partner", "release_date": "2005-05-26", "original_language": "en", "original_title": "Silent Partner", "genre_ids": [80], "backdrop_path": "/mcekbZUIzReeBvVjxqbryL3RDsI.jpg", "adult": false, "overview": "Gordon Patrick, a young CIA analyst is assigned to investigate the mysterious death of a major Russian political figure.", "poster_path": "/nD3N6bigQooOzosJnsF3yS7M62X.jpg", "popularity": 5.779}, {"id": 44661, "video": false, "vote_count": 10, "vote_average": 6.5, "title": "Storm", "release_date": "1999-09-11", "original_language": "en", "original_title": "Storm", "genre_ids": [53], "backdrop_path": "/o4kDmLbskBvopIOitCCeNZW07p5.jpg", "adult": false, "overview": "A top secret government study involving the manipulation of the weather goes awry, leaving L.A. in the path of a destructive hurricane. A meteorologist sets out to save the city.", "poster_path": "/jIP9IYaukqphbq3HjAzP0F0ylZf.jpg", "popularity": 4.418}, {"adult": false, "backdrop_path": "/deiyEJSPPlYawH8UJL0UeSicXzf.jpg", "genre_ids": [27], "id": 53953, "original_language": "de", "original_title": "The Tooth Fairy", "overview": "A woman and her daughter (Nicole Mu\u00f1oz) encounter a deadly legend at a bed-and-breakfast.", "poster_path": "/hbpu61P92cZMcGDpHvMyRzKlnuj.jpg", "release_date": "2006-08-08", "title": "The Tooth Fairy", "video": false, "vote_average": 4.2, "vote_count": 20, "popularity": 4.033}, {"adult": false, "backdrop_path": "/f4NcrIFikeYiiMBQTvTyO6fsMQF.jpg", "genre_ids": [18, 53], "id": 13979, "original_language": "en", "original_title": "Day Night Day Night", "overview": "A 19 year-old girl prepares to become a suicide bomber in Times Square.", "poster_path": "/psIfot9bFtrPrcCVRDhQr7z6pNl.jpg", "release_date": "2006-05-25", "title": "Day Night Day Night", "video": false, "vote_average": 5.9, "vote_count": 13, "popularity": 3.409}, {"adult": false, "backdrop_path": "/1ksFOa23JTXEGpxLnQg08zY6P3.jpg", "genre_ids": [27, 53], "id": 54525, "original_language": "en", "original_title": "Secrets in the Walls", "overview": "A single mom and her two daughters move from their cramped Detroit apartment to the suburbs but scratching, cries and shadows haunt their new home.", "poster_path": "/kiyCSnwMpekf9Gu3sLGdxcUcAgD.jpg", "release_date": "2010-11-24", "title": "Secrets in the Walls", "video": false, "vote_average": 5.8, "vote_count": 36, "popularity": 4.651}, {"adult": false, "backdrop_path": "/5pxIvfCwZyza5drbGfqpP0lQEtJ.jpg", "genre_ids": [27], "id": 13340, "original_language": "en", "original_title": "Triloquist", "overview": "In 1993, in Hollywood, California, a decadent ventriloquist overdoses and dies, leaving her two children to be sent to a foster house with their dummy. Their lives become a nightmare of abuse and murder, to be avenged by a wrathful dummy.", "poster_path": "/7LR0uVFv3gkonOfkJuOHciZCsG4.jpg", "release_date": "2008-07-15", "title": "Triloquist", "video": false, "vote_average": 5.1, "vote_count": 13, "popularity": 4.602}, {"adult": false, "backdrop_path": null, "genre_ids": [27], "id": 27400, "original_language": "es", "original_title": "Los ritos sexuales del diablo", "overview": "A young woman travels with her partner to England on the unexpected death of her brother. Staying with her sister-in-law, she finds her companion soon drawn into a satanic cult based in the house whose rites seem to centre somewhat on large-scale sexual congress.", "poster_path": "/2lFkG3xi77cPrOc3I9qDx2PYsee.jpg", "release_date": "1982-04-03", "title": "Black Candles", "video": false, "vote_average": 4.0, "vote_count": 10, "popularity": 5.522}, {"adult": false, "backdrop_path": "/k6iyRsofVkP4GEEY7FrPtUJwRQO.jpg", "genre_ids": [27], "id": 90291, "original_language": "en", "original_title": "Stalker", "overview": "When novelist Paula Martin retreats to the seclusion of her family home Crows Hall she hopes to clear her mind and focus on her new book. The arrival of an assistant, Linda, should take the pressure off... but as the bodies pile up, Paula finds herself trapped in a terrifying nightmare of murder and madness.", "poster_path": "/yuyfCrfY5R1QMzvzLs20Fzbm2AS.jpg", "release_date": "2010-10-17", "title": "Stalker", "video": false, "vote_average": 4.1, "vote_count": 11, "popularity": 5.34}, {"adult": false, "backdrop_path": "/5dwoTVh42SAmW6RD4Xx7ASgOCJs.jpg", "genre_ids": [27], "id": 21860, "original_language": "en", "original_title": "Born", "overview": "Mary Elizabeth goes to bed alone one night, still a twenty one year old virgin, and wakes up the next morning pregnant. Possessed by the demon fetus growing within her womb, Mary Elizabeth obeys her homicidal cravings to kill, for the sake of her unborn spawn. Mary Elizabeth's dark transformation is controlled by her unborn demon child's deadly evil cravings.", "poster_path": "/cukGR3vUDNkyDhSQG6ydYJx9144.jpg", "release_date": "2007-01-01", "title": "Born", "video": false, "vote_average": 3.4, "vote_count": 12, "popularity": 5.252}, {"adult": false, "backdrop_path": "/3Oavssw2k2THjPCwjJswjhwOFq9.jpg", "genre_ids": [18, 27, 53], "id": 27258, "original_language": "en", "original_title": "Home Movie", "overview": "Reverend David Poe and his psychiatrist wife trade hectic New York life for an idyllic rural farmhouse; the perfect place for 10 year old twins Jack &amp; Emily to run, play and imagine. Documenting this lifestyle change, David decides to film every holiday and special family event. To the Poe's horror their home movies reveal an increasing malice and evil within their children and by Valentines Day, the children's sadism has turned to a blood lust for human prey.", "poster_path": "/rmac5WmQ9otBSDsdKqye7mvRNur.jpg", "release_date": "2008-07-10", "title": "Home Movie", "video": false, "vote_average": 5.0, "vote_count": 54, "popularity": 7.248}], "total_pages": 1, "total_results": 14}, "credits": {"cast": [{"cast_id": 16, "character": "David Lamont", "credit_id": "52fe4543c3a36847f80c4521", "gender": 2, "id": 46772, "name": "Marc Blucas", "order": 0, "profile_path": "/yrRurFrj9yAwB62vrKpOTjZgMk7.jpg"}, {"cast_id": 17, "character": "Rebecca Fay", "credit_id": "52fe4543c3a36847f80c4525", "gender": 1, "id": 50346, "name": "Shiri Appleby", "order": 1, "profile_path": "/lWy0cDveG1y5DCNRCTAmUGzsIYd.jpg"}, {"cast_id": 18, "character": "Audrey Levine", "credit_id": "52fe4543c3a36847f80c4529", "gender": 1, "id": 25869, "name": "Reiko Aylesworth", "order": 2, "profile_path": "/59Gu57v2rOtvvBA06rSuYX2w5h2.jpg"}, {"cast_id": 24, "character": "Goodman", "credit_id": "52fe4543c3a36847f80c4543", "gender": 0, "id": 60112, "name": "Joel Leffert", "order": 3, "profile_path": null}, {"cast_id": 21, "character": "Jared Thurber", "credit_id": "52fe4543c3a36847f80c4537", "gender": 2, "id": 60113, "name": "Jeffrey Carlson", "order": 4, "profile_path": "/8koO42jnVMCkOZ4yet57mfHlk3k.jpg"}, {"cast_id": 20, "character": "Female Caterer", "credit_id": "52fe4543c3a36847f80c4533", "gender": 0, "id": 60114, "name": "Bethany Butler", "order": 5, "profile_path": null}, {"cast_id": 23, "character": "Bobby Reed", "credit_id": "52fe4543c3a36847f80c453f", "gender": 2, "id": 60115, "name": "Andrew Weems", "order": 6, "profile_path": null}, {"cast_id": 22, "character": "Kathy Mahoni", "credit_id": "52fe4543c3a36847f80c453b", "gender": 1, "id": 60116, "name": "Allison McAtee", "order": 7, "profile_path": "/cV3gGzGDNpHXTfq5lOU857OobmR.jpg"}, {"cast_id": 25, "character": "Executive #2", "credit_id": "52fe4543c3a36847f80c4547", "gender": 1, "id": 60120, "name": "Tina Benko", "order": 8, "profile_path": "/2f43cxamP7eprHmBkHaNAgljWfJ.jpg"}, {"cast_id": 26, "character": "Deputy", "credit_id": "52fe4543c3a36847f80c454b", "gender": 2, "id": 60121, "name": "John Di Benedetto", "order": 9, "profile_path": "/rNCVycLojZ1jO8YFTzLCqCLijIE.jpg"}, {"cast_id": 27, "character": "Detective Martin Soll", "credit_id": "52fe4543c3a36847f80c454f", "gender": 2, "id": 60118, "name": "John Bedford Lloyd", "order": 10, "profile_path": "/oEBXW5cLQ1e2LrPaIug8DwHcSXV.jpg"}, {"cast_id": 28, "character": "Bar patron", "credit_id": "52fe4543c3a36847f80c4553", "gender": 0, "id": 60122, "name": "Rick Borgia", "order": 11, "profile_path": null}, {"cast_id": 29, "character": "Garret Rankin", "credit_id": "52fe4543c3a36847f80c4557", "gender": 2, "id": 60117, "name": "Derek Cecil", "order": 12, "profile_path": "/zFePdUzvVaKFy8jIHJKjoC5WUfj.jpg"}, {"cast_id": 30, "character": "Executive #1", "credit_id": "52fe4543c3a36847f80c455b", "gender": 2, "id": 60119, "name": "Paul Urcioli", "order": 13, "profile_path": "/bZh8Wzu5bi2ebm2ncDsHI5ENxva.jpg"}, {"cast_id": 31, "character": "Ms. Alimet", "credit_id": "52fe4543c3a36847f80c455f", "gender": 1, "id": 10362, "name": "Roberta Maxwell", "order": 14, "profile_path": "/sq4LeTqg7q23RevHzM5bONXQ00h.jpg"}, {"cast_id": 32, "character": "Drunk Party Guest", "credit_id": "52fe4543c3a36847f80c4563", "gender": 0, "id": 60123, "name": "Jason Bushman", "order": 15, "profile_path": null}, {"cast_id": 33, "character": "Office Worker / Civilian", "credit_id": "52fe4543c3a36847f80c4567", "gender": 0, "id": 60126, "name": "Joe Pontillo", "order": 16, "profile_path": null}, {"cast_id": 35, "character": "Corporate Executive", "credit_id": "52fe4543c3a36847f80c456b", "gender": 0, "id": 60124, "name": "Lou D'Amato", "order": 18, "profile_path": null}, {"cast_id": 36, "character": "Party Girl 1", "credit_id": "52fe4543c3a36847f80c456f", "gender": 1, "id": 60127, "name": "Bria Roberts", "order": 19, "profile_path": null}], "crew": [{"credit_id": "52fe4543c3a36847f80c44e1", "department": "Production", "gender": 2, "id": 7626, "job": "Executive Producer", "name": "Avi Arad", "profile_path": "/kIG4HF5LSywU0ZdDheDaEsxxohu.jpg"}, {"credit_id": "52fe4543c3a36847f80c44db", "department": "Production", "gender": 2, "id": 11694, "job": "Executive Producer", "name": "Doug Liman", "profile_path": "/cWpE3dSbskWOea4kAGzQpNIkfxM.jpg"}, {"credit_id": "52fe4543c3a36847f80c44cf", "department": "Writing", "gender": 2, "id": 60098, "job": "Author", "name": "Ryan Swanson", "profile_path": null}, {"credit_id": "53b8234bc3a3685eb7003fee", "department": "Directing", "gender": 2, "id": 60099, "job": "Director", "name": "Gideon Raff", "profile_path": null}, {"credit_id": "53b823bdc3a3685eba003feb", "department": "Production", "gender": 2, "id": 60099, "job": "Producer", "name": "Gideon Raff", "profile_path": null}, {"credit_id": "52fe4543c3a36847f80c44d5", "department": "Writing", "gender": 2, "id": 60099, "job": "Author", "name": "Gideon Raff", "profile_path": null}, {"credit_id": "52fe4543c3a36847f80c44ed", "department": "Production", "gender": 0, "id": 60104, "job": "Producer", "name": "Eden Wurmfeld", "profile_path": null}, {"credit_id": "52fe4543c3a36847f80c44f3", "department": "Sound", "gender": 2, "id": 60102, "job": "Original Music Composer", "name": "Michael Wandmacher", "profile_path": null}, {"credit_id": "52fe4543c3a36847f80c44f9", "department": "Camera", "gender": 1, "id": 60103, "job": "Director of Photography", "name": "Martina Radwan", "profile_path": null}, {"credit_id": "52fe4543c3a36847f80c44ff", "department": "Art", "gender": 0, "id": 60108, "job": "Set Decoration", "name": "Kerith Creo", "profile_path": null}, {"credit_id": "52fe4543c3a36847f80c4505", "department": "Editing", "gender": 0, "id": 60105, "job": "Editor", "name": "Annie L. Amie", "profile_path": null}, {"credit_id": "52fe4543c3a36847f80c450b", "department": "Production", "gender": 0, "id": 60109, "job": "Casting", "name": "Beth Bowling", "profile_path": null}, {"credit_id": "52fe4543c3a36847f80c4511", "department": "Art", "gender": 0, "id": 60106, "job": "Production Design", "name": "Beth Mickle", "profile_path": "/gITVvbBA0OX4wtjovcA42LkvcWe.jpg"}, {"credit_id": "52fe4543c3a36847f80c4517", "department": "Costume & Make-Up", "gender": 0, "id": 60110, "job": "Costume Design", "name": "Erika Munro", "profile_path": null}, {"credit_id": "52fe4543c3a36847f80c451d", "department": "Production", "gender": 0, "id": 60107, "job": "Casting", "name": "Kim Miscia", "profile_path": null}, {"credit_id": "52fe4543c3a36847f80c452f", "department": "Art", "gender": 0, "id": 60111, "job": "Art Direction", "name": "Mike Romano", "profile_path": null}, {"credit_id": "52fe4543c3a36847f80c4575", "department": "Production", "gender": 0, "id": 60128, "job": "Producer", "name": "Ryan Swanson", "profile_path": null}]}}