{"adult": false, "backdrop_path": "/w0Jxj6fEMmXnLJgdrGYhdESkCzq.jpg", "belongs_to_collection": null, "budget": 0, "genres": [{"id": 35, "name": "Comedy"}], "homepage": "", "id": 99236, "imdb_id": "tt0035170", "original_language": "en", "original_title": "Panama Hattie", "overview": "Sailors and spies mingle in between the acts at Hattie's nightclub in the Canal Zone.", "popularity": 2.488, "poster_path": "/qPlfHnTWOxcTm8nIm64jfPx4lLN.jpg", "production_companies": [{"id": 21, "logo_path": "/mjofSXiHpG5t6KYmU4l4FrUhT7m.png", "name": "Metro-Goldwyn-Mayer", "origin_country": "US"}], "production_countries": [{"iso_3166_1": "US", "name": "United States of America"}], "release_date": "1942-09-30", "revenue": 0, "runtime": 79, "spoken_languages": [{"iso_639_1": "en", "name": "English"}], "status": "Released", "tagline": "TO THE FRONT of the HIT PARADE!", "title": "Panama Hattie", "video": false, "vote_average": 4.0, "vote_count": 1, "keywords": {"keywords": [{"id": 657, "name": "fire"}, {"id": 1956, "name": "world war ii"}, {"id": 4344, "name": "musical"}, {"id": 10712, "name": "night club"}, {"id": 33468, "name": "secret door"}, {"id": 41599, "name": "sailor"}, {"id": 208329, "name": "wartime propaganda"}]}, "similar": {"page": 1, "results": [{"id": 637, "video": false, "vote_count": 8080, "vote_average": 8.5, "title": "Life Is Beautiful", "release_date": "1997-12-20", "original_language": "it", "original_title": "La vita \u00e8 bella", "genre_ids": [35, 18], "backdrop_path": "/bORe0eI72D874TMawOOFvqWS6Xe.jpg", "adult": false, "overview": "A touching story of an Italian book seller of Jewish ancestry who lives in his own little fairy tale. His creative and happy life would come to an abrupt halt when his entire family is deported to a concentration camp during World War II. While locked up he tries to convince his son that the whole thing is just a game.", "poster_path": "/f7DImXDebOs148U4uPjI61iDvaK.jpg", "popularity": 33.768}, {"adult": false, "backdrop_path": "/pKawqrtCBMmxarft7o1LbEynys7.jpg", "genre_ids": [10752, 18, 28], "id": 228150, "original_language": "en", "original_title": "Fury", "overview": "In the last months of World War II, as the Allies make their final push in the European theatre, a battle-hardened U.S. Army sergeant named 'Wardaddy' commands a Sherman tank called 'Fury' and its five-man crew on a deadly mission behind enemy lines. Outnumbered and outgunned, Wardaddy and his men face overwhelming odds in their heroic attempts to strike at the heart of Nazi Germany.", "poster_path": "/fa4PxEPRKWRyjzYje1jM4m30qzd.jpg", "release_date": "2014-10-15", "title": "Fury", "video": false, "vote_average": 7.4, "vote_count": 7301, "popularity": 56.882}, {"id": 11046, "video": false, "vote_count": 433, "vote_average": 7.6, "title": "Where Eagles Dare", "release_date": "1968-12-04", "original_language": "en", "original_title": "Where Eagles Dare", "genre_ids": [28, 12, 18, 36, 10752], "backdrop_path": "/aAFq5jVHV6RZpLcRXATskNBuEbM.jpg", "adult": false, "overview": "World War II is raging, and an American general has been captured and is being held hostage in the Schloss Adler, a Bavarian castle that's nearly impossible to breach. It's up to a group of skilled Allied soldiers to liberate the general before it's too late.", "poster_path": "/991u0tSWGTVXCYkgC6ftaGE4bkQ.jpg", "popularity": 16.468}, {"id": 369885, "video": false, "vote_count": 3048, "vote_average": 6.7, "title": "Allied", "release_date": "2016-11-17", "original_language": "en", "original_title": "Allied", "genre_ids": [28, 18, 53, 10749, 10752], "backdrop_path": "/tC0tVH5KQhCwMlddnyA3iWOSuBA.jpg", "adult": false, "overview": "In 1942, an intelligence officer in North Africa encounters a female French Resistance fighter on a deadly mission behind enemy lines. When they reunite in London, their relationship is tested by the pressures of war.", "poster_path": "/nzXzLFTnd0Zb3ExfhOxlQgizgSu.jpg", "popularity": 32.359}, {"id": 438799, "video": false, "vote_count": 1393, "vote_average": 6.6, "title": "Overlord", "release_date": "2018-11-01", "original_language": "en", "original_title": "Overlord", "genre_ids": [27, 878, 10752], "backdrop_path": "/sHNC8hjAu4ZKXYhG3cp8ghRZ02B.jpg", "adult": false, "overview": "France, June 1944. On the eve of D-Day, some American paratroopers fall behind enemy lines after their aircraft crashes while on a mission to destroy a radio tower in a small village near the beaches of Normandy. After reaching their target, the surviving paratroopers realise that, in addition to fighting the Nazi troops that patrol the village, they also must fight against something else.", "poster_path": "/l76Rgp32z2UxjULApxGXAPpYdAP.jpg", "popularity": 21.089}, {"id": 1771, "video": false, "vote_count": 14031, "vote_average": 6.9, "title": "Captain America: The First Avenger", "release_date": "2011-07-22", "original_language": "en", "original_title": "Captain America: The First Avenger", "genre_ids": [28, 12, 878], "backdrop_path": "/pmZtj1FKvQqISS6iQbkiLg5TAsr.jpg", "adult": false, "overview": "During World War II, Steve Rogers is a sickly man from Brooklyn who's transformed into super-soldier Captain America to aid in the war effort. Rogers must stop the Red Skull \u2013 Adolf Hitler's ruthless head of weaponry, and the leader of an organization that intends to use a mysterious device of untold powers for world domination.", "poster_path": "/vSNxAJTlD0r02V9sPYpOjqDZXUK.jpg", "popularity": 22.016}, {"id": 424, "video": false, "vote_count": 8985, "vote_average": 8.6, "title": "Schindler's List", "release_date": "1993-11-30", "original_language": "en", "original_title": "Schindler's List", "genre_ids": [18, 36, 10752], "backdrop_path": "/cTNYRUTXkBgPH3wP3kmPUB5U6dA.jpg", "adult": false, "overview": "The true story of how businessman Oskar Schindler saved over a thousand Jewish lives from the Nazis while they worked as slaves in his factory during World War II.", "poster_path": "/yPisjyLweCl1tbgwgtzBCNCBle.jpg", "popularity": 31.046}, {"id": 515001, "video": false, "vote_count": 547, "vote_average": 8.0, "title": "Jojo Rabbit", "release_date": "2019-10-18", "original_language": "en", "original_title": "Jojo Rabbit", "genre_ids": [35, 18, 10752], "backdrop_path": "/agoBZfL1q5G79SD0npArSlJn8BH.jpg", "adult": false, "overview": "A World War II satire that follows a lonely German boy whose world view is turned upside down when he discovers his single mother is hiding a young Jewish girl in their attic. Aided only by his idiotic imaginary friend, Adolf Hitler, Jojo must confront his blind nationalism.", "poster_path": "/7GsM4mtM0worCtIVeiQt28HieeN.jpg", "popularity": 94.062}, {"id": 14574, "video": false, "vote_count": 3970, "vote_average": 7.8, "title": "The Boy in the Striped Pyjamas", "release_date": "2008-05-07", "original_language": "en", "original_title": "The Boy in the Striped Pyjamas", "genre_ids": [18, 10752], "backdrop_path": "/tFyhGkJgV6M5zZAjS8SBVqOjzH4.jpg", "adult": false, "overview": "When his family moves from their home in Berlin to a strange new house in Poland, young Bruno befriends Shmuel, a boy who lives on the other side of the fence where everyone seems to be wearing striped pajamas. Unaware of Shmuel's fate as a Jewish prisoner or the role his own Nazi father plays in his imprisonment, Bruno embarks on a dangerous journey inside the camp's walls.", "poster_path": "/f40R9to84FGF7T5bp3KGB84Lklb.jpg", "popularity": 23.522}, {"adult": false, "backdrop_path": "/hNn5koyqFmAXqOE8SzJBuhUmEZo.jpg", "genre_ids": [35, 10752], "id": 8290, "original_language": "fr", "original_title": "La Grande Vadrouille", "overview": "During World War II, two French civilians and a downed British Bomber Crew set out from Paris to cross the demarcation line between Nazi-occupied Northern France and the South. From there they will be able to escape to England. First, they must avoid German troops - and the consequences of their own blunders.", "poster_path": "/nMh6M8kraLZ7Uu4e8u7Vyb2qwg0.jpg", "release_date": "1966-12-07", "title": "Don't Look Now: We're Being Shot At", "video": false, "vote_average": 7.9, "vote_count": 691, "popularity": 19.026}, {"id": 853, "video": false, "vote_count": 1912, "vote_average": 7.3, "title": "Enemy at the Gates", "release_date": "2001-03-14", "original_language": "en", "original_title": "Enemy at the Gates", "genre_ids": [28, 18, 36, 10749, 10752], "backdrop_path": "/70G2k5LYyvatd87Rai7DJM0DcYj.jpg", "adult": false, "overview": "A Russian and a German sniper play a game of cat-and-mouse during the Battle of Stalingrad in WWII.", "poster_path": "/9cSoNnB31hGY2mL78VT8mAbz6nR.jpg", "popularity": 18.297}, {"adult": false, "backdrop_path": "/1RKpaOeY60gCNbkW2xGBrXYkZUg.jpg", "genre_ids": [18, 36, 10752], "id": 25237, "original_language": "ru", "original_title": "\u0418\u0434\u0438 \u0438 \u0441\u043c\u043e\u0442\u0440\u0438", "overview": "The invasion of a village in Byelorussia by German forces sends young Florya into the forest to join the weary Resistance fighters, against his family's wishes. There he meets a girl, Glasha, who accompanies him back to his village. On returning home, Florya finds his family and fellow peasants massacred. His continued survival amidst the brutal debris of war becomes increasingly nightmarish, a battle between despair and hope.", "poster_path": "/8MYIwgpXnc5x98dmidmJFD68MY6.jpg", "release_date": "1985-07-01", "title": "Come and See", "video": false, "vote_average": 8.3, "vote_count": 396, "popularity": 12.854}, {"adult": false, "backdrop_path": "/nb70B4EXuoegiQ0C5N1fNVHIaYc.jpg", "genre_ids": [12, 18, 36, 53, 10752], "id": 5925, "original_language": "en", "original_title": "The Great Escape", "overview": "The Nazis, exasperated at the number of escapes from their prison camps by a relatively small number of Allied prisoners, relocates them to a high-security 'escape-proof' camp to sit out the remainder of the war. Undaunted, the prisoners plan one of the most ambitious escape attempts of World War II. Based on a true story.", "poster_path": "/qhy4HgUqhEbwQ1ekKTv7yEB3b0e.jpg", "release_date": "1963-06-20", "title": "The Great Escape", "video": false, "vote_average": 8.0, "vote_count": 1358, "popularity": 17.61}, {"id": 11422, "video": false, "vote_count": 132, "vote_average": 6.5, "title": "Midway", "release_date": "1976-06-18", "original_language": "en", "original_title": "Midway", "genre_ids": [28, 18, 36, 10752], "backdrop_path": "/6jeTEV03QLsjkEomKM6XhjoVJch.jpg", "adult": false, "overview": "This war drama depicts the U.S. and Japanese forces in the naval Battle of Midway, which became a turning point for Americans during World War II.", "poster_path": "/dCUVG2po7DsBvnxfe7WGcJsUn9T.jpg", "popularity": 19.326}, {"id": 505954, "video": false, "vote_count": 211, "vote_average": 5.5, "title": "T-34", "release_date": "2018-12-27", "original_language": "ru", "original_title": "T-34", "genre_ids": [28, 10752], "backdrop_path": "/59qyrVGLLtrcuFtJGdixzn7H4OI.jpg", "adult": false, "overview": "In 1944, a courageous group of Russian soldiers managed to escape from German captivity in a half-destroyed legendary T-34 tank. Those were the times of unforgettable bravery, fierce fighting, unbreakable love, and legendary miracles.", "poster_path": "/3nag9eCEMIo4yVZD7sKLodEPe8T.jpg", "popularity": 40.247}, {"id": 16869, "video": false, "vote_count": 13519, "vote_average": 8.1, "title": "Inglourious Basterds", "release_date": "2009-08-18", "original_language": "en", "original_title": "Inglourious Basterds", "genre_ids": [28, 18, 53, 10752], "backdrop_path": "/50VD6QU0NX0aRB6ftKCVWun80bm.jpg", "adult": false, "overview": "In Nazi-occupied France during World War II, a group of Jewish-American soldiers known as \"The Basterds\" are chosen specifically to spread fear throughout the Third Reich by scalping and brutally killing Nazis. The Basterds, lead by Lt. Aldo Raine soon cross paths with a French-Jewish teenage girl who runs a movie theater in Paris which is targeted by the soldiers.", "poster_path": "/ai0LXkzVM3hMjDhvFdKMUemoBe.jpg", "popularity": 41.526}, {"id": 857, "video": false, "vote_count": 9339, "vote_average": 8.1, "title": "Saving Private Ryan", "release_date": "1998-07-24", "original_language": "en", "original_title": "Saving Private Ryan", "genre_ids": [18, 36, 10752], "backdrop_path": "/hjQp148VjWF4KjzhsD90OCMr11h.jpg", "adult": false, "overview": "As U.S. troops storm the beaches of Normandy, three brothers lie dead on the battlefield, with a fourth trapped behind enemy lines. Ranger captain John Miller and seven men are tasked with penetrating German-held territory and bringing the boy home.", "poster_path": "/35CMz4t7PuUiQqt5h4u5nbrXZlF.jpg", "popularity": 35.648}, {"id": 399404, "video": false, "vote_count": 3039, "vote_average": 7.3, "title": "Darkest Hour", "release_date": "2017-11-22", "original_language": "en", "original_title": "Darkest Hour", "genre_ids": [18, 36], "backdrop_path": "/zXwFJMwvQcJFitP9GcHZvHAHGe8.jpg", "adult": false, "overview": "A thrilling and inspiring true story begins on the eve of World War II as, within days of becoming Prime Minister of Great Britain, Winston Churchill must face one of his most turbulent and defining trials: exploring a negotiated peace treaty with Nazi Germany, or standing firm to fight for the ideals, liberty and freedom of a nation. As the unstoppable Nazi forces roll across Western Europe and the threat of invasion is imminent, and with an unprepared public, a skeptical King, and his own party plotting against him, Churchill must withstand his darkest hour, rally a nation, and attempt to change the course of world history.", "poster_path": "/z0K8uoNbrYKkbaP7wIeadJ4BmSL.jpg", "popularity": 27.654}, {"id": 522162, "video": false, "vote_count": 206, "vote_average": 6.7, "title": "Midway", "release_date": "2019-11-06", "original_language": "en", "original_title": "Midway", "genre_ids": [28, 18, 36, 10752], "backdrop_path": "/xjP88DFPCQ81mbZHXFscyYtGskT.jpg", "adult": false, "overview": "MIDWAY centers on the Battle of Midway, a clash between the American fleet and the Imperial Japanese Navy which marked a pivotal turning point in the Pacific Theater during WWII. The film, based on the real-life events of this heroic feat, tells the story of the leaders and soldiers who used their instincts, fortitude and bravery to overcome the odds.", "poster_path": "/hj8pyoNnynGeJTAbl7jcLZO8Uhx.jpg", "popularity": 61.847}, {"id": 423, "video": false, "vote_count": 4648, "vote_average": 8.3, "title": "The Pianist", "release_date": "2002-09-17", "original_language": "en", "original_title": "The Pianist", "genre_ids": [18, 10752], "backdrop_path": "/xUR95VFV1UTyzS1C8Lj06hi2n2M.jpg", "adult": false, "overview": "The true story of pianist W\u0142adys\u0142aw Szpilman's experiences in Warsaw during the Nazi occupation. When the Jews of the city find themselves forced into a ghetto, Szpilman finds work playing in a caf\u00e9; and when his family is deported in 1942, he stays behind, works for a while as a laborer, and eventually goes into hiding in the ruins of the war-torn city.", "poster_path": "/hfMeo073RxKKjZZV4gSGema1yog.jpg", "popularity": 26.63}], "total_pages": 25, "total_results": 483}, "recommendations": {"page": 1, "results": [], "total_pages": 1, "total_results": 0}, "credits": {"cast": [{"cast_id": 4, "character": "Red", "credit_id": "52fe4a2c9251416c750e0193", "gender": 2, "id": 105636, "name": "Red Skelton", "order": 0, "profile_path": "/hgTL0VVAnziAQjhPUM5DeHVmUFW.jpg"}, {"cast_id": 5, "character": "Hattie Maloney", "credit_id": "52fe4a2c9251416c750e0197", "gender": 1, "id": 87685, "name": "Ann Sothern", "order": 1, "profile_path": "/sPSFce7FL8ifU93HnRwaY4DtASx.jpg"}, {"cast_id": 6, "character": "Rags (as 'Rags' Ragland)", "credit_id": "52fe4a2c9251416c750e019b", "gender": 2, "id": 129549, "name": "Rags Ragland", "order": 2, "profile_path": "/WzDxP8my8E4e02hjfFTw20acsV.jpg"}, {"cast_id": 7, "character": "Rowdy", "credit_id": "52fe4a2c9251416c750e019f", "gender": 2, "id": 104034, "name": "Ben Blue", "order": 3, "profile_path": "/nFK6vskyW6XC8DA2S8m6EN2wA0b.jpg"}, {"cast_id": 13, "character": "Leila Tree", "credit_id": "52fe4a2c9251416c750e01b3", "gender": 1, "id": 1215925, "name": "Marsha Hunt", "order": 4, "profile_path": "/fKYyWL0MI0UrZp1UT6CaWOJqzEH.jpg"}, {"cast_id": 9, "character": "Flo Foster", "credit_id": "52fe4a2c9251416c750e01a3", "gender": 1, "id": 129548, "name": "Virginia O'Brien", "order": 5, "profile_path": "/94xpt8NAx2qVaTeNtPmYVtm5szh.jpg"}, {"cast_id": 10, "character": "Jay Jerkins, Dick's Butler", "credit_id": "52fe4a2c9251416c750e01a7", "gender": 2, "id": 8240, "name": "Alan Mowbray", "order": 6, "profile_path": "/s49NhpPmbn9ZaADRTJJAgDADDZt.jpg"}, {"cast_id": 11, "character": "Dick Bulliard (as Dan Dailey Jr.)", "credit_id": "52fe4a2c9251416c750e01ab", "gender": 2, "id": 82129, "name": "Dan Dailey", "order": 7, "profile_path": "/7lYu40kKfXSeRFKYT2OsceJHfRV.jpg"}, {"cast_id": 12, "character": "Geraldine 'Gerry' Bulliet", "credit_id": "52fe4a2c9251416c750e01af", "gender": 0, "id": 1080096, "name": "Jackie Horner", "order": 8, "profile_path": "/aTdThnuXLbQy7coyHGpVtnifGSH.jpg"}, {"cast_id": 15, "character": "Dancer in \"Good Neighors\" (uncredited)", "credit_id": "5afb18b2925141144e00259a", "gender": 0, "id": 2043092, "name": "Carmen Amaya", "order": 9, "profile_path": null}, {"cast_id": 16, "character": "Gimmie Girl (uncredited)", "credit_id": "5afb18d2c3a3687383003727", "gender": 0, "id": 2043093, "name": "Jackie Bardell", "order": 10, "profile_path": null}, {"cast_id": 17, "character": "The Berry Brothers", "credit_id": "5afb18fe0e0a263b8e00cdc0", "gender": 0, "id": 2043094, "name": "The Berry Brothers", "order": 11, "profile_path": null}, {"cast_id": 18, "character": "Ananias Berry (uncredited)", "credit_id": "5afb1937c3a3680e7a00fcd5", "gender": 0, "id": 1809054, "name": "Ananias Berry", "order": 12, "profile_path": null}, {"cast_id": 19, "character": "James Berry (uncredited)", "credit_id": "5afb194b0e0a262b11002d98", "gender": 0, "id": 1171966, "name": "James Berry", "order": 13, "profile_path": null}, {"cast_id": 20, "character": "Warren Berry", "credit_id": "5afb19750e0a263b9700cf14", "gender": 0, "id": 2043097, "name": "Warren Berry", "order": 14, "profile_path": null}, {"cast_id": 21, "character": "Member, Six Hits and a Miss (uncredited)", "credit_id": "5afb1998c3a3686f96002bde", "gender": 0, "id": 1678989, "name": "Pauline Byrne", "order": 15, "profile_path": null}, {"cast_id": 22, "character": "Performer in \"Good Neighbors\" and \"The Spring\" (uncredited)", "credit_id": "5afb19ca925141144e002634", "gender": 0, "id": 2043098, "name": "Zedra Conde", "order": 16, "profile_path": null}, {"cast_id": 23, "character": "Lucas Kefler (uncredited)", "credit_id": "5afb19ea0e0a263b7900d912", "gender": 2, "id": 87546, "name": "Carl Esmond", "order": 17, "profile_path": "/iJUArBML2muxOqcDGwauWOXReWF.jpg"}, {"cast_id": 24, "character": "Shore Patrolman (uncredited)", "credit_id": "5afb19fe925141414000c8b3", "gender": 2, "id": 111827, "name": "Fred Graham", "order": 18, "profile_path": "/dTkrp1Y0ijc5hvc4J3vmRRUD0ti.jpg"}, {"cast_id": 25, "character": "Cafe Patron (uncredited)", "credit_id": "5afb1ab10e0a263b8e00cec7", "gender": 2, "id": 137260, "name": "Stuart Hall", "order": 19, "profile_path": "/94TN01xmM8Mm9m0nb4lDPRveGfb.jpg"}, {"cast_id": 26, "character": "As self, Singer in Phil's Place (uncredited)", "credit_id": "5afb1b210e0a263b8e00cf11", "gender": 1, "id": 92900, "name": "Lena Horne", "order": 20, "profile_path": "/zqxMb5rxMfTS7p4GjVfiHhb5Zpj.jpg"}, {"cast_id": 27, "character": "Gimme Girl (uncredited)", "credit_id": "5afb1b480e0a263b8e00cf28", "gender": 0, "id": 2043109, "name": "Denise Lemley", "order": 21, "profile_path": null}, {"cast_id": 28, "character": "Performers in \"Hattie in Panama\" (uncredited)", "credit_id": "5afb1b76c3a3687383003991", "gender": 0, "id": 1678981, "name": "Six Hits and a Miss", "order": 22, "profile_path": null}, {"cast_id": 29, "character": "Spy (uncredited)", "credit_id": "5afb1bb29251410ef8002ad4", "gender": 2, "id": 1144349, "name": "Roger Moore", "order": 23, "profile_path": "/DUAWbhloHHlPLLVSLEN79Na8E2.jpg"}, {"cast_id": 30, "character": "Performer in \"Good Neighbors\" and \"The Spring\" (uncredited)", "credit_id": "5afb1be40e0a263b9100c63e", "gender": 1, "id": 1044338, "name": "Carmen Morales", "order": 24, "profile_path": null}, {"cast_id": 31, "character": "Party Guest (uncredited)", "credit_id": "5afb1c01c3a3687114003fac", "gender": 0, "id": 1550447, "name": "Sol Murgi", "order": 25, "profile_path": "/Wy1HgMEv8BRaJDQkXTVLJjaub1.jpg"}, {"cast_id": 32, "character": "Performers in \"Hattie in Panama\" (uncredited)", "credit_id": "5afb1c1ac3a3680e8300b376", "gender": 0, "id": 1209603, "name": "The Music Maids", "order": 26, "profile_path": null}, {"cast_id": 33, "character": "Spectator at arrival (uncredited)", "credit_id": "5afb1c2fc3a3686ddb003d97", "gender": 0, "id": 148853, "name": "George Nardelli", "order": 27, "profile_path": null}, {"cast_id": 34, "character": "Woman at Club (uncredited)", "credit_id": "5afb1c430e0a263b7900da6c", "gender": 1, "id": 1468551, "name": "Wanda Perry", "order": 28, "profile_path": "/yaPFE8UiO2yfJEOknGWQHHLqnB7.jpg"}, {"cast_id": 36, "character": "Performer in \"Good Neighbors\" and \"The Spring\" (uncredited)", "credit_id": "5afb1cba0e0a263b7600d7d4", "gender": 1, "id": 1413586, "name": "Suzanne Ridgeway", "order": 30, "profile_path": "/fCzOpu1U7YmVWKjSXlPXUYY92k4.jpg"}, {"cast_id": 37, "character": "Singer in \"Good Numbers\" (uncredited)", "credit_id": "5afb1cda0e0a262aeb003010", "gender": 0, "id": 2043111, "name": "Christine Stafford", "order": 31, "profile_path": null}, {"cast_id": 38, "character": "Jailer (uncredited)", "credit_id": "5afb1ced0e0a263b9100c6e2", "gender": 2, "id": 120178, "name": "Max Wagner", "order": 32, "profile_path": "/jGqPcA3iqvM9Qg9nMYm3f6ir5Db.jpg"}, {"cast_id": 39, "character": "Drummer (uncredited)", "credit_id": "5afb1cfac3a36870810018b3", "gender": 0, "id": 1361924, "name": "Zoot Watson", "order": 33, "profile_path": null}, {"cast_id": 40, "character": "Mac (uncredited)", "credit_id": "5afb1d28c3a3680e7a00ff22", "gender": 0, "id": 128641, "name": "George Watts", "order": 34, "profile_path": null}, {"cast_id": 41, "character": "Shore Patrolman (uncredited)", "credit_id": "5afb1d38925141144e002844", "gender": 2, "id": 30292, "name": "Grant Withers", "order": 35, "profile_path": "/cDmc7htZH7TiSCk4sCcTy4H1Pcc.jpg"}, {"cast_id": 42, "character": "Bruno (uncredited)", "credit_id": "5afb1d470e0a26231b0032d5", "gender": 2, "id": 978055, "name": "Duke York", "order": 36, "profile_path": null}, {"cast_id": 43, "character": "Waiter (uncredited)", "credit_id": "5afb1d550e0a26214a002ec9", "gender": 0, "id": 1196675, "name": "Joe Yule", "order": 37, "profile_path": "/AqVvow3oSoroV5VEwv5kRFCTk8p.jpg"}, {"cast_id": 74, "character": "Hans (uncredited)", "credit_id": "5b1670a192514178910144cb", "gender": 2, "id": 2931, "name": "Lucien Prival", "order": 38, "profile_path": "/3AI7FjZVjawUADj9gsrFwHNtg4J.jpg"}], "crew": [{"credit_id": "5afb1fbdc3a368780600227c", "department": "Costume & Make-Up", "gender": 2, "id": 14681, "job": "Hairstylist", "name": "Sydney Guilaroff", "profile_path": "/dG7l0ZrYmHN6QLtSikPudw846Zi.jpg"}, {"credit_id": "5844a638c3a368478d00eb72", "department": "Production", "gender": 2, "id": 9055, "job": "Producer", "name": "Arthur Freed", "profile_path": "/dzPxN7pBVeSgW46YEOuCzcDbIv2.jpg"}, {"credit_id": "5afb1f569251410d68003823", "department": "Editing", "gender": 1, "id": 9058, "job": "Editor", "name": "Blanche Sewell", "profile_path": "/wkDhyQuhaxZJZqx7UdnSIcyOR6o.jpg"}, {"credit_id": "5afb1f7d0e0a26201f002d76", "department": "Art", "gender": 2, "id": 9062, "job": "Art Direction", "name": "Cedric Gibbons", "profile_path": "/w8tc9iVH87Iu1KKFDZ9B99NhnBc.jpg"}, {"credit_id": "5afb1f91c3a3686ddb00404b", "department": "Art", "gender": 2, "id": 9063, "job": "Set Decoration", "name": "Edwin B. Willis", "profile_path": "/b4hSs5KLFXxSrvvA923VjdmywMl.jpg"}, {"credit_id": "5afb201d925141410500e2e9", "department": "Art", "gender": 2, "id": 10010, "job": "Assistant Decorator", "name": "Hugh Hunt", "profile_path": null}, {"credit_id": "5afb1f3ec3a36870810019e1", "department": "Camera", "gender": 2, "id": 12307, "job": "Director of Photography", "name": "George J. Folsey", "profile_path": null}, {"credit_id": "5afb21c10e0a263b9e00d4b4", "department": "Crew", "gender": 2, "id": 13980, "job": "Choreographer", "name": "Vincente Minnelli", "profile_path": "/qUV0pO7Q1Vs9Jcvq0LWcqOERQ2H.jpg"}, {"credit_id": "5afb1ef0c3a3686ddb003fcb", "department": "Writing", "gender": 2, "id": 13980, "job": "Story", "name": "Vincente Minnelli", "profile_path": "/qUV0pO7Q1Vs9Jcvq0LWcqOERQ2H.jpg"}, {"credit_id": "5afb1f2b925141144e00295b", "department": "Sound", "gender": 2, "id": 13983, "job": "Music Director", "name": "George Stoll", "profile_path": "/pWhrzMhBXhWEK9rr92E8OPDUghg.jpg"}, {"credit_id": "5afb20b80e0a262b110032c6", "department": "Camera", "gender": 2, "id": 27969, "job": "Camera Operator", "name": "Douglas Shearer", "profile_path": "/3kH8o524WTYSGBLcCx9v9ERP9sj.jpg"}, {"credit_id": "5afb20e90e0a263b8e00d272", "department": "Sound", "gender": 2, "id": 34229, "job": "Orchestrator", "name": "George Bassman", "profile_path": "/nRkuHU7U1HjO1RcmIf2zeHd62NR.jpg"}, {"credit_id": "5afb20f792514114ed001ccf", "department": "Sound", "gender": 2, "id": 34229, "job": "Vocals", "name": "George Bassman", "profile_path": "/nRkuHU7U1HjO1RcmIf2zeHd62NR.jpg"}, {"credit_id": "5afb1faa92514141a600e44f", "department": "Costume & Make-Up", "gender": 2, "id": 34225, "job": "Costume Design", "name": "Robert Kalloch", "profile_path": null}, {"credit_id": "5afb20ce0e0a263b9300d740", "department": "Sound", "gender": 2, "id": 34310, "job": "Orchestrator", "name": "Leo Arnaud", "profile_path": null}, {"credit_id": "5afb20dc92514114ed001cc6", "department": "Sound", "gender": 2, "id": 34310, "job": "Vocals", "name": "Leo Arnaud", "profile_path": null}, {"credit_id": "5afb1f6692514141a600e41f", "department": "Editing", "gender": 2, "id": 70982, "job": "Editor", "name": "Frank E. Hull", "profile_path": null}, {"credit_id": "52fe4a2c9251416c750e0183", "department": "Directing", "gender": 2, "id": 82389, "job": "Director", "name": "Norman Z. McLeod", "profile_path": "/oaf6aGWSkNPNAXPQNPz9MlktnrR.jpg"}, {"credit_id": "52fe4a2c9251416c750e0189", "department": "Writing", "gender": 0, "id": 132800, "job": "Screenplay", "name": "Jack McGowan", "profile_path": null}, {"credit_id": "5afb1e960e0a26214a002f84", "department": "Writing", "gender": 0, "id": 190735, "job": "Story", "name": "Joseph Schrank", "profile_path": null}, {"credit_id": "5afb1ec50e0a263b9700d1c6", "department": "Writing", "gender": 1, "id": 223265, "job": "Story", "name": "Mary C. McCall, Jr.", "profile_path": null}, {"credit_id": "5afb2279925141417e00b236", "department": "Crew", "gender": 0, "id": 224394, "job": "Choreographer", "name": "Daniel Dare", "profile_path": null}, {"credit_id": "5afb21f1925141429300907a", "department": "Sound", "gender": 2, "id": 554823, "job": "Orchestrator", "name": "Conrad Salinger", "profile_path": null}, {"credit_id": "5afb22010e0a263b8e00d30b", "department": "Sound", "gender": 2, "id": 554823, "job": "Vocals", "name": "Conrad Salinger", "profile_path": null}, {"credit_id": "52fe4a2c9251416c750e018f", "department": "Writing", "gender": 0, "id": 1168714, "job": "Screenplay", "name": "Wilkie C. Mahoney", "profile_path": null}, {"credit_id": "5afb1ffd925141414000cc21", "department": "Art", "gender": 0, "id": 1466973, "job": "Assistant Art Director", "name": "John S. Detlie", "profile_path": null}, {"credit_id": "5afb1fde9251412c1e0020dd", "department": "Directing", "gender": 0, "id": 1539056, "job": "Assistant Director", "name": "Bert Spurlin", "profile_path": null}, {"credit_id": "5afb224e0e0a263b8e00d341", "department": "Sound", "gender": 0, "id": 1588371, "job": "Orchestrator", "name": "Herbert Taylor", "profile_path": null}, {"credit_id": "5afb225b92514114ed001d81", "department": "Sound", "gender": 0, "id": 1867549, "job": "Orchestrator", "name": "Robert Van Eps", "profile_path": null}, {"credit_id": "5afb1edd9251412c1e002069", "department": "Writing", "gender": 0, "id": 2043115, "job": "Story", "name": "Lillie Messinger", "profile_path": null}, {"credit_id": "5afb223e0e0a263b7600db60", "department": "Sound", "gender": 0, "id": 2043117, "job": "Orchestrator", "name": "Basil Adlam", "profile_path": null}]}}