{"adult": false, "backdrop_path": null, "belongs_to_collection": null, "budget": 0, "genres": [{"id": 35, "name": "Comedy"}, {"id": 10749, "name": "Romance"}], "homepage": null, "id": 99322, "imdb_id": "tt0035307", "original_language": "en", "original_title": "Seven Days' Leave", "overview": "Soldier Johnny Grey is engaged to marry singer Mapy Cortes, but his plans go awry when he learns that he is the heir to $100,000 from his great-grandfather -- a bequest that comes with a catch: before claiming the money, Johnny must marry a descendant of his great-grandfather's Civil War enemy, General Havelock-Allen. Not wanting to disrupt his planned marriage to Mapy, Johnny must figure out how to concoct a temporary marriage-of-convenience with the descendant -- who turns out to be the beautiful Terry Havelock-Allen.", "popularity": 2.156, "poster_path": "/ff9n391zzLRuFWxIS7dbynd1dqk.jpg", "production_companies": [{"id": 6, "logo_path": "/n53F7K9scQWFXYbrCablqLKqJdp.png", "name": "RKO Radio Pictures", "origin_country": "US"}], "production_countries": [{"iso_3166_1": "US", "name": "United States of America"}], "release_date": "1942-11-13", "revenue": 0, "runtime": 87, "spoken_languages": [{"iso_639_1": "en", "name": "English"}], "status": "Released", "tagline": "", "title": "Seven Days' Leave", "video": false, "vote_average": 7.0, "vote_count": 1, "keywords": {"keywords": [{"id": 4344, "name": "musical"}, {"id": 6092, "name": "army"}]}, "similar": {"page": 1, "results": [{"id": 224141, "video": false, "vote_count": 3143, "vote_average": 5.7, "title": "Into the Woods", "release_date": "2014-12-24", "original_language": "en", "original_title": "Into the Woods", "genre_ids": [35, 14], "backdrop_path": "/lzJzB0QfkjpGCm9qUC4XpEIB6pm.jpg", "adult": false, "overview": "In a woods filled with magic and fairy tale characters, a baker and his wife set out to end the curse put on them by their neighbor, a spiteful witch.", "poster_path": "/5h91odPFNlBuJbRBj5N4MEBfXDE.jpg", "popularity": 28.397}, {"id": 872, "video": false, "vote_count": 1616, "vote_average": 8.2, "title": "Singin' in the Rain", "release_date": "1952-04-10", "original_language": "en", "original_title": "Singin' in the Rain", "genre_ids": [35, 10402, 10749], "backdrop_path": "/amW1YWQvcP8slDyDp1R652aVQZ7.jpg", "adult": false, "overview": "In 1927 Hollywood, a silent film production company and cast make a difficult transition to sound.", "poster_path": "/s39odBPtyutGBnEfBIpdm0fpRwv.jpg", "popularity": 20.625}, {"id": 18126, "video": false, "vote_count": 1217, "vote_average": 6.4, "title": "Hannah Montana: The Movie", "release_date": "2009-04-10", "original_language": "en", "original_title": "Hannah Montana: The Movie", "genre_ids": [35, 18, 10402, 10749, 10751], "backdrop_path": "/ezx3NkXNqf2KnJCP6Nfj1bfCFut.jpg", "adult": false, "overview": "As Hannah Montana's popularity begins to take over her life, Miley Stewart, on the urging from her father takes a trip to her hometown of Crowley Corners, Tennessee to get some perspective on what matters in life the most.", "poster_path": "/8pwbnmvshHj2yYPYlyJ8K8Yzecy.jpg", "popularity": 14.838}, {"id": 2005, "video": false, "vote_count": 1805, "vote_average": 6.7, "title": "Sister Act", "release_date": "1992-05-28", "original_language": "en", "original_title": "Sister Act", "genre_ids": [35, 10402], "backdrop_path": "/oaLqlJxt8TJSjsdfMpSkLexZ4l5.jpg", "adult": false, "overview": "A Reno singer witnesses a mob murder and the cops stash her in a nunnery to protect her from the mob's hitmen. The mother superior does not trust her, and takes steps to limit her influence on the other nuns. Eventually the singer rescues the failing choir and begins helping with community projects, which gets her an interview on TV\u2014and identification by the mob.", "poster_path": "/7wQxLtybiUbtC6tsJh9htFEmqq3.jpg", "popularity": 13.161}, {"id": 504608, "video": false, "vote_count": 1661, "vote_average": 7.4, "title": "Rocketman", "release_date": "2019-05-22", "original_language": "en", "original_title": "Rocketman", "genre_ids": [18, 10402], "backdrop_path": "/sZZJ42GrWKxSOfcrpI2TSFQa0AQ.jpg", "adult": false, "overview": "The story of Elton John's life, from his years as a prodigy at the Royal Academy of Music through his influential and enduring musical partnership with Bernie Taupin.", "poster_path": "/f4FF18ia7yTvHf2izNrHqBmgH8U.jpg", "popularity": 26.576}, {"id": 194662, "video": false, "vote_count": 8616, "vote_average": 7.5, "title": "Birdman", "release_date": "2014-08-27", "original_language": "en", "original_title": "Birdman", "genre_ids": [35, 18], "backdrop_path": "/AsJVim0Hk3KbQPbfjyijfjqmaoZ.jpg", "adult": false, "overview": "A fading actor best known for his portrayal of a popular superhero attempts to mount a comeback by appearing in a Broadway play. As opening night approaches, his attempts to become more altruistic, rebuild his career, and reconnect with friends and family prove more difficult than expected.", "poster_path": "/rSZs93P0LLxqlVEbI001UKoeCQC.jpg", "popularity": 37.733}, {"adult": false, "backdrop_path": "/ppDnBvf0f7vCZHRLtDjazpYHdTF.jpg", "genre_ids": [35, 10402, 10749], "id": 13368, "original_language": "en", "original_title": "White Christmas", "overview": "Two talented song-and-dance men team up after the war to become one of the hottest acts in show business. In time they befriend and become romantically involved with the beautiful Haynes sisters who comprise a sister act.", "poster_path": "/A5kBQsHKbIptxJyELEpHQJROCRj.jpg", "release_date": "1954-10-14", "title": "White Christmas", "video": false, "vote_average": 7.4, "vote_count": 250, "popularity": 16.622}, {"id": 332562, "video": false, "vote_count": 7176, "vote_average": 7.5, "title": "A Star Is Born", "release_date": "2018-10-03", "original_language": "en", "original_title": "A Star Is Born", "genre_ids": [18, 10402, 10749], "backdrop_path": "/mnDvPokXpvsdPcWSjNRPhiiLOKu.jpg", "adult": false, "overview": "Seasoned musician Jackson Maine discovers \u2014 and falls in love with \u2014 struggling artist Ally. She has just about given up on her dream to make it big as a singer \u2014 until Jack coaxes her into the spotlight. But even as Ally's career takes off, the personal side of their relationship is breaking down, as Jack fights an ongoing battle with his own internal demons.", "poster_path": "/wrFpXMNBRj2PBiN4Z5kix51XaIZ.jpg", "popularity": 32.943}, {"id": 252, "video": false, "vote_count": 1835, "vote_average": 7.5, "title": "Willy Wonka & the Chocolate Factory", "release_date": "1971-06-29", "original_language": "en", "original_title": "Willy Wonka & the Chocolate Factory", "genre_ids": [35, 14, 10751], "backdrop_path": "/nyqiCFF3pjcdwG2KmOwvM6CCLKA.jpg", "adult": false, "overview": "Eccentric candy man Willy Wonka prompts a worldwide frenzy when he announces that golden tickets hidden inside five of his delicious candy bars will admit their lucky holders into his top-secret confectionary. But does Wonka have an agenda hidden amid a world of Oompa Loompas and chocolate rivers?", "poster_path": "/b94qXd1FcIwgzv0NYMUe2bjrzJR.jpg", "popularity": 18.34}, {"adult": false, "backdrop_path": "/9T8sj5io4SGCBTHsk5H8LGcfKVe.jpg", "genre_ids": [10749, 18], "id": 419478, "original_language": "en", "original_title": "Midnight Sun", "overview": "Katie, a 17-year-old, has been sheltered since childhood and confined to her house during the day by a rare disease that makes even the smallest amount of sunlight deadly. Fate intervenes when she meets Charlie and they embark on a summer romance.", "poster_path": "/vPG2zEKPXhovPW9S91SRnwr5JM1.jpg", "release_date": "2018-03-22", "title": "Midnight Sun", "video": false, "vote_average": 7.7, "vote_count": 1921, "popularity": 23.24}, {"id": 313369, "video": false, "vote_count": 11057, "vote_average": 7.9, "title": "La La Land", "release_date": "2016-11-29", "original_language": "en", "original_title": "La La Land", "genre_ids": [35, 18, 10402, 10749], "backdrop_path": "/fp6X6yhgcxzxCpmM0EVC6V9B8XB.jpg", "adult": false, "overview": "Mia, an aspiring actress, serves lattes to movie stars in between auditions and Sebastian, a jazz musician, scrapes by playing cocktail party gigs in dingy bars, but as success mounts they are faced with decisions that begin to fray the fragile fabric of their love affair, and the dreams they worked so hard to maintain in each other threaten to rip them apart.", "poster_path": "/ylXCdC106IKiarftHkcacasaAcb.jpg", "popularity": 30.693}, {"id": 606117, "video": false, "vote_count": 256, "vote_average": 6.8, "title": "A Cinderella Story: Christmas Wish", "release_date": "2019-10-15", "original_language": "en", "original_title": "A Cinderella Story: Christmas Wish", "genre_ids": [35, 14, 10402, 10749], "backdrop_path": "/h3kzgUaUOamInX7nsALsFmlw4qX.jpg", "adult": false, "overview": "Kat is an aspiring singer-songwriter who dreams of making it big. However, her dreams are stalled by her reality: a conniving and cruel stepfamily  and a demoralizing job working as a singing elf at billionaire Terrence Wintergarden\u2019s Santa Land.", "poster_path": "/ozBX0u5caaJFli9AssqJmARb5R.jpg", "popularity": 25.37}, {"id": 10515, "video": false, "vote_count": 1871, "vote_average": 8.0, "title": "Castle in the Sky", "release_date": "1986-08-02", "original_language": "ja", "original_title": "\u5929\u7a7a\u306e\u57ce\u30e9\u30d4\u30e5\u30bf", "genre_ids": [28, 12, 16, 14, 10749, 10751], "backdrop_path": "/hf4CRxGMi8zmLjkudyTWfVtnuXr.jpg", "adult": false, "overview": "A young boy and a girl with a magic crystal must race against pirates and foreign agents in a search for a legendary floating castle.", "poster_path": "/4RTG2AaqZ9eleL51ryWwv78WwDu.jpg", "popularity": 29.174}, {"id": 15969, "video": false, "vote_count": 1085, "vote_average": 5.8, "title": "The Return of Jafar", "release_date": "1994-12-15", "original_language": "en", "original_title": "The Return of Jafar", "genre_ids": [12, 16, 10749, 10751], "backdrop_path": "/sLF3zgqfFC6Vev84h9aK4U88M2C.jpg", "adult": false, "overview": "The evil Jafar escapes from the magic lamp as an all-powerful genie, ready to plot his revenge against Aladdin. From battling elusive villains atop winged horses, to dodging flames inside an exploding lava pit, it's up to Aladdin - with Princess Jasmine and the outrageously funny Genie by his side - to save the kingdom once and for all.", "poster_path": "/sC4wDVBMPMxmn5JJqPalMOhQ35U.jpg", "popularity": 24.656}, {"id": 10882, "video": false, "vote_count": 3217, "vote_average": 6.9, "title": "Sleeping Beauty", "release_date": "1959-01-28", "original_language": "en", "original_title": "Sleeping Beauty", "genre_ids": [16, 14, 10749, 10751], "backdrop_path": "/oHZIobyIG0YzWntyPCTSJDOk9qB.jpg", "adult": false, "overview": "A beautiful princess born in a faraway kingdom is destined by a terrible curse to prick her finger on the spindle of a spinning wheel and fall into a deep sleep that can only be awakened by true love's first kiss. Determined to protect her, her parents ask three fairies to raise her in hiding. But the evil Maleficent is just as determined to seal the princess's fate.", "poster_path": "/j4YBuAe8D1jDSiitpq69og9x3Yl.jpg", "popularity": 28.036}, {"adult": false, "backdrop_path": "/6bnI08rrGXRkngRqJWCMXDZuJ1j.jpg", "genre_ids": [35, 10402], "id": 254470, "original_language": "en", "original_title": "Pitch Perfect 2", "overview": "The Bellas are back, and they are better than ever. After being humiliated in front of none other than the President of the United States of America, the Bellas are taken out of the Aca-Circuit. In order to clear their name, and regain their status, the Bellas take on a seemingly impossible task: winning an international competition no American team has ever won. In order to accomplish this monumental task, they need to strengthen the bonds of friendship and sisterhood and blow away the competition with their amazing aca-magic! With all new friends and old rivals tagging along for the trip, the Bellas can hopefully accomplish their dreams.", "poster_path": "/qSjruLiFB4uqRtz2xheQPxG8uaB.jpg", "release_date": "2015-05-07", "title": "Pitch Perfect 2", "video": false, "vote_average": 6.8, "vote_count": 3898, "popularity": 27.354}, {"adult": false, "backdrop_path": "/5x0VEeFCnWzRBwU23KycKQRqEhN.jpg", "genre_ids": [10402, 35], "id": 15157, "original_language": "en", "original_title": "Another Cinderella Story", "overview": "A guy who danced with what could be the girl of his dreams at a costume ball only has one hint at her identity: the Zune she left behind as she rushed home in order to make her curfew. And with a once-in-a-lifetime opportunity in front of him, he sets out to find his masked beauty.", "poster_path": "/fLdCKCfHT8A6bnWybBsQFjC4fCo.jpg", "release_date": "2008-09-16", "title": "Another Cinderella Story", "video": false, "vote_average": 6.6, "vote_count": 1120, "popularity": 22.24}, {"adult": false, "backdrop_path": "/3eAudH9hkkr451VoAZPLEQVy5wX.jpg", "genre_ids": [35, 18, 10402, 10749], "id": 6282, "original_language": "en", "original_title": "Coyote Ugly", "overview": "Graced with a velvet voice, 21-year-old Violet Sanford heads to New York to pursue her dream of becoming a songwriter only to find her aspirations sidelined by the accolades and notoriety she receives at her \"day\" job as a barmaid at Coyote Ugly. The \"Coyotes\" as they are affectionately called tantalize customers and the media alike with their outrageous antics, making Coyote Ugly the watering hole for guys on the prowl.", "poster_path": "/p3nIrS9rkdVmMmgKAWtGsmAnhGV.jpg", "release_date": "2000-07-30", "title": "Coyote Ugly", "video": false, "vote_average": 6.1, "vote_count": 1166, "popularity": 20.571}, {"adult": false, "backdrop_path": "/3mhNnNmfCGrjyVEZhjWRVcjMOSi.jpg", "genre_ids": [14, 16, 10749, 10751], "id": 54113, "original_language": "en", "original_title": "The Swan Princess: Escape from Castle Mountain", "overview": "The first wedding anniversary of Princess Odette and Prince Derek is distracted by field fires set by Knuckles. His master Clavius, wants to conquer the world, and he needs to capture a giant orb to do that. Clavius kidnaps Queen Uberta and Odette with Derek have to save her.", "poster_path": "/oTEgvTpAIugS7OH6oIoVZkmV3C3.jpg", "release_date": "1997-01-01", "title": "The Swan Princess: Escape from Castle Mountain", "video": false, "vote_average": 6.0, "vote_count": 198, "popularity": 15.715}, {"id": 11887, "video": false, "vote_count": 2347, "vote_average": 6.5, "title": "High School Musical 3: Senior Year", "release_date": "2008-10-11", "original_language": "en", "original_title": "High School Musical 3: Senior Year", "genre_ids": [35, 18, 10402, 10749, 10751], "backdrop_path": "/daSGxGZL2nNjGZKkAF5ain3lmOx.jpg", "adult": false, "overview": "It's almost graduation day for high school seniors Troy, Gabriella, Sharpay, Chad, Ryan and Taylor \u2015 and the thought of heading off in separate directions after leaving East High has these Wildcats thinking they need to do something they'll remember forever. Together with the rest of the Wildcats, they stage a spring musical reflecting their hopes and fears about the future and their unforgettable experiences growing up together. But with graduation approaching and college plans in question, what will become of the dreams, romances, and friendships of East High's senior Wildcats?", "poster_path": "/ewZpH2QIfPQ0VIn9lPf7MHbLbl4.jpg", "popularity": 19.967}], "total_pages": 169, "total_results": 3372}, "recommendations": {"page": 1, "results": [], "total_pages": 1, "total_results": 0}, "credits": {"cast": [{"cast_id": 2, "character": "Johnny Grey", "credit_id": "52fe4a2f9251416c750e0771", "gender": 2, "id": 30290, "name": "Victor Mature", "order": 0, "profile_path": "/aQpiinWT3QJQzLi7mWbW45kXXPz.jpg"}, {"cast_id": 3, "character": "Terry Havalok-Allen", "credit_id": "52fe4a2f9251416c750e0775", "gender": 1, "id": 40174, "name": "Lucille Ball", "order": 1, "profile_path": "/gcJ5Qwg9lcadvdCxC22AjFuJC4A.jpg"}, {"cast_id": 4, "character": "Throckmorton P. Gildersleeve", "credit_id": "52fe4a2f9251416c750e0779", "gender": 2, "id": 34559, "name": "Harold Peary", "order": 2, "profile_path": "/fCJAfOSdZUuZr2bheqEp6LUoz7R.jpg"}, {"cast_id": 5, "character": "Mapy (as Mapy Cortes)", "credit_id": "52fe4a2f9251416c750e077d", "gender": 1, "id": 1147038, "name": "Mapy Cort\u00e9s", "order": 3, "profile_path": "/vYVF81gXnEB0PVX7dKz2iHXvSp4.jpg"}, {"cast_id": 6, "character": "Ginny Simms", "credit_id": "52fe4a2f9251416c750e0781", "gender": 1, "id": 143455, "name": "Ginny Simms", "order": 4, "profile_path": "/7P4c47cZO2b9n8dVdlEabLNuKbV.jpg"}, {"cast_id": 21, "character": "Freddy Martin", "credit_id": "53ca46ea0e0a26474b001df1", "gender": 0, "id": 1224639, "name": "Freddy Martin", "order": 5, "profile_path": "/AkxOn7RVroOhdHSHbpdjMNTcU62.jpg"}, {"cast_id": 22, "character": "Mickey Havalok-Allen", "credit_id": "53ca48390e0a26473f001e08", "gender": 1, "id": 1027113, "name": "Marcy McGuire", "order": 6, "profile_path": "/1yv5DgEkvIWwCXA24EYD8QjixFb.jpg"}, {"cast_id": 23, "character": "Bitsy Slater", "credit_id": "53ca48b40e0a264742001dd6", "gender": 2, "id": 7332, "name": "Arnold Stang", "order": 7, "profile_path": "/d6JMdwwrMZeVy2uV8ZMZIfbK6tS.jpg"}, {"cast_id": 24, "character": "Pvt. Pete Jackson", "credit_id": "53ca48e00e0a26473f001e38", "gender": 2, "id": 133769, "name": "Peter Lind Hayes", "order": 8, "profile_path": "/jOkAJeFFgPEGXjH0C9PwrGgyvQN.jpg"}], "crew": [{"credit_id": "53ca460a0e0a264753001d37", "department": "Editing", "gender": 2, "id": 1744, "job": "Editor", "name": "Robert Wise", "profile_path": "/6EPkRgYsDMQOYmE9s1vZt2O470R.jpg"}, {"credit_id": "53ca46a60e0a264748001d8a", "department": "Crew", "gender": 2, "id": 3252, "job": "Special Effects", "name": "Vernon L. Walker", "profile_path": "/efFZ1KZeJuvE4mWaLrceC9TS3vN.jpg"}, {"credit_id": "53ca46310e0a264745001d01", "department": "Art", "gender": 2, "id": 3255, "job": "Art Direction", "name": "Carroll Clark", "profile_path": null}, {"credit_id": "53ca46420e0a264750001dcf", "department": "Art", "gender": 2, "id": 4349, "job": "Art Direction", "name": "Albert S. D'Agostino", "profile_path": "/nYJgsC5n7j2XZRgqVlct6Zy0U3V.jpg"}, {"credit_id": "53ca46680e0a264753001d49", "department": "Art", "gender": 2, "id": 7338, "job": "Set Decoration", "name": "Darrell Silvera", "profile_path": null}, {"credit_id": "53ca45ee0e0a264753001d30", "department": "Camera", "gender": 2, "id": 33413, "job": "Director of Photography", "name": "Robert De Grasse", "profile_path": null}, {"credit_id": "53ca467b0e0a264750001dd8", "department": "Costume & Make-Up", "gender": 1, "id": 38229, "job": "Costume Design", "name": "Reni\u00e9", "profile_path": "/76N2CTu6h9sZZ8CfkexRlhFiVly.jpg"}, {"credit_id": "52fe4a2f9251416c750e0787", "department": "Writing", "gender": 2, "id": 69948, "job": "Screenplay", "name": "William Bowers", "profile_path": "/31257PgXpPD7npsbBlO9eZoKgXK.jpg"}, {"credit_id": "52fe4a2f9251416c750e076d", "department": "Directing", "gender": 2, "id": 71788, "job": "Director", "name": "Tim Whelan", "profile_path": null}, {"credit_id": "53ca45d90e0a26473c001c29", "department": "Production", "gender": 2, "id": 71788, "job": "Producer", "name": "Tim Whelan", "profile_path": null}, {"credit_id": "52fe4a2f9251416c750e078d", "department": "Writing", "gender": 0, "id": 148431, "job": "Screenplay", "name": "Ralph Spence", "profile_path": null}, {"credit_id": "52fe4a2f9251416c750e0793", "department": "Writing", "gender": 0, "id": 167903, "job": "Screenplay", "name": "Curtis Kenyon", "profile_path": null}, {"credit_id": "52fe4a2f9251416c750e0799", "department": "Writing", "gender": 0, "id": 935862, "job": "Screenplay", "name": "Kenneth Earl", "profile_path": null}, {"credit_id": "53ca46560e0a264753001d44", "department": "Art", "gender": 0, "id": 1339511, "job": "Set Decoration", "name": "Michael Ohrenbach", "profile_path": null}, {"credit_id": "53ca46930e0a264745001d10", "department": "Directing", "gender": 0, "id": 1340084, "job": "Assistant Director", "name": "Sam Ruman", "profile_path": null}]}}